Division,WeightClassKg,Place,Name,Team,BodyweightKg,Best3SquatKg,Best3BenchKg,Best3DeadliftKg,TotalKg,Equipment,Event,Sex
Boys,51.71,1,Bryce Leatherwood,Dublin,49.71,95.25,61.23,106.59,263.08,Single-ply,SBD,M
Boys,51.71,2,Roberto Ortiz,Venus,46.9,102.06,56.7,102.06,260.82,Single-ply,SBD,M
Boys,51.71,3,Carlos Martinez,Dublin,44,52.16,43.09,83.91,179.17,Single-ply,SBD,M
Boys,55.79,1,Eduardo Perez,Venus,54.88,167.83,83.91,170.1,421.84,Single-ply,SBD,M
Boys,55.79,2,Houston Tucker,Hamilton,54.79,113.4,65.77,142.88,322.05,Single-ply,SBD,M
Boys,55.79,3,Gabriel Leal,Venus,55.7,99.79,79.38,120.2,299.37,Single-ply,SBD,M
Boys,55.79,4,Dalton Walker,Ranger,54.43,106.59,72.57,111.13,290.3,Single-ply,SBD,M
Boys,55.79,5,Martin Velasquez,Hico,54.79,92.99,61.23,111.13,265.35,Single-ply,SBD,M
Boys,55.79,6,Hanner Campbell,Early,52.25,90.72,47.63,86.18,224.53,Single-ply,SBD,M
Boys,59.87,1,Alex Schaefer,Venus,59.42,170.1,90.72,165.56,426.38,Single-ply,SBD,M
Boys,59.87,2,Cesar Galvan,Dublin,59.87,145.15,74.84,156.49,376.48,Single-ply,SBD,M
Boys,59.87,3,Cale Wade,Early,58.06,147.42,90.72,111.13,349.27,Single-ply,SBD,M
Boys,59.87,4,Hunter Burton,Millsap,57.97,111.13,77.11,124.74,312.98,Single-ply,SBD,M
Boys,59.87,DQ,Justin Richardson,Ranger,59.69,,52.16,131.54,,Single-ply,SBD,M
Boys,67.13,1,Israel Castillo,Venus,66.04,192.78,102.06,192.78,487.61,Single-ply,SBD,M
Boys,67.13,2,Dillon Graves,Glen Rose,60.78,163.29,115.67,197.31,476.27,Single-ply,SBD,M
Boys,67.13,3,Jesson Tarrant,Early,65.59,172.37,102.06,167.83,442.25,Single-ply,SBD,M
Boys,67.13,4,Ricardo Alvarez,Alvarado,64.5,154.22,92.99,181.44,428.64,Single-ply,SBD,M
Boys,67.13,5,Maxx Lauderdale,Glen Rose,66.22,149.69,99.79,176.9,426.38,Single-ply,SBD,M
Boys,67.13,6,Reed Saint,San Saba,66.95,145.15,90.72,165.56,401.43,Single-ply,SBD,M
Boys,67.13,7,Carson Elston,Stephenville,63.32,129.27,81.65,151.95,362.87,Single-ply,SBD,M
Boys,67.13,8,Christian Moseley,Glen Rose,66.77,136.08,79.38,145.15,360.61,Single-ply,SBD,M
Boys,67.13,9,Charlie Hughes,Stephenville,64.86,129.27,90.72,133.81,353.8,Single-ply,SBD,M
Boys,67.13,10,Jacob Merrill,Glen Rose,63.32,129.27,77.11,140.61,347,Single-ply,SBD,M
Boys,67.13,11,Anthony Seider,Lometa,63.32,129.27,72.57,142.88,344.73,Single-ply,SBD,M
Boys,67.13,12,Johnny Clubb,Early,60.42,136.08,68.04,127.01,331.12,Single-ply,SBD,M
Boys,67.13,13,Jd Burke,San Saba,64.77,117.93,65.77,147.42,331.12,Single-ply,SBD,M
Boys,67.13,14,Abid Corrujedo,Glen Rose,65.32,122.47,83.91,122.47,328.85,Single-ply,SBD,M
Boys,67.13,15,Louis Ramirez,San Saba,65.77,111.13,65.77,136.08,312.98,Single-ply,SBD,M
Boys,67.13,16,Blain Bankston,Hamilton,64.32,102.06,65.77,127.01,294.84,Single-ply,SBD,M
Boys,67.13,17,Baylor Burkett,Millsap,61.69,111.13,56.7,113.4,281.23,Single-ply,SBD,M
Boys,67.13,DQ,Jerimiah Jimenez,San Saba,65.32,90.72,,,,Single-ply,SBD,M
Boys,67.13,DQ,Gilberto Baez,San Saba,65.77,99.79,,127.01,,Single-ply,SBD,M
Boys,74.84,1,David Berrera,Venus,69.31,185.97,99.79,181.44,467.2,Single-ply,SBD,M
Boys,74.84,2,Blake Pettit,Hamilton,70.76,170.1,92.99,183.7,446.79,Single-ply,SBD,M
Boys,74.84,3,Carter Turner,San Saba,69.85,158.76,104.33,172.37,435.45,Single-ply,SBD,M
Boys,74.84,4,Zeke Gonzalez,Hillsboro,68.49,151.95,99.79,163.29,415.04,Single-ply,SBD,M
Boys,74.84,5,Andy Montoya,San Saba,73.57,154.22,90.72,170.1,415.04,Single-ply,SBD,M
Boys,74.84,6,Nate Martin,Early,74.21,145.15,95.25,161.03,401.43,Single-ply,SBD,M
Boys,74.84,7,Jace Davis,Millsap,71.67,142.88,77.11,151.95,371.95,Single-ply,SBD,M
Boys,74.84,8,Eric Agote,San Saba,69.85,133.81,86.18,142.88,362.87,Single-ply,SBD,M
Boys,74.84,9,Esteban Rodriguez,Dublin,74.03,131.54,95.25,136.08,362.87,Single-ply,SBD,M
Boys,74.84,10,Auston McBroom,Millsap,71.85,136.08,77.11,147.42,360.61,Single-ply,SBD,M
Boys,74.84,11,Sekima Herrera,San Saba,68.58,113.4,90.72,154.22,358.34,Single-ply,SBD,M
Boys,74.84,12,Ryan Trompler,Early,69.76,136.08,90.72,131.54,358.34,Single-ply,SBD,M
Boys,74.84,13,Pablo Cruz,Hico,73.21,129.27,92.99,133.81,356.07,Single-ply,SBD,M
Boys,74.84,14,Juble Stevens,Millsap,73.66,124.74,65.77,147.42,337.93,Single-ply,SBD,M
Boys,74.84,15,Dillon Schumann,Stephenville,72.03,117.93,88.45,129.27,335.66,Single-ply,SBD,M
Boys,74.84,16,Areben Bullard,Hamilton,67.49,102.06,61.23,124.74,288.03,Single-ply,SBD,M
Boys,74.84,17,Colton Cotton,Millsap,68.86,102.06,65.77,120.2,288.03,Single-ply,SBD,M
Boys,82.1,1,Jim Fowler,Early,81.28,204.12,124.74,192.78,521.63,Single-ply,SBD,M
Boys,82.1,2,Canon Arnold,Alvarado,81.37,183.7,131.54,181.44,496.68,Single-ply,SBD,M
Boys,82.1,3,Martin Najera,Hamilton,79.02,185.97,92.99,213.19,492.15,Single-ply,SBD,M
Boys,82.1,4,Bailey Jones #1,Early,78.11,174.63,120.2,179.17,474,Single-ply,SBD,M
Boys,82.1,5,Neiman Turner,Hillsboro,79.74,158.76,113.4,190.51,462.66,Single-ply,SBD,M
Boys,82.1,6,Stuart Cortez,Hamilton,79.83,174.63,104.33,183.7,462.66,Single-ply,SBD,M
Boys,82.1,7,Ty Tipton,Cross Plains,81.19,181.44,92.99,185.97,460.4,Single-ply,SBD,M
Boys,82.1,8,Tyler Bell,Dublin,80.83,174.63,108.86,165.56,449.06,Single-ply,SBD,M
Boys,82.1,9,Austin Rosales,Coleman,77.66,136.08,111.13,185.97,433.18,Single-ply,SBD,M
Boys,82.1,10,Cristian Vazquez,Dublin,78.65,172.37,92.99,167.83,433.18,Single-ply,SBD,M
Boys,82.1,11,Blaize Leatherwood,Dublin,81.19,170.1,79.38,167.83,417.3,Single-ply,SBD,M
Boys,82.1,12,Gino Lara,Venus,81.37,163.29,83.91,165.56,412.77,Single-ply,SBD,M
Boys,82.1,13,James Young #3,Hamilton,77.11,154.22,92.99,154.22,401.43,Single-ply,SBD,M
Boys,82.1,14,Michael Flores #7,Hillsboro,79.83,147.42,102.06,147.42,396.89,Single-ply,SBD,M
Boys,82.1,15,Angel Escobar,Dublin,75.93,133.81,79.38,145.15,358.34,Single-ply,SBD,M
Boys,82.1,DQ,Jordan Mata,Hillsboro,77.38,,79.38,136.08,,Single-ply,SBD,M
Boys,82.1,DQ,Brenden McKinney,Hico,81.92,,61.23,138.35,,Single-ply,SBD,M
Boys,89.81,1,Emiliano Jimenez,Comanche,87.82,208.65,129.27,215.46,553.38,Single-ply,SBD,M
Boys,89.81,2,Issac De La Cruz,Stephenville,85.28,185.97,124.74,197.31,508.02,Single-ply,SBD,M
Boys,89.81,3,Rolando Ramirez,Hillsboro,88.9,188.24,129.27,190.51,508.02,Single-ply,SBD,M
Boys,89.81,4,Johnny Jurado,Dublin,85.55,183.7,108.86,188.24,480.81,Single-ply,SBD,M
Boys,89.81,5,Richard Salazar,Comanche,84.55,185.97,102.06,185.97,474,Single-ply,SBD,M
Boys,89.81,6,Ty Schafer,Early,85.82,163.29,108.86,197.31,469.47,Single-ply,SBD,M
Boys,89.81,7,Joseph Watson,San Saba,87.54,158.76,117.93,183.7,460.4,Single-ply,SBD,M
Boys,89.81,8,Derek Ford,Alvarado,88.18,165.56,92.99,181.44,439.98,Single-ply,SBD,M
Boys,89.81,9,Ricky Douglas,Glen Rose,83.28,154.22,102.06,172.37,428.64,Single-ply,SBD,M
Boys,89.81,10,Ulises DeLaCerda,Dublin,85.82,156.49,102.06,167.83,426.38,Single-ply,SBD,M
Boys,89.81,11,Colby Henry,Lometa,85,147.42,104.33,163.29,415.04,Single-ply,SBD,M
Boys,89.81,12,Marcus Moseley,Glen Rose,87.54,151.95,102.06,158.76,412.77,Single-ply,SBD,M
Boys,89.81,13,Diego Crader,Early,85.55,142.88,108.86,142.88,394.63,Single-ply,SBD,M
Boys,89.81,14,Gage Sikes,Coleman,88.54,140.61,83.91,158.76,383.29,Single-ply,SBD,M
Boys,89.81,15,Javier Felan,Lometa,87.27,129.27,88.45,161.03,378.75,Single-ply,SBD,M
Boys,89.81,16,Damien Thomas,Millsap,84.19,140.61,88.45,140.61,369.68,Single-ply,SBD,M
Boys,89.81,17,Jacob Harvin,Hico,83.1,120.2,74.84,104.33,299.37,Single-ply,SBD,M
Boys,89.81,DQ,Nacho Rios,Comanche,85.37,192.78,,,,Single-ply,SBD,M
Boys,89.81,DQ,Jayten Ricardson,Ranger,84.46,181.44,,151.95,,Single-ply,SBD,M
Boys,99.79,1,Christopher Flores,Hillsboro,95.35,217.72,163.29,190.51,571.53,Single-ply,SBD,M
Boys,99.79,2,Cade Lewis,Venus,92.08,210.92,117.93,195.04,523.9,Single-ply,SBD,M
Boys,99.79,3,Clayton Pierce,San Saba,99.25,181.44,113.4,185.97,480.81,Single-ply,SBD,M
Boys,99.79,4,Jacob King,Hamilton,94.89,192.78,92.99,192.78,478.54,Single-ply,SBD,M
Boys,99.79,5,Noble Stevens,Millsap,99.25,185.97,113.4,179.17,478.54,Single-ply,SBD,M
Boys,99.79,6,Arturo Guerrero,Millsap,94.98,183.7,102.06,181.44,467.2,Single-ply,SBD,M
Boys,99.79,7,Michael Felan,Stephenville,94.53,158.76,111.13,158.76,428.64,Single-ply,SBD,M
Boys,99.79,8,Jadyn Lehde,Early,91.72,167.83,83.91,145.15,396.89,Single-ply,SBD,M
Boys,99.79,9,Jesus Cervantes,San Saba,99.43,133.81,104.33,158.76,396.89,Single-ply,SBD,M
Boys,109.77,1,Nic Lara,Glen Rose,107.05,226.8,138.35,204.12,569.26,Single-ply,SBD,M
Boys,109.77,2,Jared Ricks,Dublin,108.95,204.12,158.76,183.7,546.58,Single-ply,SBD,M
Boys,109.77,3,Kendel Beck,Comanche,102.6,192.78,136.08,192.78,521.63,Single-ply,SBD,M
Boys,109.77,4,Zach Powell,Glen Rose,107.68,190.51,127.01,204.12,521.63,Single-ply,SBD,M
Boys,109.77,5,Daniel Aguilar,Millsap,105.41,206.38,113.4,195.04,514.83,Single-ply,SBD,M
Boys,109.77,6,Adnan Marazi,Venus,102.78,188.24,102.06,179.17,469.47,Single-ply,SBD,M
Boys,109.77,7,Tony Ramos #3,Glen Rose,105.87,172.37,108.86,167.83,449.06,Single-ply,SBD,M
Boys,109.77,8,Astin Carr,Hamilton,101.88,183.7,113.4,142.88,439.98,Single-ply,SBD,M
Boys,109.77,9,Damon McClary,Hico,102.15,183.7,88.45,142.88,415.04,Single-ply,SBD,M
Boys,109.77,10,Daniel McKinzie,Hico,101.79,124.74,111.13,142.88,378.75,Single-ply,SBD,M
Boys,109.77,11,Bryan Reza,San Saba,109.41,124.74,90.72,138.35,353.8,Single-ply,SBD,M
Boys,109.77,DQ,Grant McGarity,Glen Rose,102.15,185.97,,158.76,,Single-ply,SBD,M
Boys,124.74,1,Ethan Price,Dublin,120.66,278.96,206.38,249.48,734.82,Single-ply,SBD,M
Boys,124.74,2,Jacob Collier,Cross Plains,111.77,238.14,120.2,197.31,555.65,Single-ply,SBD,M
Boys,124.74,3,Jacob Poston,Stephenville,116.39,213.19,138.35,183.7,535.24,Single-ply,SBD,M
Boys,124.74,4,Heriberto Warren,Hico,122.56,204.12,129.27,188.24,521.63,Single-ply,SBD,M
Boys,124.74,5,Sawyer Barron,Ranger,114.03,197.31,129.27,165.56,492.15,Single-ply,SBD,M
Boys,124.74,6,Landin Short,San Saba,116.57,136.08,117.93,154.22,408.23,Single-ply,SBD,M
Boys,124.74,7,Jahaziel Compean,Hillsboro,121.47,156.49,86.18,156.49,399.16,Single-ply,SBD,M
Boys,124.74,8,Lane York,Stephenville,121.93,149.69,86.18,142.88,378.75,Single-ply,SBD,M
Boys,124.74,9,Jake Rollen,Glen Rose,115.21,129.27,63.5,129.27,322.05,Single-ply,SBD,M
Boys,124.74,DQ,Ty Smith,Glen Rose,120.84,,81.65,154.22,,Single-ply,SBD,M
Boys,124.74,DQ,Adrian Montano,Stephenville,113.49,147.42,79.38,,,Single-ply,SBD,M
Boys,124.74+,1,Diesel Ceresini,Hamilton,135.26,249.48,117.93,226.8,594.21,Single-ply,SBD,M
Boys,124.74+,2,Hayden Shaw,Glen Rose,129.36,226.8,117.93,204.12,548.85,Single-ply,SBD,M
Boys,124.74+,3,Max Matheny,Glen Rose,125.65,195.04,111.13,199.58,505.76,Single-ply,SBD,M
Boys,124.74+,4,Bryen Healey,Dublin,128.37,188.24,106.59,165.56,460.4,Single-ply,SBD,M
Boys,124.74+,5,Cole Evert,Glen Rose,126.19,172.37,99.79,183.7,455.86,Single-ply,SBD,M
Boys,124.74+,6,Zack Ray,Lometa,140.7,142.88,61.23,151.95,356.07,Single-ply,SBD,M
