Division,WeightClassKg,Place,Name,Team,BodyweightKg,Best3SquatKg,Best3BenchKg,Best3DeadliftKg,TotalKg,Equipment,Event,Sex
Boys,51.71,1,Jesse Peacock,Diana New Diana,50.62,145.15,86.18,136.08,367.41,Single-ply,SBD,M
Boys,51.71,2,Bob Hernandez,Malakoff Cross Roads,51.53,111.13,70.31,117.93,299.37,Single-ply,SBD,M
Boys,51.71,3,Eric Hernandez,New London West Rusk,50.26,92.99,65.77,124.74,283.5,Single-ply,SBD,M
Boys,51.71,DQ,James Kessell,Simms Bowie,51.71,,,,,Single-ply,SBD,M
Boys,51.71,DQ,Juan Hernandez #5,New Summerfield,51.71,,,,,Single-ply,SBD,M
Boys,55.79,1,Richard Lowrie,Kemp,54.88,149.69,90.72,142.88,383.29,Single-ply,SBD,M
Boys,55.79,2,Tristian Castillo,Eustace,55.34,142.88,88.45,145.15,376.48,Single-ply,SBD,M
Boys,55.79,3,Evelio Mendoza,Gilmer,55.52,138.35,68.04,145.15,351.53,Single-ply,SBD,M
Boys,55.79,4,Nate Mendoza,Kemp,52.89,131.54,65.77,142.88,340.19,Single-ply,SBD,M
Boys,55.79,5,Chandler Haller,Marshall,55.52,113.4,61.23,131.54,306.17,Single-ply,SBD,M
Boys,55.79,6,Eddie Hernandez,New London West Rusk,53.34,90.72,65.77,113.4,269.89,Single-ply,SBD,M
Boys,55.79,DQ,Britton Givens,New Summerfield,53.52,45.36,24.95,54.43,,Single-ply,SBD,M
Boys,55.79,DQ,Joseph Hernandez,New Summerfield,55.79,,,,,Single-ply,SBD,M
Boys,55.79,DQ,Camron Helpenstill,Big Sandy Harmony,55.79,,,,,Single-ply,SBD,M
Boys,55.79,DQ,Raymundo Sanchez,New Summerfield,51.89,,,,,Single-ply,SBD,M
Boys,59.87,1,Gilbert Garcia,Longview Spring Hill,58.24,158.76,95.25,161.03,415.04,Single-ply,SBD,M
Boys,59.87,2,Ethan Wagner,Texarkana Pleasant Grove,58.88,158.76,88.45,167.83,415.04,Single-ply,SBD,M
Boys,59.87,3,Kevin Chavez,Laird Hill Leveretts Chapel,59.69,158.76,83.91,165.56,408.23,Single-ply,SBD,M
Boys,59.87,4,Kyler Cooper,Texarkana Pleasant Grove,59.78,131.54,92.99,163.29,387.82,Single-ply,SBD,M
Boys,59.87,5,Jacob Smith,Palestine Westwood,59.69,138.35,83.91,142.88,365.14,Single-ply,SBD,M
Boys,59.87,6,Toby Chambers,Simms Bowie,59.24,117.93,49.9,133.81,301.64,Single-ply,SBD,M
Boys,59.87,7,Creighton Rogers,Mount Enterprise,59.51,102.06,74.84,117.93,294.84,Single-ply,SBD,M
Boys,59.87,8,Tavis Abercrombie,Marshall,58.97,117.93,43.09,120.2,281.23,Single-ply,SBD,M
Boys,59.87,9,Jason Graham,Hawkins,56.97,74.84,52.16,86.18,213.19,Single-ply,SBD,M
Boys,59.87,DQ,Wade Simpson,Maud,59.87,,,,,Single-ply,SBD,M
Boys,59.87,DQ,Peyton Cooper,Elysian Fields,59.87,,,,,Single-ply,SBD,M
Boys,59.87,DQ,Jackson Kennedy,Texarkana Pleasant Grove,59.87,,,,,Single-ply,SBD,M
Boys,59.87,DQ,Andy Espino,New Summerfield,59.87,,,,,Single-ply,SBD,M
Boys,59.87,DQ,Joel Torres,New Summerfield,59.87,,,,,Single-ply,SBD,M
Boys,59.87,DQ,Jared Weeks,Diana New Diana,59.51,,,,,Single-ply,SBD,M
Boys,67.13,1,Dylan Gibson,Maud,67.04,215.46,104.33,217.72,537.51,Single-ply,SBD,M
Boys,67.13,2,Mauro Gallegos,Gladewater Sabine,65.86,174.63,102.06,176.9,453.59,Single-ply,SBD,M
Boys,67.13,3,Stone Crisp,Elysian Fields,65.86,170.1,99.79,183.7,453.59,Single-ply,SBD,M
Boys,67.13,4,Sean Collins,Gilmer,64.41,176.9,86.18,158.76,421.84,Single-ply,SBD,M
Boys,67.13,5,Joshua Hughes,Eustace,66.68,138.35,106.59,163.29,408.23,Single-ply,SBD,M
Boys,67.13,6,Jason Hernandez,Malakoff Cross Roads,67.13,129.27,90.72,161.03,381.02,Single-ply,SBD,M
Boys,67.13,7,Scotty Akins,Simms Bowie,61.69,102.06,61.23,131.54,294.84,Single-ply,SBD,M
Boys,67.13,DQ,Jakob James,Simms Bowie,67.13,,,,,Single-ply,SBD,M
Boys,67.13,DQ,Zach Morrow #3,Palestine Westwood,67.13,,,,,Single-ply,SBD,M
Boys,67.13,DQ,Ladorron Jones,New London West Rusk,67.13,,,,,Single-ply,SBD,M
Boys,67.13,DQ,Christian Fincannon,Marshall,67.13,,,,,Single-ply,SBD,M
Boys,67.13,DQ,David Lucio,Marshall,67.13,,,,,Single-ply,SBD,M
Boys,67.13,DQ,Gustavo Arango,Mineola,67.13,,,,,Single-ply,SBD,M
Boys,67.13,DQ,Spencer Jones,Mineola,67.13,,,,,Single-ply,SBD,M
Boys,67.13,DQ,Jeb Dickson,Elysian Fields,67.13,,,,,Single-ply,SBD,M
Boys,67.13,DQ,Johnny Gordon,Gladewater,67.13,,,,,Single-ply,SBD,M
Boys,67.13,DQ,Kyle Durnal,Hawkins,67.13,,,,,Single-ply,SBD,M
Boys,67.13,DQ,Devin Abercrombie,New Summerfield,67.13,,,,,Single-ply,SBD,M
Boys,67.13,DQ,Jacob Barbour,Texarkana Pleasant Grove,67.13,,,,,Single-ply,SBD,M
Boys,67.13,DQ,Alex Evans,White Oak,66.59,95.25,63.5,,,Single-ply,SBD,M
Boys,74.84,1,Mar'Kevion Silmon,Marshall,73.03,204.12,102.06,229.06,535.24,Single-ply,SBD,M
Boys,74.84,2,Redhorse Warren,Palestine Westwood,74.57,208.65,113.4,210.92,532.97,Single-ply,SBD,M
Boys,74.84,3,Quentin Parks,Eustace,74.3,204.12,115.67,183.7,503.49,Single-ply,SBD,M
Boys,74.84,4,Damon Stiles,Maud,74.3,190.51,106.59,204.12,501.22,Single-ply,SBD,M
Boys,74.84,5,David By,Pittsburg,73.3,185.97,106.59,190.51,483.08,Single-ply,SBD,M
Boys,74.84,6,Humberto Cardosa,New London West Rusk,72.12,163.29,99.79,176.9,439.98,Single-ply,SBD,M
Boys,74.84,7,Eli Morris,Gladewater Sabine,69.67,174.63,83.91,179.17,437.72,Single-ply,SBD,M
Boys,74.84,8,Jordan Creutz,Maud,72.94,156.49,92.99,181.44,430.91,Single-ply,SBD,M
Boys,74.84,9,Antonio Castiglione,White Oak,73.03,158.76,106.59,165.56,430.91,Single-ply,SBD,M
Boys,74.84,10,Harrison Griffin,Diana New Diana,69.31,158.76,83.91,183.7,426.38,Single-ply,SBD,M
Boys,74.84,11,Jose Cerda,New London West Rusk,71.12,158.76,88.45,167.83,415.04,Single-ply,SBD,M
Boys,74.84,12,Dakota Grant,Simms Bowie,74.39,136.08,72.57,170.1,378.75,Single-ply,SBD,M
Boys,74.84,13,Luis Dells,Diana New Diana,70.49,154.22,72.57,142.88,369.68,Single-ply,SBD,M
Boys,74.84,14,Markus Berry,Maud,72.3,145.15,77.11,147.42,369.68,Single-ply,SBD,M
Boys,74.84,15,Noah Van Blarcum,White Oak,71.03,129.27,74.84,151.95,356.07,Single-ply,SBD,M
Boys,74.84,16,Treylin Lewis,Marshall,71.4,131.54,72.57,145.15,349.27,Single-ply,SBD,M
Boys,74.84,17,Stephen Hawthorne,Palestine Westwood,71.12,129.27,72.57,138.35,340.19,Single-ply,SBD,M
Boys,74.84,18,Bryan Fitts,Longview Spring Hill,72.21,142.88,68.04,124.74,335.66,Single-ply,SBD,M
Boys,74.84,DQ,Kourtland Sinches,Mineola,74.84,,,,,Single-ply,SBD,M
Boys,74.84,DQ,Devante Wright,Mineola,74.84,,,,,Single-ply,SBD,M
Boys,74.84,DQ,Preston Barham,Simms Bowie,74.84,,,,,Single-ply,SBD,M
Boys,74.84,DQ,Rickey Hissinbetham,New London West Rusk,74.84,,,,,Single-ply,SBD,M
Boys,74.84,DQ,Todd Flanningan,Mount Enterprise,74.84,,,,,Single-ply,SBD,M
Boys,74.84,DQ,Justiss Dudley,Elysian Fields,74.84,,,,,Single-ply,SBD,M
Boys,74.84,DQ,Shawn Johnson,Gladewater,74.84,,,,,Single-ply,SBD,M
Boys,74.84,DQ,Hugo Mejia,Mount Enterprise,70.94,122.47,72.57,,,Single-ply,SBD,M
Boys,82.1,1,Jaraylon Jones,Hughes Springs,80.56,161.03,124.74,176.9,462.66,Single-ply,SBD,M
Boys,82.1,2,Adam Caudle,Gladewater Sabine,78.38,170.1,92.99,181.44,444.52,Single-ply,SBD,M
Boys,82.1,3,Adrian Snyder,White Oak,77.93,136.08,97.52,161.03,394.63,Single-ply,SBD,M
Boys,82.1,4,Dillan Sumners,Diana New Diana,75.52,131.54,86.18,165.56,383.29,Single-ply,SBD,M
Boys,82.1,5,LaJuan Davis,Palestine Westwood,77.66,136.08,79.38,163.29,378.75,Single-ply,SBD,M
Boys,82.1,6,Diego Molina,New London West Rusk,75.48,124.74,79.38,136.08,340.19,Single-ply,SBD,M
Boys,82.1,7,Jacob Scoggins,Gladewater,79.38,124.74,68.04,145.15,337.93,Single-ply,SBD,M
Boys,82.1,8,Caleb Freeman,Longview Spring Hill,76.48,104.33,49.9,124.74,278.96,Single-ply,SBD,M
Boys,82.1,DQ,Gage Jones,Maud,82.1,,,,,Single-ply,SBD,M
Boys,82.1,DQ,Austin Aaron,Hawkins,82.1,,,,,Single-ply,SBD,M
Boys,82.1,DQ,Alan Quezada,Kemp,82.1,,,,,Single-ply,SBD,M
Boys,82.1,DQ,Tyler Garrett,Kemp,82.1,,,,,Single-ply,SBD,M
Boys,82.1,DQ,Noah Bates,Texarkana Pleasant Grove,82.1,,,,,Single-ply,SBD,M
Boys,82.1,DQ,Nathan Mize,Gilmer,80.92,192.78,99.79,,,Single-ply,SBD,M
Boys,82.1,DQ,Orlando Gonzalez,Palestine Westwood,78.47,,,,,Single-ply,SBD,M
Boys,82.1,DQ,Ignacio Gonzalez,New Summerfield,76.2,,,,,Single-ply,SBD,M
Boys,89.81,1,Jake Hibdon,Kemp,84.01,217.72,145.15,190.51,553.38,Single-ply,SBD,M
Boys,89.81,2,Taylor Little,Kemp,85,226.8,115.67,204.12,546.58,Single-ply,SBD,M
Boys,89.81,3,Link Emard,Pittsburg,89.63,197.31,129.27,204.12,530.7,Single-ply,SBD,M
Boys,89.81,4,Anthony Rose,Jefferson,88.72,188.24,113.4,185.97,487.61,Single-ply,SBD,M
Boys,89.81,5,Kasey Cockrell,Kemp,86.64,165.56,104.33,188.24,458.13,Single-ply,SBD,M
Boys,89.81,6,Devin Wallace,Laird Hill Leveretts Chapel,86.91,158.76,108.86,181.44,449.06,Single-ply,SBD,M
Boys,89.81,7,Jett Jordan,Longview Spring Hill,87.36,167.83,113.4,163.29,444.52,Single-ply,SBD,M
Boys,89.81,8,Z Hawley,Gladewater,82.69,161.03,102.06,174.63,437.72,Single-ply,SBD,M
Boys,89.81,9,Tristen Seahorn,Gladewater,89.72,147.42,92.99,151.95,392.36,Single-ply,SBD,M
Boys,89.81,10,James Mccallister,Marshall,83.64,142.88,54.43,156.49,353.8,Single-ply,SBD,M
Boys,89.81,DQ,Caleb Furrh,Gladewater Sabine,85.91,,,,,Single-ply,SBD,M
Boys,89.81,DQ,Denton Campbell,New Summerfield,89.81,,,,,Single-ply,SBD,M
Boys,89.81,DQ,Logan Sells,White Oak,89.81,,,,,Single-ply,SBD,M
Boys,89.81,DQ,Jacob Oswald,Mount Enterprise,88.09,163.29,120.2,,,Single-ply,SBD,M
Boys,89.81,DQ,Aron Jahr,Diana New Diana,82.28,,,,,Single-ply,SBD,M
Boys,89.81,DQ,Brandon Mooney,Hawkins,88.63,,,,,Single-ply,SBD,M
Boys,89.81,DQ,Daniel Carter,Winona,89.09,,,,,Single-ply,SBD,M
Boys,99.79,1,Jose Rodriguez #8,Gilmer,98.88,238.14,108.86,226.8,573.79,Single-ply,SBD,M
Boys,99.79,2,Rylie Riebesell,Texarkana Pleasant Grove,98.61,226.8,127.01,195.04,548.85,Single-ply,SBD,M
Boys,99.79,3,Chris Davis,Maud,92.08,201.85,127.01,217.72,546.58,Single-ply,SBD,M
Boys,99.79,4,Alec Mayhan,Gladewater Union Grove,90.99,204.12,124.74,215.46,544.31,Single-ply,SBD,M
Boys,99.79,5,Jesse Harwell,Hawkins,94.98,208.65,120.2,190.51,519.36,Single-ply,SBD,M
Boys,99.79,6,Justin Disotell,Malakoff Cross Roads,98.16,183.7,113.4,204.12,501.22,Single-ply,SBD,M
Boys,99.79,7,Cole Freeman,Diana New Diana,94.12,208.65,108.86,176.9,494.42,Single-ply,SBD,M
Boys,99.79,8,Maurice Calhoun,Palestine Westwood,97.07,158.76,129.27,172.37,460.4,Single-ply,SBD,M
Boys,99.79,9,Dakota Manes,Diana New Diana,95.25,181.44,90.72,176.9,449.06,Single-ply,SBD,M
Boys,99.79,10,Brock Foster,Maud,94.98,172.37,88.45,172.37,433.18,Single-ply,SBD,M
Boys,99.79,11,Tim Rivera,Gladewater,93.89,158.76,92.99,163.29,415.04,Single-ply,SBD,M
Boys,99.79,12,Kylin Jackson,Marshall,94.17,136.08,83.91,181.44,401.43,Single-ply,SBD,M
Boys,99.79,13,Ian Stewart,Simms Bowie,97.79,163.29,70.31,151.95,385.55,Single-ply,SBD,M
Boys,99.79,14,Lane Ferguson,Gladewater,92.17,145.15,79.38,158.76,383.29,Single-ply,SBD,M
Boys,99.79,15,Josh Caruso,Mineola,95.53,136.08,77.11,145.15,358.34,Single-ply,SBD,M
Boys,99.79,DQ,Jacob Hurst,Mineola,99.79,,,,,Single-ply,SBD,M
Boys,99.79,DQ,Brandon Osteen,New London West Rusk,99.79,,,,,Single-ply,SBD,M
Boys,99.79,DQ,Brett Howell,New London West Rusk,99.79,,,,,Single-ply,SBD,M
Boys,99.79,DQ,Preston White,Diana New Diana,99.79,,,,,Single-ply,SBD,M
Boys,99.79,DQ,Kamrun Evans,Elysian Fields,99.79,,,,,Single-ply,SBD,M
Boys,99.79,DQ,Blake Ansley,Jefferson,99.79,,,,,Single-ply,SBD,M
Boys,99.79,DQ,Alijuan Rice,Jefferson,99.79,,,,,Single-ply,SBD,M
Boys,99.79,DQ,Landon Shelton,Texarkana Pleasant Grove,99.79,,,,,Single-ply,SBD,M
Boys,99.79,DQ,Jaylon Hardeman,Jefferson,90.72,,,,,Single-ply,SBD,M
Boys,109.77,1,Chris Bloyd,White Oak,104.6,308.44,181.44,256.28,746.16,Single-ply,SBD,M
Boys,109.77,2,David Delgado,Kemp,104.69,247.21,142.88,201.85,591.94,Single-ply,SBD,M
Boys,109.77,3,James Berry,Maud,106.96,224.53,129.27,188.24,542.04,Single-ply,SBD,M
Boys,109.77,4,Keyontea Cooper,Marshall,109.68,226.8,117.93,197.31,542.04,Single-ply,SBD,M
Boys,109.77,5,Angel Meija,Texarkana Pleasant Grove,109.32,204.12,127.01,199.58,530.7,Single-ply,SBD,M
Boys,109.77,6,Ty Watts,Simms Bowie,104.78,206.38,111.13,195.04,512.56,Single-ply,SBD,M
Boys,109.77,7,Ryan Forbes,Texarkana Pleasant Grove,105.96,172.37,99.79,179.17,451.32,Single-ply,SBD,M
Boys,109.77,8,Antonio Zuniga,Longview Spring Hill,107.32,185.97,92.99,167.83,446.79,Single-ply,SBD,M
Boys,109.77,9,Cade Blount,Longview Spring Hill,108.5,188.24,92.99,158.76,439.98,Single-ply,SBD,M
Boys,109.77,10,Sanjay Pokhre,Texarkana Pleasant Grove,105.14,179.17,90.72,165.56,435.45,Single-ply,SBD,M
Boys,109.77,11,Brody Nicholson,Diana New Diana,109.59,179.17,95.25,158.76,433.18,Single-ply,SBD,M
Boys,109.77,12,Brayden Yantes,Longview Spring Hill,103.87,174.63,113.4,142.88,430.91,Single-ply,SBD,M
Boys,109.77,13,Scotty Vanschoyck,Ore City,99.97,163.29,102.06,158.76,424.11,Single-ply,SBD,M
Boys,109.77,DQ,Matthew Davidson,New London West Rusk,109.77,,,,,Single-ply,SBD,M
Boys,109.77,DQ,Aron Kemp,Simms Bowie,109.77,,,,,Single-ply,SBD,M
Boys,109.77,DQ,Bones Davis,Pittsburg,109.77,,,,,Single-ply,SBD,M
Boys,109.77,DQ,Bryan Sifers,Malakoff Cross Roads,109.77,,,,,Single-ply,SBD,M
Boys,109.77,DQ,Luke Bowden,Mineola,109.77,,,,,Single-ply,SBD,M
Boys,109.77,DQ,Logan Hall,Kemp,109.77,,,,,Single-ply,SBD,M
Boys,109.77,DQ,Kyle Williams,Hawkins,109.77,,,,,Single-ply,SBD,M
Boys,109.77,DQ,Darnell McKnight,Gladewater,109.77,,,,,Single-ply,SBD,M
Boys,124.74,1,Antonio Washington,Marshall,123.2,294.84,154.22,285.76,734.82,Single-ply,SBD,M
Boys,124.74,2,Malik Benson,Palestine Westwood,115.21,283.5,136.08,235.87,655.44,Single-ply,SBD,M
Boys,124.74,3,Trey Potter,Ore City,122.56,249.48,165.56,204.12,619.15,Single-ply,SBD,M
Boys,124.74,4,Luke Linebaugh,Kemp,115.67,240.4,142.88,226.8,610.08,Single-ply,SBD,M
Boys,124.74,5,Alex Sultz,Maud,114.49,254.01,102.06,231.33,587.4,Single-ply,SBD,M
Boys,124.74,6,Bradlee Warrick,Pittsburg,118.21,240.4,129.27,208.65,578.33,Single-ply,SBD,M
Boys,124.74,7,Matt Brunson,Diana New Diana,117.48,240.4,102.06,217.72,560.19,Single-ply,SBD,M
Boys,124.74,8,Brandon Meadows,Simms Bowie,121.02,217.72,117.93,197.31,532.97,Single-ply,SBD,M
Boys,124.74,9,Greg Hood,Marshall,117.39,226.8,104.33,199.58,530.7,Single-ply,SBD,M
Boys,124.74,10,Lucas Stevenson,Simms Bowie,121.02,217.72,99.79,210.92,528.44,Single-ply,SBD,M
Boys,124.74,11,Tanner Cornell,Longview Spring Hill,111.49,208.65,122.47,181.44,512.56,Single-ply,SBD,M
Boys,124.74,12,Colton Tigert,Hughes Springs,123.83,181.44,127.01,195.04,503.49,Single-ply,SBD,M
Boys,124.74,13,Zack Hilton,Maud,117.66,181.44,97.52,215.46,494.42,Single-ply,SBD,M
Boys,124.74,14,Victor Martinez,New London West Rusk,114.21,158.76,92.99,158.76,410.5,Single-ply,SBD,M
Boys,124.74,15,Durand Alvarez,Longview Spring Hill,121.83,167.83,92.99,149.69,410.5,Single-ply,SBD,M
Boys,124.74,16,Keevon Jackson,Palestine Westwood,120.11,183.7,72.57,151.95,408.23,Single-ply,SBD,M
Boys,124.74,DQ,Mikey Grubbs,Mount Enterprise,117.84,,,,,Single-ply,SBD,M
Boys,124.74,DQ,Bailey Montgomery,Gladewater,124.74,,,,,Single-ply,SBD,M
Boys,124.74,DQ,Taylor Williams #1,Gladewater Sabine,124.74,,,,,Single-ply,SBD,M
Boys,124.74+,1,AJ Garcia,Hughes Springs,160.48,331.12,190.51,272.16,793.79,Single-ply,SBD,M
Boys,124.74+,2,Noah Palmertree,Hughes Springs,125.28,244.94,163.29,231.33,639.57,Single-ply,SBD,M
Boys,124.74+,3,Joseph Lopez,Kemp,153.4,242.67,138.35,217.72,598.74,Single-ply,SBD,M
Boys,124.74+,4,Colton Chandler,Longview Spring Hill,125.37,215.46,138.35,181.44,535.24,Single-ply,SBD,M
Boys,124.74+,5,Kevin Hawkins,Mineola,137.8,204.12,136.08,192.78,532.97,Single-ply,SBD,M
Boys,124.74+,DQ,Carter Wheat,White Oak,134.26,258.55,113.4,,,Single-ply,SBD,M
Boys,124.74+,DQ,Kaleo Scott,Texarkana Pleasant Grove,131.27,,,,,Single-ply,SBD,M
Boys,,NS,Ty Nick,Winona,,217.72,122.47,204.12,,Single-ply,SBD,M
Boys,,NS,Ian Thompson,Mineola,,,,,,Single-ply,SBD,M
Boys,,NS,William Womack,New London West Rusk,,142.88,92.99,142.88,,Single-ply,SBD,M
Boys,,NS,Billy Long,Ore City,,,,,,Single-ply,SBD,M
Boys,,NS,New Kid,Ore City,,,,,,Single-ply,SBD,M
Boys,,NS,Jason Boone,Hawkins,,111.13,61.23,147.42,,Single-ply,SBD,M
Boys,,NS,Jon-Michael McKinney,Gladewater Sabine,,222.26,108.86,204.12,,Single-ply,SBD,M
