Division,WeightClassKg,Place,Name,Team,BodyweightKg,Best3SquatKg,Best3BenchKg,Best3DeadliftKg,TotalKg,Equipment,Event,Sex
Boys,51.71,1,Philip Rocha,Slaton,51.53,104.33,52.16,122.47,278.96,Single-ply,SBD,M
Boys,51.71,2,Ricky Cornejo,Sudan,50.44,88.45,54.43,111.13,254.01,Single-ply,SBD,M
Boys,55.79,1,Triston Davis,Sundown,54.7,156.49,86.18,167.83,410.5,Single-ply,SBD,M
Boys,55.79,2,Justin Tovar,Abernathy,55.7,147.42,104.33,147.42,399.16,Single-ply,SBD,M
Boys,55.79,3,Carlos Rodriguez #1,Olton,52.71,113.4,54.43,117.93,285.76,Single-ply,SBD,M
Boys,59.87,1,JD Rojas,Lubbock Roosevelt,59.06,145.15,106.59,181.44,433.18,Single-ply,SBD,M
Boys,59.87,2,Derek Tovar,Sudan,56.43,111.13,79.38,133.81,324.32,Single-ply,SBD,M
Boys,59.87,3,Alex Mendoza #3,Abernathy,59.6,108.86,63.5,129.27,301.64,Single-ply,SBD,M
Boys,67.13,4,Austin Conley,Sudan,59.96,90.72,61.23,127.01,278.96,Single-ply,SBD,M
Boys,59.87,5,Seth Rennels,Slaton,58.69,92.99,61.23,113.4,267.62,Single-ply,SBD,M
Boys,59.87,DQ,Ray Ortega,Brownfield,59.42,120.2,,,,Single-ply,SBD,M
Boys,67.13,1,Johnny Hernandez,Sundown,61.69,170.1,83.91,176.9,430.91,Single-ply,SBD,M
Boys,67.13,2,Blake Allen,Lubbock Roosevelt,66.04,136.08,97.52,176.9,410.5,Single-ply,SBD,M
Boys,67.13,3,Jacob Garica,Lubbock Roosevelt,62.78,136.08,81.65,147.42,365.14,Single-ply,SBD,M
Boys,67.13,4,Miguel Guerrero,Brownfield,63.5,136.08,83.91,142.88,362.87,Single-ply,SBD,M
Boys,67.13,5,Hadley Reynolds,Tahoka,65.68,136.08,68.04,151.95,356.07,Single-ply,SBD,M
Boys,74.84,6,Ethan Donahoo,Lubbock Roosevelt,67.22,102.06,106.59,145.15,353.8,Single-ply,SBD,M
Boys,67.13,7,David Mendez,Slaton,64.77,120.2,68.04,158.76,347,Single-ply,SBD,M
Boys,67.13,8,Gary Duran,Brownfield,63.78,124.74,83.91,129.27,337.93,Single-ply,SBD,M
Boys,67.13,9,Nathaniel Vasquez,Lubbock Roosevelt,64.95,117.93,104.33,113.4,335.66,Single-ply,SBD,M
Boys,67.13,10,Seth Salinas,Olton,62.14,102.06,74.84,142.88,319.78,Single-ply,SBD,M
Boys,67.13,11,Conner Watts,Slaton,63.23,104.33,68.04,147.42,319.78,Single-ply,SBD,M
Boys,67.13,12,George Wright,Slaton,60.78,113.4,65.77,138.35,317.51,Single-ply,SBD,M
Boys,67.13,13,Drake Davis,Olton,65.68,113.4,68.04,127.01,308.44,Single-ply,SBD,M
Boys,82.1,1,Jon Chavez,Sundown,74.93,210.92,106.59,226.8,544.31,Single-ply,SBD,M
Boys,74.84,2,Xavier Baker,Sudan,74.21,163.29,102.06,181.44,446.79,Single-ply,SBD,M
Boys,74.84,3,Tyler Johnson,Slaton,69.04,199.58,92.99,151.95,444.52,Single-ply,SBD,M
Boys,74.84,4,Alex Rodriquez,Sudan,72.48,138.35,86.18,158.76,383.29,Single-ply,SBD,M
Boys,74.84,5,Andrew Alvarez,Tahoka,74.03,142.88,74.84,138.35,356.07,Single-ply,SBD,M
Boys,74.84,6,Javier Alcorta,Slaton,69.76,145.15,83.91,124.74,353.8,Single-ply,SBD,M
Boys,74.84,7,Ryan Trevino,Brownfield,68.86,111.13,70.31,113.4,294.84,Single-ply,SBD,M
Boys,74.84,DQ,Kendall Whitehead,Slaton,69.04,108.86,65.77,,,Single-ply,SBD,M
Boys,74.84,DQ,Bryce Spencer,Sundown,71.94,136.08,74.84,,,Single-ply,SBD,M
Boys,82.1,1,Link Wilkes,Sundown,79.47,181.44,106.59,190.51,478.54,Single-ply,SBD,M
Boys,82.1,2,Braxton Creager,Slaton,79.02,174.63,97.52,199.58,471.74,Single-ply,SBD,M
Boys,82.1,3,Prince Kim,Brownfield,81.47,149.69,106.59,181.44,437.72,Single-ply,SBD,M
Boys,82.1,4,Robert Rodriguez,Abernathy,80.47,174.63,108.86,142.88,426.38,Single-ply,SBD,M
Boys,82.1,5,Esaiah Rodriguez,Lubbock Roosevelt,81.19,138.35,104.33,145.15,387.82,Single-ply,SBD,M
Boys,82.1,6,Jayton Grisham,Abernathy,77.47,140.61,79.38,136.08,356.07,Single-ply,SBD,M
Boys,82.1,7,Justyn McCarty,Tahoka,78.11,124.74,68.04,142.88,335.66,Single-ply,SBD,M
Boys,82.1,8,Tyler Sanders #2,Slaton,79.56,99.79,63.5,124.74,288.03,Single-ply,SBD,M
Boys,82.1,9,Angel Morales-Conde,Brownfield,81.01,113.4,68.04,106.59,288.03,Single-ply,SBD,M
Boys,82.1,DQ,Miguel Garza,Brownfield,75.57,,,,,Single-ply,SBD,M
Boys,89.81,1,Ladd Wilkes,Sundown,84.91,176.9,127.01,210.92,514.83,Single-ply,SBD,M
Boys,89.81,2,Isaia Montgomery,Lubbock Roosevelt,84.01,183.7,117.93,204.12,505.76,Single-ply,SBD,M
Boys,89.81,3,Nathan Besler,Brownfield,85.37,181.44,108.86,204.12,494.42,Single-ply,SBD,M
Boys,89.81,4,Bryson Kitchens,Abernathy,86,181.44,113.4,192.78,487.61,Single-ply,SBD,M
Boys,89.81,5,Jeremiah Fuentes,Abernathy,87.63,179.17,115.67,156.49,451.32,Single-ply,SBD,M
Boys,89.81,6,Andy Canales,Lubbock Roosevelt,84.19,131.54,111.13,147.42,390.09,Single-ply,SBD,M
Boys,89.81,7,Tyler Irby,Slaton,85.28,108.86,108.86,142.88,360.61,Single-ply,SBD,M
Boys,89.81,8,Christopher Flores,Slaton,86.91,113.4,70.31,138.35,322.05,Single-ply,SBD,M
Boys,99.79,1,Xavier Garza,Sundown,91.08,238.14,138.35,238.14,614.62,Single-ply,SBD,M
Boys,99.79,2,Harley Simpson,Slaton,93.8,204.12,106.59,185.97,496.68,Single-ply,SBD,M
Boys,99.79,3,Jacob Jalomo,Olton,92.62,176.9,104.33,195.04,476.27,Single-ply,SBD,M
Boys,99.79,4,Jacob Rosales,Abernathy,95.25,176.9,115.67,161.03,453.59,Single-ply,SBD,M
Boys,99.79,5,Josh Tijerina,Olton,92.17,163.29,95.25,167.83,426.38,Single-ply,SBD,M
Boys,99.79,6,Ross Steadman,Sudan,94.08,117.93,102.06,183.7,403.7,Single-ply,SBD,M
Boys,99.79,7,Ruben Quinonez,Tahoka,96.62,142.88,108.86,149.69,401.43,Single-ply,SBD,M
Boys,99.79,8,Zach Weller,Lubbock Roosevelt,99.34,131.54,95.25,163.29,390.09,Single-ply,SBD,M
Boys,99.79,DQ,David Camargo,Slaton,95.07,,,,,Single-ply,SBD,M
Boys,109.77,1,Marcial Salinas,Slaton,104.78,174.63,102.06,204.12,480.81,Single-ply,SBD,M
Boys,109.77,2,Juan Martinez,Lubbock Roosevelt,103.69,136.08,92.99,138.35,367.41,Single-ply,SBD,M
Boys,109.77,DQ,Alberto Sinaloa,Olton,103.6,149.69,,,,Single-ply,SBD,M
Boys,124.74,1,Jeremiah DeLeon,Tahoka,114.94,249.48,176.9,181.44,607.81,Single-ply,SBD,M
Boys,124.74,2,Marcus Altamirano,Lubbock Roosevelt,116.12,181.44,115.67,163.29,460.4,Single-ply,SBD,M
Boys,124.74,3,Francisco Saenz,Olton,120.84,176.9,104.33,154.22,435.45,Single-ply,SBD,M
Boys,124.74,4,Eusebio Sanchez,Olton,110.77,176.9,83.91,170.1,430.91,Single-ply,SBD,M
Boys,124.74,5,Oscar Aguilar,Lubbock Roosevelt,115.94,158.76,102.06,145.15,405.97,Single-ply,SBD,M
Boys,124.74,6,Kevin Shoemaker,Lubbock Roosevelt,117.3,127.01,108.86,142.88,378.75,Single-ply,SBD,M
Boys,124.74,7,Ashton Steffey,Tahoka,121.65,97.52,74.84,142.88,315.25,Single-ply,SBD,M
Boys,124.74+,1,Joseph Villarreal,Lubbock Roosevelt,142.43,231.33,136.08,219.99,587.4,Single-ply,SBD,M
Boys,124.74+,2,Tony Garcia,Tahoka,168.46,181.44,97.52,183.7,462.66,Single-ply,SBD,M
Boys,124.74+,3,Colton Smith,Sundown,126.73,124.74,122.47,204.12,451.32,Single-ply,SBD,M
Boys,124.74+,4,Cristian Rivera,Olton,134.81,181.44,81.65,163.29,426.38,Single-ply,SBD,M
Boys,124.74+,5,Jayden Edwards,Lubbock Roosevelt,133.54,149.69,97.52,156.49,403.7,Single-ply,SBD,M
Boys,124.74+,6,AJ Garcia,Slaton,169.19,156.49,104.33,142.88,403.7,Single-ply,SBD,M
Boys,124.74+,7,Josh Salas,Slaton,134.35,154.22,70.31,156.49,381.02,Single-ply,SBD,M
