Division,WeightClassKg,Place,Name,Team,BodyweightKg,Best3SquatKg,Best3BenchKg,Best3DeadliftKg,TotalKg,Equipment,Event,Sex
Girls,44.23,1,Jailin Munoz,Lago Vista,42.18,99.79,38.56,97.52,235.87,Single-ply,SBD,F
Girls,44.23,2,Hannah Zurovetz,Lago Vista,44.09,92.99,43.09,97.52,233.6,Single-ply,SBD,F
Girls,44.23,3,Rachael Zacharias,West,44.09,72.57,31.75,88.45,192.78,Single-ply,SBD,F
Girls,44.23,4,Aj Gamboa,San Saba,43.09,61.23,31.75,88.45,181.44,Single-ply,SBD,F
Girls,44.23,5,Makayla Robbins,Gustine,43.54,70.31,38.56,72.57,181.44,Single-ply,SBD,F
Girls,44.23,6,Kennedy Cook,Florence,43.45,70.31,31.75,70.31,172.37,Single-ply,SBD,F
Girls,44.23,7,Angela Foss,Crawford,32.02,49.9,27.22,63.5,140.61,Single-ply,SBD,F
Girls,44.23,NS,Jacquelyn Washington,Hillsboro,,,,,,Single-ply,SBD,F
Girls,44.23,NS,Taylor Netherton,Early,,,,,,Single-ply,SBD,F
Girls,44.23,DQ,Jaton Wootton,San Saba,42.73,43.09,,,,Single-ply,SBD,F
Girls,44.23,DQ,Lily Buckley,Lago Vista,41.91,79.38,,,,Single-ply,SBD,F
Girls,47.85,1,Kailee Hansmire,Comanche,47.54,113.4,65.77,133.81,312.98,Single-ply,SBD,F
Girls,47.85,2,Mayte Arredondo,Whitney,45.72,92.99,45.36,122.47,260.82,Single-ply,SBD,F
Girls,47.85,3,Serina Saucedo,Lago Vista,47.85,111.13,45.36,97.52,254.01,Single-ply,SBD,F
Girls,47.85,4,Amanda Hubbard,Moody,47.26,88.45,52.16,104.33,244.94,Single-ply,SBD,F
Girls,47.85,5,Teresa Ramirez,Gustine,46.08,86.18,40.82,113.4,240.4,Single-ply,SBD,F
Girls,47.85,6,Maribel Reyna,Rogers,45.45,90.72,43.09,90.72,224.53,Single-ply,SBD,F
Girls,47.85,7,Emma Garcia,Lago Vista,46.72,86.18,43.09,81.65,210.92,Single-ply,SBD,F
Girls,47.85,DQ,Daylon LeFever,Riesel,47.72,,,,,Single-ply,SBD,F
Girls,47.85,NS,Melina Hernandez,Jarrell,,,,,,Single-ply,SBD,F
Girls,47.85,DQ,Lora Weaver,Brady,47.36,,,,,Single-ply,SBD,F
Girls,47.85,DQ,Vanessa Martinez,Brady,47.08,86.18,,,,Single-ply,SBD,F
Girls,47.85,DQ,Marina Salinas,Early,47.63,,,,,Single-ply,SBD,F
Girls,51.94,1,Angel Galindo,Brady,50.53,108.86,58.97,108.86,276.69,Single-ply,SBD,F
Girls,51.94,2,Mariyah Tucker,McGregor,51.44,117.93,52.16,106.59,276.69,Single-ply,SBD,F
Girls,51.94,3,Skye Smith,Crawford,51.17,106.59,47.63,120.2,274.42,Single-ply,SBD,F
Girls,51.94,4,Anayely Escobar,Dublin,51.71,97.52,45.36,104.33,247.21,Single-ply,SBD,F
Girls,51.94,5,Ashley Diaz,Florence,51.62,88.45,47.63,108.86,244.94,Single-ply,SBD,F
Girls,51.94,6,Katie D'Angelo,McGregor,51.8,90.72,49.9,104.33,244.94,Single-ply,SBD,F
Girls,51.94,7,Alyssia Aleman,Thrall,49.26,92.99,45.36,102.06,240.4,Single-ply,SBD,F
Girls,51.94,8,Angel Griggs,Hillsboro,51.07,79.38,40.82,108.86,229.06,Single-ply,SBD,F
Girls,51.94,9,Traci Creamer,Whitney,51.94,104.33,45.36,79.38,229.06,Single-ply,SBD,F
Girls,51.94,10,Bria Dokupil,West,49.35,74.84,45.36,104.33,224.53,Single-ply,SBD,F
Girls,51.94,DQ,Lauren Moseley,McGregor,51.44,,,,,Single-ply,SBD,F
Girls,51.94,DQ,Lauren Winborn,Early,50.62,,,,,Single-ply,SBD,F
Girls,56.02,1,Kelly Sanchez,Hillsboro,55.97,129.27,56.7,142.88,328.85,Single-ply,SBD,F
Girls,56.02,2,Sarah Gautreaux,Thrall,54.88,136.08,70.31,113.4,319.78,Single-ply,SBD,F
Girls,56.02,3,April Fowler,Rogers,54.79,127.01,63.5,120.2,310.71,Single-ply,SBD,F
Girls,56.02,4,Raquel Morado,Brady,53.89,120.2,52.16,122.47,294.84,Single-ply,SBD,F
Girls,56.02,5,Aisha Martinez,Brady,55.07,115.67,58.97,120.2,294.84,Single-ply,SBD,F
Girls,56.02,6,Sanjuana Delgado,Whitney,54.34,106.59,52.16,122.47,281.23,Single-ply,SBD,F
Girls,56.02,7,Alexandra Aycock,Riesel,54.88,120.2,54.43,106.59,281.23,Single-ply,SBD,F
Girls,56.02,8,Jayce Cummings,Moody,55.97,111.13,54.43,113.4,278.96,Single-ply,SBD,F
Girls,56.02,9,Cameron Tuggle,Lago Vista,54.98,104.33,45.36,117.93,267.62,Single-ply,SBD,F
Girls,56.02,10,Chassie Fisher,Moody,56.02,104.33,45.36,102.06,251.74,Single-ply,SBD,F
Girls,56.02,NS,Hanna Monroe,Brady,,,,,,Single-ply,SBD,F
Girls,56.02,NS,Amber James,Dublin,,,,,,Single-ply,SBD,F
Girls,60.1,1,Cassandra Carlton,Lago Vista,59.33,145.15,63.5,120.2,328.85,Single-ply,SBD,F
Girls,60.1,2,Andrea Jimenez,San Saba,59.24,127.01,56.7,131.54,315.25,Single-ply,SBD,F
Girls,60.1,3,Amanda King,McGregor,59.87,124.74,61.23,129.27,315.25,Single-ply,SBD,F
Girls,60.1,4,Stephanie Gomez,Rogers,57.79,127.01,49.9,127.01,303.91,Single-ply,SBD,F
Girls,60.1,5,Taylor Jones #1,Little River Academy,58.88,117.93,54.43,127.01,299.37,Single-ply,SBD,F
Girls,60.1,6,Megan Maxwell,Little River Academy,60.06,120.2,45.36,129.27,294.84,Single-ply,SBD,F
Girls,60.1,7,Crystal Williams,Little River Academy,58.69,117.93,56.7,115.67,290.3,Single-ply,SBD,F
Girls,60.1,8,Brooke Behrendt,Thrall,58.88,104.33,61.23,113.4,278.96,Single-ply,SBD,F
Girls,60.1,9,Paige Parkhill,West,59.6,111.13,58.97,102.06,272.16,Single-ply,SBD,F
Girls,60.1,10,Gabrielle Ramirez,Florence,56.61,104.33,45.36,113.4,263.08,Single-ply,SBD,F
Girls,60.1,DQ,Tuesdi Tidwell,Early,59.69,,,,,Single-ply,SBD,F
Girls,60.1,DQ,Hallie Brinson,Early,57.7,,,,,Single-ply,SBD,F
Girls,60.1,DQ,Kathy Vasquez,Whitney,60.1,,,,,Single-ply,SBD,F
Girls,67.36,1,Leslie Hernandez,Brady,62.6,145.15,61.23,158.76,365.14,Single-ply,SBD,F
Girls,67.36,2,Ashlyn Wilkerson,Whitney,64.95,136.08,63.5,147.42,347,Single-ply,SBD,F
Girls,67.36,3,Mattie Fritscher,Crawford,65.95,140.61,65.77,129.27,335.66,Single-ply,SBD,F
Girls,67.36,4,Lucy Coursey,Waco Reicher Catholic,64.77,131.54,52.16,149.69,333.39,Single-ply,SBD,F
Girls,67.36,5,Dreanna McAdams,Troy,65.05,129.27,54.43,145.15,328.85,Single-ply,SBD,F
Girls,67.36,6,Sandra Schwartz,Comanche,65.59,120.2,61.23,142.88,324.32,Single-ply,SBD,F
Girls,67.36,7,Jennilee Tamplen,Florence,63.5,122.47,47.63,138.35,308.44,Single-ply,SBD,F
Girls,67.36,8,Jacey Sparks,Early,63.41,115.67,52.16,129.27,297.1,Single-ply,SBD,F
Girls,67.36,9,Emily Bounds,Moody,63.32,99.79,52.16,122.47,274.42,Single-ply,SBD,F
Girls,67.36,NS,Casey Crews,Rogers,,,,,,Single-ply,SBD,F
Girls,75.07,1,Kyndall Hoelscher,West,73.94,147.42,74.84,145.15,367.41,Single-ply,SBD,F
Girls,75.07,2,Michelle Gonzales,Brady,74.84,149.69,74.84,142.88,367.41,Single-ply,SBD,F
Girls,75.07,3,Lana Waddle,Lago Vista,72.76,151.95,72.57,133.81,358.34,Single-ply,SBD,F
Girls,75.07,4,Bethany Williams,Whitney,72.94,136.08,70.31,145.15,351.53,Single-ply,SBD,F
Girls,75.07,5,Brittany Frillou,Axtell,71.76,142.88,79.38,127.01,349.27,Single-ply,SBD,F
Girls,75.07,6,Brittany Carter,Bosqueville,73.21,136.08,56.7,151.95,344.73,Single-ply,SBD,F
Girls,75.07,7,Courtney Owen,Bangs,72.57,127.01,65.77,145.15,337.93,Single-ply,SBD,F
Girls,75.07,8,Martha Riojas,Dublin,73.57,140.61,72.57,124.74,337.93,Single-ply,SBD,F
Girls,75.07,DQ,Ashley Rosales,Florence,73.66,,,,,Single-ply,SBD,F
Girls,75.07,NS,Jillian Brewer,Florence,,,,,,Single-ply,SBD,F
Girls,75.07,NS,Kaylie Hudson,Axtell,,,,,,Single-ply,SBD,F
Girls,75.07,NS,Yajaira Garcia,Meridian,,,,,,Single-ply,SBD,F
Girls,75.07,DQ,Allana Bettge,Waco Reicher Catholic,72.76,131.54,61.23,,,Single-ply,SBD,F
Girls,82.33,1,Diana Platas,Hillsboro,79.38,195.04,92.99,156.49,444.52,Single-ply,SBD,F
Girls,82.33,2,Sara Estes,Brady,80.29,147.42,74.84,151.95,374.21,Single-ply,SBD,F
Girls,82.33,3,Marina Sanchez,Brady,76.84,154.22,54.43,163.29,371.95,Single-ply,SBD,F
Girls,82.33,4,Mikayla Jowers,Crawford,81.65,145.15,65.77,149.69,360.61,Single-ply,SBD,F
Girls,82.33,5,Jas'Lyn Glover,Hempstead,77.29,136.08,52.16,163.29,351.53,Single-ply,SBD,F
Girls,82.33,6,Essance Porter,McGregor,78.83,136.08,61.23,154.22,351.53,Single-ply,SBD,F
Girls,82.33,7,Amanda Stiles,Florence,79.11,140.61,81.65,129.27,351.53,Single-ply,SBD,F
Girls,82.33,8,Rebecca Garrett,Bosqueville,82.19,138.35,79.38,113.4,331.12,Single-ply,SBD,F
Girls,82.33,9,Jordyn Johnson,Thrall,80.83,133.81,63.5,124.74,322.05,Single-ply,SBD,F
Girls,82.33,NS,Avi Marin,Whitney,,,,,,Single-ply,SBD,F
Girls,82.33,NS,Cheyenne Meyer,Bruceville-Eddy,,,,,,Single-ply,SBD,F
Girls,82.33,NS,Allison Janke,Holland,,,,,,Single-ply,SBD,F
Girls,90.04,1,Shelby Wines,West,88.63,158.76,79.38,140.61,378.75,Single-ply,SBD,F
Girls,90.04,2,Beth Bounds,Moody,88.99,151.95,65.77,154.22,371.95,Single-ply,SBD,F
Girls,90.04,3,Gabby Lopez,West,87.45,161.03,72.57,127.01,360.61,Single-ply,SBD,F
Girls,90.04,4,Jordan Bush,Little River Academy,89.99,149.69,63.5,147.42,360.61,Single-ply,SBD,F
Girls,90.04,5,Rosie Narvaez,Rogers,86.73,142.88,68.04,129.27,340.19,Single-ply,SBD,F
Girls,90.04,6,Arleth Fraga,Brady,85.73,149.69,63.5,124.74,337.93,Single-ply,SBD,F
Girls,90.04,7,Angelica Avalos,Rockdale,87.18,142.88,68.04,124.74,335.66,Single-ply,SBD,F
Girls,90.04,8,Mikayela Hammond,Waco Reicher Catholic,89.27,136.08,61.23,129.27,326.59,Single-ply,SBD,F
Girls,90.04,9,Macey Roberson,Clifton,87.36,117.93,61.23,142.88,322.05,Single-ply,SBD,F
Girls,90.04,10,Ximena Gutierrez,Florence,87.63,145.15,49.9,120.2,315.25,Single-ply,SBD,F
Girls,90.04,DQ,Maria Reza,Brady,82.64,,,,,Single-ply,SBD,F
Girls,90.04,NS,Kk Whitley,Early,,,,,,Single-ply,SBD,F
Girls,90.04,DQ,Adriana Rodriguez,McGregor,87.27,,,,,Single-ply,SBD,F
Girls,100.02,1,Jazmine Jones,Cameron Yoe,97.16,158.76,90.72,185.97,435.45,Single-ply,SBD,F
Girls,100.02,2,Angela Rost,McGregor,97.52,170.1,74.84,163.29,408.23,Single-ply,SBD,F
Girls,100.02,3,Savannah Powers,Lago Vista,96.43,201.85,77.11,122.47,401.43,Single-ply,SBD,F
Girls,100.02,4,Gaby Angel,Florence,94.89,183.7,63.5,140.61,387.82,Single-ply,SBD,F
Girls,100.02,5,Cassie Carmichael,Bangs,94.44,142.88,70.31,147.42,360.61,Single-ply,SBD,F
Girls,100.02,6,Ruby Hernandez,Dublin,95.53,149.69,65.77,142.88,358.34,Single-ply,SBD,F
Girls,100.02,7,Lacy LeBoeuf,Bosqueville,96.8,142.88,65.77,142.88,351.53,Single-ply,SBD,F
Girls,100.02,8,Erica Graybill,Bruceville-Eddy,97.89,147.42,65.77,117.93,331.12,Single-ply,SBD,F
Girls,100.02,9,Brittany Hernandez,Moody,91.44,106.59,49.9,136.08,292.57,Single-ply,SBD,F
Girls,100.02,10,Alexyss Herzog,Little River Academy,93.8,104.33,56.7,131.54,292.57,Single-ply,SBD,F
Girls,100.02,NS,Madison Perry,Bruceville-Eddy,,,,,,Single-ply,SBD,F
Girls,100.02+,1,Shelbie Long,Florence,106.14,229.06,111.13,204.12,544.31,Single-ply,SBD,F
Girls,100.02+,2,Genesis Funez,Glen Rose,121.74,176.9,77.11,147.42,401.43,Single-ply,SBD,F
Girls,100.02+,3,Brianna Hatcher,Dublin,116.94,156.49,99.79,138.35,394.63,Single-ply,SBD,F
Girls,100.02+,4,Emilia Betencourt,Bruceville-Eddy,104.87,154.22,63.5,142.88,360.61,Single-ply,SBD,F
Girls,100.02+,5,Brittany Carrasco,Cameron Yoe,111.86,140.61,68.04,136.08,344.73,Single-ply,SBD,F
Girls,100.02+,6,Mikayla Cox,Franklin,115.58,124.74,70.31,115.67,310.71,Single-ply,SBD,F
Girls,100.02+,7,Kiana Lane,McGregor,106.5,102.06,58.97,113.4,274.42,Single-ply,SBD,F
Girls,100.02+,8,Brittney Bowden,Bangs,100.43,102.06,52.16,90.72,244.94,Single-ply,SBD,F
