Division,WeightClassKg,Place,Name,Team,BodyweightKg,Best3SquatKg,Best3BenchKg,Best3DeadliftKg,TotalKg,Equipment,Event,Sex,BirthDate
Boys,51.71,1,Koda Wood,Quanah,50.44,92.99,47.63,106.59,247.21,Single-ply,SBD,M,
Boys,51.71,2,Cooper Talley,Quanah,48.99,92.99,45.36,102.06,240.4,Single-ply,SBD,M,
Boys,55.79,1,Colton Benson,Clarendon,55.79,70.31,56.7,106.59,233.6,Single-ply,SBD,M,
Boys,59.87,1,Jasiah Castellon,Tulia,59.69,90.72,63.5,106.59,260.82,Single-ply,SBD,M,
Boys,59.87,DQ,Noah Trammell,Tulia,58.6,86.18,,,,Single-ply,SBD,M,
Boys,67.13,1,Jason Kaufmann,Quanah,61.69,142.88,79.38,158.76,381.02,Single-ply,SBD,M,
Boys,67.13,2,Owen Loveless,Quanah,65.77,124.74,68.04,142.88,335.66,Single-ply,SBD,M,
Boys,67.13,3,Ivan Garcia,Tulia,62.69,104.33,61.23,117.93,283.5,Single-ply,SBD,M,
Boys,67.13,4,Royce Rey,Tulia,66.59,95.25,63.5,117.93,276.69,Single-ply,SBD,M,
Boys,67.13,5,Jace Middleton,Memphis,63.68,90.72,43.09,108.86,242.67,Single-ply,SBD,M,
Boys,74.84,1,Rhett Caison,Clarendon,73.57,138.35,106.59,156.49,401.43,Single-ply,SBD,M,
Boys,74.84,2,Lee Savage,Memphis,72.85,133.81,74.84,147.42,356.07,Single-ply,SBD,M,
Boys,74.84,3,Jared Musick,Clarendon,69.4,81.65,68.04,111.13,260.82,Single-ply,SBD,M,
Boys,82.1,1,Kathan Valenzuela,Tulia,79.74,204.12,104.33,219.99,528.44,Single-ply,SBD,M,
Boys,82.1,2,Braydon Garcia,Quanah,81.19,185.97,120.2,208.65,514.83,Single-ply,SBD,M,
Boys,82.1,3,Jax Ferrel,Memphis,81.37,174.63,129.27,206.38,510.29,Single-ply,SBD,M,
Boys,82.1,4,Troy Conner,Quanah,75.84,172.37,108.86,183.7,464.93,Single-ply,SBD,M,
Boys,82.1,5,Bobby Luna,Childress,78.02,145.15,102.06,147.42,394.63,Single-ply,SBD,M,
Boys,82.1,6,Brayan Hernandez,Quanah,78.29,113.4,68.04,131.54,312.98,Single-ply,SBD,M,
Boys,82.1,7,Davin Mays,Clarendon,79.29,111.13,74.84,115.67,301.64,Single-ply,SBD,M,
Boys,89.81,1,Dave Espinosa,Memphis,89.81,161.03,86.18,170.1,417.3,Single-ply,SBD,M,
Boys,89.81,2,Ethan Ferguson,Childress,86.36,120.2,92.99,156.49,369.68,Single-ply,SBD,M,
Boys,89.81,3,Charlie Sepeda,Memphis,82.83,127.01,65.77,158.76,351.53,Single-ply,SBD,M,
Boys,89.81,4,Robert John Garcia,Tulia,88.63,104.33,70.31,142.88,317.51,Single-ply,SBD,M,
Boys,89.81,5,Ethan Warren,Clarendon,87.18,92.99,74.84,120.2,288.03,Single-ply,SBD,M,
Boys,99.79,1,Cj Call,Quanah,98.52,124.74,79.38,102.06,306.17,Single-ply,SBD,M,
Boys,109.77,1,Francisco Barrera,Quanah,108.77,192.78,113.4,147.42,453.59,Single-ply,SBD,M,
Boys,109.77,2,Andrew Barrios,Tulia,109.23,142.88,111.13,154.22,408.23,Single-ply,SBD,M,
Boys,109.77,3,Adrian Macias,Childress,101.15,124.74,92.99,129.27,347,Single-ply,SBD,M,
Boys,124.74,1,Troi Barrera,Quanah,118.3,131.54,102.06,163.29,396.89,Single-ply,SBD,M,
Boys,124.74,2,Xathen Chasco,Tulia,113.67,88.45,81.65,149.69,319.78,Single-ply,SBD,M,
Boys,139.71+,DQ,Jimmy Ayala,Childress,142.25,249.48,,,,Single-ply,SBD,M,
