Place,Name,CyrillicName,BirthYear,BodyweightKg,Best3SquatKg,Best3BenchKg,Best3DeadliftKg,TotalKg,WeightClassKg,Event,Equipment,Division,Sex,BirthDate
DQ,Tatyana Kolosova,Татьяна Колосова,1991,42.6,-95,37.5,95,,47,SBD,Single-ply,Open,F,
DQ,Margarita Sannikova,Маргарита Санникова,2000,,,,,,47,SBD,Single-ply,Open,F,
1,Elena Zolotukhina,Елена Золотухина,1999,49.35,115,65,110,290,52,SBD,Single-ply,Open,F,
2,Ekaterina Demina,Екатерина Демина,1990,50.45,60,32.5,70,162.5,52,SBD,Single-ply,Open,F,
1,Margarita Savina,Маргарита Савина,1990,56.7,135,80,130,345,57,SBD,Single-ply,Open,F,
2,Yuliana Materikova,Юлиана Материкова,1990,56.5,130,60,140,330,57,SBD,Single-ply,Open,F,
3,Nina Grishina,Нина Гришина,1976,56.7,110,70,125,305,57,SBD,Single-ply,Open,F,
4,Nailya Vagapova,Наиля Вагапова,1989,54.45,95,42.5,90,227.5,57,SBD,Single-ply,Open,F,
1,Anna Pshenichnikova,Анна Пшеничникова,1998,61.5,112.5,45,117.5,275,63,SBD,Single-ply,Open,F,
2,Diana Posmitnaya,Диана Посмитная,1991,58.1,100,52.5,110,262.5,63,SBD,Single-ply,Open,F,
1,Elena Kumova,Елена Кумова,1986,67.4,110,60,117.5,287.5,72,SBD,Single-ply,Open,F,
2,Olga Lukyanova,Ольга Лукьянова,1995,66.8,97.5,62.5,105,265,72,SBD,Single-ply,Open,F,
DQ,Mariya Kukushkina,Мария Кукушкина,1992,65.1,125,-70,120,,72,SBD,Single-ply,Open,F,
1,Yuliya Koshurina,Юлия Кошурина,1968,72.1,122.5,70,122.5,315,84,SBD,Single-ply,Open,F,
1,Vladimir Druzhinin,Владимир Дружинин,1985,57.85,215,165,190,570,59,SBD,Single-ply,Open,M,
2,Aleksandr Brodyanoy,Александр Бродяной,1999,56.2,100,80,135,315,59,SBD,Single-ply,Open,M,
1,Artyom Shifanov,Артём Шифанов,1990,65.1,175,102.5,200,477.5,66,SBD,Single-ply,Open,M,
2,Aleksey Lyubimtsev,Алексей Любимцев,1997,65.05,140,102.5,150,392.5,66,SBD,Single-ply,Open,M,
1,Kirill Gorshkov,Кирилл Горшков,1987,74,215,127.5,180,522.5,74,SBD,Single-ply,Open,M,
2,Kirill Utekhin,Кирилл Утехин,1998,73.25,160,85,185,430,74,SBD,Single-ply,Open,M,
DQ,Aleksandr Kurbatov,Александр Курбатов,1996,,,,,,74,SBD,Single-ply,Open,M,
1,Aleksandr Gika,Александр Гика,1993,80.25,255,145,255,655,83,SBD,Single-ply,Open,M,
2,Evgeniy Shchadnov,Евгений Щаднов,1991,82.8,235,160,247.5,642.5,83,SBD,Single-ply,Open,M,
3,Ivan Karpunin,Иван Карпунин,1977,82.9,220,165,215,600,83,SBD,Single-ply,Open,M,
4,Gleb Medvedev,Глеб Медведев,1998,78.8,220,130,200,550,83,SBD,Single-ply,Open,M,
1,Dmitriy Romantsov,Дмитрий Романцов,1985,92.5,280,190,285,755,93,SBD,Single-ply,Open,M,
2,Mikhail Malozemov,Михаил Малоземов,1986,85,277.5,220,255,752.5,93,SBD,Single-ply,Open,M,
3,Ivan Shevlyakov,Иван Шевляков,1990,91.2,260,187.5,257.5,705,93,SBD,Single-ply,Open,M,
4,Vladimir Mayorov,Владимир Майоров,1990,89.65,255,175,220,650,93,SBD,Single-ply,Open,M,
5,Anton Kazakov,Антон Казаков,1983,92.1,250,160,235,645,93,SBD,Single-ply,Open,M,
6,Dmitriy Gladyshev,Дмитрий Гладышев,1995,91.45,227.5,155,237.5,620,93,SBD,Single-ply,Open,M,
7,Evgeniy Lukin,Евгений Лукин,1987,91.35,205,160,245,610,93,SBD,Single-ply,Open,M,
8,Denis Poyarkov,Денис Поярков,1983,92.55,190,150,225,565,93,SBD,Single-ply,Open,M,
9,Aleksey Grachev,Алексей Грачев,1976,87.15,190,170,200,560,93,SBD,Single-ply,Open,M,
10,Vladislav Babushkin,Владислав Бабушкин,1971,89.35,195,122.5,207.5,525,93,SBD,Single-ply,Open,M,
11,Mikhail Dvoryanchikov,Михаил Дворянчиков,1991,92.2,175,115,200,490,93,SBD,Single-ply,Open,M,
12,Oleg Khramovich,Олег Храмович,1988,87.85,152.5,102.5,195,450,93,SBD,Single-ply,Open,M,
13,Ivan Plastinin,Иван Пластинин,1983,89.25,105,167.5,105,377.5,93,SBD,Single-ply,Open,M,
1,Roman Strelov,Роман Стрелов,1974,99.45,285,220,242.5,747.5,105,SBD,Single-ply,Open,M,
2,Gleb Aksyuchenko,Глеб Аксюченко,1982,103.6,240,175,255,670,105,SBD,Single-ply,Open,M,
3,Valentin Zolotusskiy,Валентин Золотусский,1991,103.7,235,167.5,242.5,645,105,SBD,Single-ply,Open,M,
4,Anton Mikheev,Антон Михеев,1984,103.75,220,190,235,645,105,SBD,Single-ply,Open,M,
5,Andrey Sokolov,Андрей Соколов,1980,97.35,205,180,195,580,105,SBD,Single-ply,Open,M,
1,Roman Obidin,Роман Обидин,1982,117.8,302.5,225,292.5,820,120,SBD,Single-ply,Open,M,
2,Mikhail Kukushkin,Михаил Кукушкин,1987,115.85,300,242.5,250,792.5,120,SBD,Single-ply,Open,M,
3,Mikhail Timofeev,Михаил Тимофеев,1980,109.3,275,215,270,760,120,SBD,Single-ply,Open,M,
4,Evgeniy Bugrov,Евгений Бугров,1976,110.6,260,205,235,700,120,SBD,Single-ply,Open,M,
5,Andrey Revyagin,Андрей Ревягин,1983,114.7,245,200,245,690,120,SBD,Single-ply,Open,M,
6,Nikolay Shanin,Николай Шанин,1989,115.95,210,190,220,620,120,SBD,Single-ply,Open,M,
7,Aleksandr Kumov,Александр Кумов,1992,108.7,210,165,215,590,120,SBD,Single-ply,Open,M,
1,Lev Bergert,Лев Бергерт,1966,152.05,330,290,315,935,120+,SBD,Single-ply,Open,M,
2,Maksim Argudyaev,Максим Аргудяев,1983,128.65,290,255,290,835,120+,SBD,Single-ply,Open,M,
3,Nikolay Kundin,Николай Кундин,1988,130.05,300,200,310,810,120+,SBD,Single-ply,Open,M,
4,Pyotr Beloglazov,Пётр Белоглазов,1990,125.65,320,220,230,770,120+,SBD,Single-ply,Open,M,
