Event,Equipment,Name,Age,Country,Sex,BirthDate,Division,BodyweightKg,WeightClassKg,Squat1Kg,Squat2Kg,Squat3Kg,Squat4Kg,Bench1Kg,Bench2Kg,Bench3Kg,Bench4Kg,Deadlift1Kg,Deadlift2Kg,Deadlift3Kg,Deadlift4Kg,TotalKg,Best3SquatKg,Best3BenchKg,Best3DeadliftKg,Place
B,Multi-ply,Lucila Rabasa,,Argentina,F,1986-12-05,O,57.8,60,,,,,95,100,-105,,,,,,100,,100,,1
B,Multi-ply,Michele Silva Batista,,Brazil,F,1989-09-21,O,67.5,67.5,,,,,-85,85,95,,,,,,95,,95,,1
B,Multi-ply,Rosa Floriano,,Argentina,F,1973-02-04,M1,77.7,82.5,,,,,-130,130,140,,,,,,140,,140,,1
B,Multi-ply,Lee Powell,,Argentina,M,1984-03-24,O,,82.5,,,,,,,,,,,,,,,,,DQ
B,Multi-ply,Felix Camin,,Argentina,M,1977-10-14,O,73.7,75,,,,,180,190,-195,,,,,,190,,190,,1
B,Multi-ply,Alexis Martinez #12,,Argentina,M,1980-08-13,O,74.5,75,,,,,160,165,170,,,,,,170,,170,,2
B,Multi-ply,Jose Luis Ferrer,,Argentina,M,1965-05-10,M2,69.1,75,,,,,130,-140,-140,,,,,,130,,130,,1
B,Multi-ply,Matheus Silva Queiroz,,Brazil,M,1995-10-16,T3,77.9,82.5,,,,,130,140,-150,,,,,,140,,140,,1
B,Multi-ply,Marcos Da Sosa,,Argentina,M,1995-08-25,T3,82.1,82.5,,,,,-130,-130,130,,,,,,130,,130,,1
B,Multi-ply,Walter Javier Barrionuevo,,Argentina,M,1987-07-12,O,82.5,82.5,,,,,-240,240,-260,,,,,,240,,240,,1
B,Multi-ply,Fernando Gonzaga Lorenzo,,Brazil,M,1980-07-27,O,79.1,82.5,,,,,170,180,-200,,,,,,180,,180,,1
B,Multi-ply,Oscar Figueredo,,Argentina,M,1972-05-06,M1,82.1,82.5,,,,,170,-182.5,185,,,,,,185,,185,,1
B,Multi-ply,Jose Gabriel Cisnero,,Argentina,M,1973-01-16,M1,78.8,82.5,,,,,-125,130,137.5,,,,,,137.5,,137.5,,2
B,Multi-ply,Valter Antonio,,Brazil,M,1972-01-25,M1,78.4,82.5,,,,,170,-180,-185,,,,,,170,,170,,1
B,Multi-ply,Milou Lazreg,,France,M,1948-01-19,M6,78,82.5,,,,,90,110,-125,,,,,,110,,110,,1
B,Multi-ply,Emiliano Acosta,,Argentina,M,1946-11-12,M6,77.8,82.5,,,,,-125,-125,125,,,,,,125,,125,,1
B,Multi-ply,Horacio Zoilo,,Argentina,M,1941-11-17,M7,76.5,82.5,,,,,120,140,-145,,,,,,140,,140,,1
B,Multi-ply,Carlos Roberto Rodrigues,,Brazil,M,1985-06-23,O,89.4,90,,,,,210,220,-242.5,,,,,,220,,220,,2
B,Multi-ply,Ján Matej,,Slovakia,M,1985-04-29,O,87.7,90,,,,,240,252.5,262.5,,,,,,262.5,,262.5,,1
B,Multi-ply,Ramiro Loeffel,,Argentina,M,1982-01-03,O,86.9,90,,,,,-180,-190,190,,,,,,190,,190,,3
B,Multi-ply,Felipe Nahuel Villa,,Argentina,M,1989-07-06,O,84,90,,,,,-145,145,152.5,,,,,,152.5,,152.5,,4
B,Multi-ply,Rodolfo Villalba,,Argentina,M,1974-07-16,M1,89.5,90,,,,,-210,-210,210,,,,,,210,,210,,2
B,Multi-ply,Daniel Sánchez,,Argentina,M,1973-11-21,M1,89,90,,,,,220,-230,-230,,,,,,220,,220,,1
B,Multi-ply,Oscar Insaurralde,,Argentina,M,1962-03-28,M3,83.6,90,,,,,180,-185,185,,,,,,185,,185,,1
B,Multi-ply,Ján Matej,,Slovakia,M,1947-10-18,M6,90,90,,,,,145,152.5,157.5,,,,,,157.5,,157.5,,1
B,Multi-ply,Oscar Espinello,,Argentina,M,1939-06-16,M8,,90,,,,,,,,,,,,,,,,,DQ
B,Multi-ply,Víctor Giles,,Argentina,M,1981-08-07,O,98.6,100,,,,,-230,240,-265,,,,,,240,,240,,1
B,Multi-ply,Sergio Gayoso,,Argentina,M,1961-04-17,M3,98.4,100,,,,,150,180,-195,,,,,,180,,180,,1
B,Multi-ply,Franciszek Szabluk,,Poland,M,1956-09-17,M4,91.8,100,,,,,-180,-180,180,,,,,,180,,180,,1
B,Multi-ply,Miguel Nardini,,Argentina,M,1940-12-08,M7,94.6,100,,,,,130,142.5,150,,,,,,150,,150,,1
B,Multi-ply,Pablo Beroisa,,Argentina,M,1993-03-30,J,,110,,,,,,,,,,,,,,,,,DQ
B,Multi-ply,Diego Ojeda,,Argentina,M,1975-08-26,O,,110,,,,,,,,,,,,,,,,,DQ
B,Multi-ply,Kalle Ylitalo-James,,Finland,M,1983-06-13,O,109.3,110,,,,,270,-302.5,302.5,,,,,,302.5,,302.5,,1
B,Multi-ply,Irlei Felipe,,Brazil,M,1970-05-12,M1,110,110,,,,,-210,-210,-210,,,,,,,,,,DQ
B,Multi-ply,Victor Quispe,,Argentina,M,1970-09-27,M1,105,110,,,,,-160,-175,180,,,,,,180,,180,,1
B,Multi-ply,Nicodemo Beroisa,,Argentina,M,1962-01-06,M3,,110,,,,,,,,,,,,,,,,,DQ
B,Multi-ply,Sergio Devich,,Argentina,M,1950-01-29,M5,109.1,110,,,,,110,120,127.5,,,,,,127.5,,127.5,,1
B,Multi-ply,Gastón Melgarejo,,Argentina,M,1988-08-26,O,115.2,125,,,,,260,-270,-275,,,,,,260,,260,,1
B,Multi-ply,Marek Pivovarnik,,Slovakia,M,1984-10-23,O,,125,,,,,,,,,,,,,,,,,DQ
B,Multi-ply,Ernesto Queiruga,,Argentina,M,1970-05-10,M1,115.1,125,,,,,-275,275,280,,,,,,280,,280,,1
B,Multi-ply,Eduardo Alcaraz,,Argentina,M,1968-12-14,M2,114.8,125,,,,,260,-280.5,-280.5,280.5,,,,,260,,260,,1
B,Multi-ply,Serafim Rocha,,Brazil,M,1948-01-01,M6,115.4,125,,,,,140,150,-157.5,,,,,,150,,150,,1
B,Multi-ply,Luciano Newton Pereira,,Brazil,M,1979-12-29,O,133.7,140,,,,,230,260,-270,,,,,,260,,260,,1
B,Multi-ply,Walter San Miguel,,Argentina,M,1971-06-26,M1,138.2,140,,,,,260,270,280,,,,,,280,,280,,1
B,Multi-ply,Guido Bonanni Neto,,Brazil,M,1992-04-16,J,144,140+,,,,,310,-330,330,,,,,,330,,330,,1
B,Multi-ply,Jorge Alvarez,,Argentina,M,1961-04-20,M3,157,140+,,,,,100,112.5,,,,,,,112.5,,112.5,,1
B,Raw,Bettina Razzouki-Korkis,,Poland,F,1965-08-20,M2,51.7,52,,,,,57.5,60.5,62.5,-65,,,,,62.5,,62.5,,1
B,Raw,Mariel Bertona,,Argentina,F,1971-07-04,M1,55.2,56,,,,,75,80,85,86.5,,,,,85,,85,,1
B,Raw,Slávka Ratvajská,,Slovakia,F,1973-12-31,M1,56,56,,,,,52.5,57.5,60,,,,,,60,,60,,2
B,Raw,Lucila Rabasa,,Argentina,F,1986-12-05,O,58,60,,,,,80,87.5,90,94.5,,,,,90,,90,,1
B,Raw,Monica Johnston,,Canada,F,1949-10-08,M5,66.8,67.5,,,,,40,42.5,-45,,,,,,42.5,,42.5,,1
B,Raw,Maraisa Proença Moral,,Brazil,F,1985-04-12,O,60.9,67.5,,,,,42.5,45,47.5,,,,,,47.5,,47.5,,2
B,Raw,Aida Agüero,,Argentina,F,1961-09-15,O,66.5,67.5,,,,,-120,120,125,130,,,,,125,,125,,1
B,Raw,Courtney Johnston,,Canada,F,1981-08-22,O,72.5,75,,,,,60,65,67.5,,,,,,67.5,,67.5,,1
B,Raw,Ursula Eulenstein,,Germany,F,1949-08-08,M6,,75,,,,,,,,,,,,,,,,,DQ
B,Raw,Margaret Estabrooks,,Canada,F,1947-08-19,M6,79.1,82.5,,,,,35,37.5,,,,,,,37.5,,37.5,,1
B,Raw,Rosa Floriano,,Argentina,F,1973-02-04,M1,78.2,82.5,,,,,105,115,-120,,,,,,115,,115,,1
B,Raw,Mariela Ortellado,,Argentina,F,1985-07-10,O,101.1,90+,,,,,70,90,-100,,,,,,90,,90,,1
B,Raw,Nicolas Salas,,Argentina,M,1997-08-26,T2,,60,,,,,,,,,,,,,,,,,DQ
B,Raw,Alberto Velazquez,,Argentina,M,1992-10-21,J,55.6,56,,,,,80,90,-100,,,,,,90,,90,,1
B,Raw,German Diaz Osorio,,Argentina,M,1974-11-15,O,,56,,,,,,,,,,,,,,,,,DQ
B,Raw,Axel Vazquez,,Argentina,M,1999-07-17,T1,66.3,67.5,,,,,-80,-80,80,98,,,,,80,,80,,1
B,Raw,Gabriel Sanchez,,Argentina,M,1992-07-21,J,64.7,67.5,,,,,90,110,115,,,,,,115,,115,,1
B,Raw,Facundo Rovetta,,Argentina,M,1990-03-01,O,67.1,67.5,,,,,105,112.5,117.5,,,,,,117.5,,117.5,,1
B,Raw,Lucas Nicolas Bonzi,,Argentina,M,1995-09-15,T3,71,75,,,,,90,100,110,,,,,,110,,110,,1
B,Raw,David Zerpa,,Argentina,M,1991-02-11,J,71.6,75,,,,,100,105,110,,,,,,110,,110,,1
B,Raw,Felix Camin,,Argentina,M,1997-10-14,O,73.8,75,,,,,140,155,162.5,,,,,,162.5,,162.5,,1
B,Raw,Juan Sosa,,Argentina,M,1981-03-24,O,74.3,75,,,,,125,130,135,,,,,,135,,135,,1
B,Raw,Cristian Mansilla,,Argentina,M,1978-03-26,O,,75,,,,,,,,,,,,,,,,,DQ
B,Raw,Diego Ramírez,,Argentina,M,1981-01-17,O,73.7,75,,,,,-125,125,-135,,,,,,125,,125,,2
B,Raw,Jose Luis Ferrer,,Argentina,M,1965-05-10,M2,69.3,75,,,,,100,110,115,,,,,,115,,115,,2
B,Raw,Sergei Trukhnin,,Russia,M,1965-08-10,M2,73.2,75,,,,,120,125,130,,,,,,130,,130,,1
B,Raw,Colin Mullaney,,Canada,M,1959-09-15,M4,70.1,75,,,,,90,100,110,,,,,,110,,110,,1
B,Raw,Guylhem Feraud,,France,M,1945-01-25,M6,73.5,75,,,,,100,110,,,,,,,110,,110,,1
B,Raw,Marcelo Ojeda,,Argentina,M,1998-02-24,T2,,82.5,,,,,,,,,,,,,,,,,DQ
B,Raw,Nicolas Fernandez,,Argentina,M,1994-10-05,T3,81,82.5,,,,,105,110,117.5,,,,,,117.5,,117.5,,1
B,Raw,Marcos Velozo,,Argentina,M,1977-04-24,O,80.5,82.5,,,,,160,170,182.5,,,,,,182.5,,182.5,,1
B,Raw,Joilson Dos Santos,,Brazil,M,1978-04-22,O,78.5,82.5,,,,,145,150,160,,,,,,160,,160,,2
B,Raw,Patricio Rodriguez,,Argentina,M,1986-10-11,O,79.5,82.5,,,,,130,135,-140,,,,,,135,,135,,1
B,Raw,Valter Antonio,,Brazil,M,1972-01-25,M1,79.4,82.5,,,,,140,150,-155,,,,,,150,,150,,1
B,Raw,Rafael Silva,,Argentina,M,1969-09-14,M2,82,82.5,,,,,130,140,155,,,,,,155,,155,,1
B,Raw,Jorge Duran,,Argentina,M,1960-05-23,M3,79.7,82.5,,,,,115,120,-125,,,,,,120,,120,,1
B,Raw,Horacio Zoilo,,Argentina,M,1941-11-17,M7,77.3,82.5,,,,,105,130,-135,,,,,,130,,130,,1
B,Raw,Vlastimil Šafařík,,Czechia,M,1998-09-16,T2,86.3,90,,,,,100,110,115,,,,,,115,,115,,1
B,Raw,Federico Leotta,,Argentina,M,1995-05-27,T3,,90,,,,,,,,,,,,,,,,,DQ
B,Raw,Carlos Roberto Rodrigues,,Brazil,M,1985-06-23,O,88.5,90,,,,,135,145,160,,,,,,160,,160,,2
B,Raw,Matías Santa Cruz,,Argentina,M,1987-09-19,O,88.4,90,,,,,175,185,-192.5,,,,,,185,,185,,1
B,Raw,Dmitrii Shumilov,,Russia,M,1981-05-07,O,87.4,90,,,,,-190,190,-195,,,,,,190,,190,,1
B,Raw,Simón Godoy,,Argentina,M,1970-11-27,M1,88.9,90,,,,,160,180,-185,,,,,,180,,180,,1
B,Raw,Jose Carambia,,Argentina,M,1967-02-04,M2,88.9,90,,,,,120,145,155,,,,,,155,,155,,1
B,Raw,Joaquim Eulenstein,,Germany,M,1947-05-03,M6,,90,,,,,,,,,,,,,,,,,DQ
B,Raw,Emanuel Romero,,Argentina,M,1995-07-11,T3,,100,,,,,,,,,,,,,,,,,DQ
B,Raw,Dione César Teodoro,,Brazil,M,1992-01-12,J,95.1,100,,,,,135,145,-155,,,,,,145,,145,,1
B,Raw,Lucas Rene Basualdo,,Argentina,M,1981-02-20,O,94,100,,,,,117.5,120,122.5,,,,,,122.5,,122.5,,1
B,Raw,Dmitriy Bubyr,,Russia,M,1981-05-22,O,98.1,100,,,,,-175,-175,-175,,,,,,,,,,DQ
B,Raw,Leandro Gimenez,,Argentina,M,1987-04-07,O,97,100,,,,,175,185,190,,,,,,190,,190,,1
B,Raw,Dmitriy Petrov,,Russia,M,1986-01-29,O,90.5,100,,,,,-175,-175,-175,,,,,,,,,,DQ
B,Raw,Sidnei Crispim Gomes,,Brazil,M,1972-03-18,M1,95.6,100,,,,,130,140,150,,,,,,150,,150,,1
B,Raw,Facundo Paz,,Argentina,M,1974-02-05,M1,,100,,,,,,,,,,,,,,,,,DQ
B,Raw,Gustavo Miño,,Argentina,M,1971-01-15,M1,94.9,100,,,,,135,145,-152.5,,,,,,145,,145,,2
B,Raw,Alexander Antipov,,Russia,M,1964-08-19,M3,99.3,100,,,,,100,120,130,,,,,,130,,130,,1
B,Raw,Franciszek Szabluk,,Poland,M,1956-09-17,M4,90.6,100,,,,,140,150,,,,,,,150,,150,,1
B,Raw,Miguel Nardini,,Argentina,M,1940-12-08,M7,93.6,100,,,,,110,120,127.5,,,,,,127.5,,127.5,,1
B,Raw,Irlei Felipe,,Brazil,M,1970-05-12,M1,110,110,,,,,160,170,-180,,,,,,170,,170,,2
B,Raw,Victor Quispe,,Argentina,M,1970-09-27,M1,,110,,,,,,,,,,,,,,,,,DQ
B,Raw,Walter Morales,,Argentina,M,1972-06-04,M1,105,110,,,,,160,172.5,-180,,,,,,172.5,,172.5,,1
B,Raw,Omar Cordoba,,Argentina,M,1966-02-07,M2,107,110,,,,,135,145,150,,,,,,150,,150,,2
B,Raw,Michal Šafařík,,Czechia,M,1967-01-14,M2,107.5,110,,,,,140,147.5,152.5,,,,,,152.5,,152.5,,1
B,Raw,Igor Lebedev,,Russia,M,1962-08-03,M3,101.5,110,,,,,200,205,207.5,,,,,,207.5,,207.5,,1
B,Raw,Jaime Quiñones,,Argentina,M,,T3,,125,,,,,,,,,,,,,,,,,DQ
B,Raw,Salvador Accari,,Argentina,M,1986-10-20,O,119,125,,,,,170,190,-202.5,,,,,,190,,190,,2
B,Raw,Cristian Gutierrez,,Argentina,M,1979-04-03,O,112.7,125,,,,,200,220,225,,,,,,225,,225,,1
B,Raw,Antonio Pereira Filho,,Brazil,M,1978-12-18,O,115.6,125,,,,,210,220,225,,,,,,225,,225,,1
B,Raw,Ernesto Queiruga,,Argentina,M,1970-05-10,M1,114.6,125,,,,,190,200,210,,,,,,210,,210,,1
B,Raw,Eduardo Alcaraz,,Argentina,M,1968-12-14,M2,112.1,125,,,,,227.5,235,-240,,,,,,235,,235,,1
B,Raw,Serafim Rocha,,Brazil,M,1948-01-01,M6,115.4,125,,,,,120,130,,,,,,,130,,130,,1
B,Raw,Gonzalo Iriarte,,Argentina,M,1980-02-13,O,136,140,,,,,190,205,-220,,,,,,205,,205,,1
B,Raw,Victor Favalini,,Argentina,M,1974-06-15,M1,142,140+,,,,,190,205,215,,,,,,215,,215,,1
B,Raw,Walter San Miguel,,Argentina,M,1971-06-26,M1,139.4,140,,,,,200,210,220,,,,,,220,,220,,1
B,Raw,Guido Bonanni Neto,,Brazil,M,1992-04-16,J,144,140+,,,,,220,240,245,,,,,,245,,245,,1
D,Multi-ply,Francieli Alves de Andrade,,Brazil,F,1988-03-01,O,58.4,60,,,,,,,,,140,-150,-150,-150,,,,140,DQ
D,Multi-ply,Débora Ester,,Brazil,F,1982-01-23,O,,90,,,,,,,,,,,,,,,,,DQ
D,Multi-ply,Pablo Tafarel Sanaioti Silva,,Brazil,M,1988-11-05,O,55.3,56,,,,,,,,,165,175,-190,,,,,175,DQ
D,Multi-ply,Matías Carrizo,,Argentina,M,1996-10-17,T2,67.5,67.5,,,,,,,,,110,130,-155,,,,,130,DQ
D,Multi-ply,Guilherme Garbelini,,Brazil,M,1984-12-15,O,63.6,67.5,,,,,,,,,-175,185,-190,-190,,,,185,DQ
D,Multi-ply,Sandro Zayas,,Argentina,M,1976-06-11,O,74.5,75,,,,,,,,,240,250,260,-265,,,,260,DQ
D,Multi-ply,Jesus Balbiano,,Argentina,M,1984-07-25,O,82.5,82.5,,,,,,,,,220,230,242.5,,,,,242.5,DQ
D,Multi-ply,Fernando Gonzaga Lorenzo,,Brazil,M,1980-07-27,O,79.1,82.5,,,,,,,,,200,,,,,,,200,DQ
D,Multi-ply,Jose Gabriel Cisnero,,Argentina,M,1973-01-16,M1,78.8,82.5,,,,,,,,,-165,165,,,,,,165,DQ
D,Multi-ply,Birchmans Pereira,,Canada,M,1946-08-13,M6,77.8,82.5,,,,,,,,,197.5,205,207.5,-210,,,,207.5,DQ
D,Multi-ply,Juan Pereyra #1,,Argentina,M,1946-12-21,M6,81,82.5,,,,,,,,,150,160,,,,,,160,DQ
D,Multi-ply,Lee Powell,,Canada,M,1984-03-24,O,84.4,90,,,,,,,,,230,250,272.5,-281,,,,272.5,DQ
D,Multi-ply,André Guilherme Romeiro Neumann,,Brazil,M,1981-04-06,O,88.6,90,,,,,,,,,280,-310,-310,,,,,280,DQ
D,Multi-ply,Alberto Caceres,,Argentina,M,1986-04-13,O,,90,,,,,,,,,,,,,,,,,DQ
D,Multi-ply,Oscar Espinello,,Argentina,M,1939-06-16,M8,87.7,90,,,,,,,,,230,245,255,,,,,255,DQ
D,Multi-ply,Marcos Martinez,,Argentina,M,1975-04-22,O,99,100,,,,,,,,,320,332.5,340,,,,,340,DQ
D,Multi-ply,Luan de Oliveira Franco,,Brazil,M,1988-06-23,O,92.2,100,,,,,,,,,260,-272.5,-272.5,,,,,260,DQ
D,Multi-ply,Tamás Molnár,,Hungary,M,1975-06-06,O,,100,,,,,,,,,,,,,,,,,DQ
D,Multi-ply,Imad Bahria,,France,M,1975-07-19,O,93.3,100,,,,,,,,,270,287.5,-292.5,,,,,287.5,DQ
D,Multi-ply,Carlos Garelli,,Argentina,M,1971-09-24,M1,97.5,100,,,,,,,,,205,222.5,,,,,,222.5,DQ
D,Multi-ply,Ivan Giňovský,,Slovakia,M,1967-03-31,M2,95.9,100,,,,,,,,,180,200,,,,,,200,DQ
D,Multi-ply,Sergio Gayoso,,Argentina,M,1961-04-17,M3,98.4,100,,,,,,,,,200,235,247.5,,,,,247.5,DQ
D,Multi-ply,Emilio Mansilla,,Argentina,M,1984-01-22,O,106.8,110,,,,,,,,,-305,305,-315,,,,,305,DQ
D,Multi-ply,Walter Morales,,Argentina,M,1972-06-04,M1,105.2,110,,,,,,,,,245.5,,,,,,,245.5,DQ
D,Multi-ply,Victor Quispe,,Argentina,M,1970-09-27,M1,105,110,,,,,,,,,190,210,220,,,,,220,DQ
D,Multi-ply,Marek Pivovarnik,,Slovakia,M,1984-10-23,O,125,125,,,,,,,,,250,270,,,,,,270,DQ
D,Multi-ply,Lee Marshall,,UK,M,1959-01-11,M4,115.8,125,,,,,,,,,300,320,330,,,,,330,DQ
D,Multi-ply,Emanuel Montes de Oca,,Argentina,M,1985-10-06,O,139,140,,,,,,,,,-307.5,-307.5,307.5,,,,,307.5,DQ
D,Multi-ply,Lee Marshall,,UK,M,1959-01-11,M4,115.8,125,,,,,,,,,300,320,330,,,,,330,DQ
D,Raw,Bettina Razzouki-Korkis,,Poland,F,1965-08-20,M2,51.7,52,,,,,,,,,100,108,,,,,,108,DQ
D,Raw,Marisa De Paiva Pereira Gonçalves,,Brazil,F,1990-06-29,O,58.1,60,,,,,,,,,110,120,,,,,,120,DQ
D,Raw,Laura Aylén Castrilli,,Argentina,F,1997-04-30,T2,57.5,60,,,,,,,,,80,90,100,,,,,100,DQ
D,Raw,Fiamma Costa,,Argentina,F,1991-07-18,J,58.8,60,,,,,,,,,135,145,155.5,,,,,155.5,DQ
D,Raw,Rosenilda Oliveira Bonfim,,Brazil,F,1979-03-20,O,,60,,,,,,,,,,,,,,,,,DQ
D,Raw,Mariel Bertona,,Argentina,F,1971-07-03,M1,56.2,60,,,,,,,,,140,147.5,155,,,,,155,DQ
D,Raw,Daniela Silva,,Argentina,F,1969-08-14,M2,57.2,60,,,,,,,,,70,90,100,-110,,,,100,DQ
D,Raw,Maraisa Proença Moral,,Brazil,F,1985-04-12,O,60.9,67.5,,,,,,,,,85,95,102.5,,,,,102.5,DQ
D,Raw,Carla Pádua Garcia,,Brazil,F,2000-03-14,T1,,67.5,,,,,,,,,,,,,,,,,DQ
D,Raw,Michele Silva Batista,,Brazil,F,1989-09-21,O,,67.5,,,,,,,,,,,,,,,,,DQ
D,Raw,Aida Agüero,,Argentina,F,1961-09-15,O,66.5,67.5,,,,,,,,,175.5,187.5,195,,,,,195,DQ
D,Raw,María De Las Nieves Punalef,,Argentina,F,1986-09-07,O,,67.5,,,,,,,,,,,,,,,,,DQ
D,Raw,Mirta Gimenez,,Argentina,F,1962-04-22,M3,65.1,67.5,,,,,,,,,70,82.5,85,,,,,85,DQ
D,Raw,Monica Johnston,,Canada,F,1949-10-08,M5,66.8,67.5,,,,,,,,,85,87.5,90,92.5,,,,90,DQ
D,Raw,Courtney Johnston,,Canada,F,1981-08-22,O,72.5,75,,,,,,,,,150,155,,,,,,155,DQ
D,Raw,Leticia Bertotto,,Argentina,F,1971-09-18,M1,74.3,75,,,,,,,,,150,160,170,,,,,170,DQ
D,Raw,Margaret Estabrooks,,Canada,F,1947-08-19,M6,79.1,82.5,,,,,,,,,75,80,,,,,,80,DQ
D,Raw,Rosa Floriano,,Argentina,F,1973-02-04,M1,78.2,82.5,,,,,,,,,150,160,-180,,,,,160,DQ
D,Raw,Altamira Sobrinho,,Brazil,F,1967-10-23,M2,76.8,82.5,,,,,,,,,180,190,200,-210,,,,200,DQ
D,Raw,Mariela Ortellado,,Argentina,F,1985-07-10,O,101.1,90+,,,,,,,,,140,160,-170,,,,,160,DQ
D,Raw,Marina Izetta,,Argentina,F,1981-10-22,O,,90+,,,,,,,,,,,,,,,,,DQ
D,Raw,Pavel Balážik,,Russia,M,1979-08-23,O,,56,,,,,,,,,,,,,,,,,DQ
D,Raw,Pablo Tafarel Sanaioti Silva,,Brazil,M,1988-11-05,O,,56,,,,,,,,,,,,,,,,,DQ
D,Raw,Vicente Pereira Magalhães,,Brazil,M,1996-05-28,T3,,60,,,,,,,,,,,,,,,,,DQ
D,Raw,Matías Buffarini,,Argentina,M,1990-12-13,J,60,60,,,,,,,,,125,140,170,-180.5,,,,170,DQ
D,Raw,Luis Henrique Elias,,Brazil,M,1992-03-19,J,,67.5,,,,,,,,,,,,,,,,,DQ
D,Raw,Ricardo Guizeline Rosa,,Brazil,M,1947-01-13,M6,,67.5,,,,,,,,,,,,,,,,,DQ
D,Raw,Pablo Cornejo,,Argentina,M,1988-07-25,O,67,67.5,,,,,,,,,170,185,,,,,,185,DQ
D,Raw,Michael Jordan Santos Da Mata,,Brazil,M,1993-07-11,J,,75,,,,,,,,,,,,,,,,,DQ
D,Raw,Rodrigo Fernandez,,Argentina,M,1995-12-19,T3,,75,,,,,,,,,,,,,,,,,DQ
D,Raw,Enzo Lechman,,Argentina,M,1994-10-04,T3,73.2,75,,,,,,,,,150,,,,,,,150,DQ
D,Raw,Pablo Esquivel,,Argentina,M,1977-12-07,O,71.2,75,,,,,,,,,200,210,-220,,,,,210,DQ
D,Raw,Ariel Vera,,Argentina,M,1984-06-02,O,73.9,75,,,,,,,,,170,-200,-200,,,,,170,DQ
D,Raw,Adriano DaCosta,,France,M,1963-01-13,M3,73.4,75,,,,,,,,,210,,,,,,,210,DQ
D,Raw,Sergei Trukhnin,,Russia,M,1965-08-10,M2,73.2,75,,,,,,,,,180,,,,,,,180,DQ
D,Raw,Birchmans Pereira,,Canada,M,1946-08-13,M6,75,75,,,,,,,,,182.5,-192.5,200,,,,,200,DQ
D,Raw,Guylhem Feraud,,France,M,1945-01-25,M6,73.5,75,,,,,,,,,160,167.5,,,,,,167.5,DQ
D,Raw,Fabio Marqueti Gomes,,Brazil,M,1978-12-30,O,,82.5,,,,,,,,,,,,,,,,,DQ
D,Raw,Júlio Cesar Ferraz,,Brazil,M,1982-01-01,O,,82.5,,,,,,,,,,,,,,,,,DQ
D,Raw,Joilson Dos Santos,,Brazil,M,1978-04-22,O,78.5,82.5,,,,,,,,,200,210,,,,,,210,DQ
D,Raw,Roberto Ferreira Da Cruz,,Brazil,M,1988-05-08,O,,82.5,,,,,,,,,,,,,,,,,DQ
D,Raw,Jorge Cural,,Argentina,M,1980-09-24,O,,82.5,,,,,,,,,,,,,,,,,DQ
D,Raw,Colin Mullaney,,Canada,M,1959-09-15,M4,80.1,82.5,,,,,,,,,100,125,150,,,,,150,DQ
D,Raw,Horacio Zoilo,,Argentina,M,1941-11-17,M7,77.3,82.5,,,,,,,,,160,180,190,-195,,,,190,DQ
D,Raw,José Torino,,Argentina,M,1993-01-27,J,,82.5,,,,,,,,,,,,,,,,,DQ
D,Raw,Diego Stauro,,Argentina,M,1993-01-27,J,,82.5,,,,,,,,,,,,,,,,,DQ
D,Raw,Marcelo Lobo,,Argentina,M,1968-08-29,M2,81.5,82.5,,,,,,,,,205,220,231,-235,,,,231,DQ
D,Raw,Vlastimil Šafařík,,Czechia,M,1998-09-16,T2,86.3,90,,,,,,,,,150,165,180,,,,,180,DQ
D,Raw,Lucas Liljestrhom,,Argentina,M,1990-10-13,J,82.8,90,,,,,,,,,180,200,220,,,,,220,DQ
D,Raw,Júlio César Da Silva,,Brazil,M,1990-07-21,O,,90,,,,,,,,,,,,,,,,,DQ
D,Raw,Stanislav Pryakhin,,Russia,M,1975-03-18,O,85.5,90,,,,,,,,,240,250,280,,,,,280,DQ
D,Raw,Marcos Cabezas,,Argentina,M,1978-11-23,O,87.8,90,,,,,,,,,200,215.5,-222.5,,,,,215.5,DQ
D,Raw,Sergio Salas,,Argentina,M,1968-12-17,O,86.1,90,,,,,,,,,205,-215,-220,,,,,205,DQ
D,Raw,Ricardo Guizeline Rosa,,Brazil,M,1947-01-13,M6,,90,,,,,,,,,,,,,,,,,DQ
D,Raw,Antônio Marcos Xavier Junior,,Brazil,M,1995-07-06,T3,,100,,,,,,,,,,,,,,,,,DQ
D,Raw,Dione César Teodoro,,Brazil,M,1992-01-12,J,95.9,100,,,,,,,,,200,225,-230,,,,,225,DQ
D,Raw,Murilo Daniel Dos Santos,,Brazil,M,1985-11-14,O,,100,,,,,,,,,,,,,,,,,DQ
D,Raw,Jose Albornoz,,Argentina,M,1977-09-24,O,99.1,100,,,,,,,,,290,-300,-315.5,,,,,290,DQ
D,Raw,Tamás Molnár,,Hungary,M,1975-06-06,O,99.4,100,,,,,,,,,305,315,-320,,,,,315,DQ
D,Raw,Elcio Correa Leite,,Brazil,M,1976-04-26,O,,100,,,,,,,,,,,,,,,,,DQ
D,Raw,Walter Diaz #1,,Argentina,M,1973-07-03,M1,93.8,100,,,,,,,,,220,230,-240,,,,,230,DQ
D,Raw,Rodrigo Javier Sanchez,,Argentina,M,1970-11-13,M1,96.1,100,,,,,,,,,240,250,-260.5,,,,,250,DQ
D,Raw,Fabio Pardo,,Argentina,M,1968-09-08,M2,95,100,,,,,,,,,225,240,-265.5,,,,,240,DQ
D,Raw,Sergio Gayoso,,Argentina,M,1961-04-17,M3,98.8,100,,,,,,,,,200,220,,,,,,220,DQ
D,Raw,Michal Šafařík,,Czechia,M,1967-01-14,M2,107.5,110,,,,,,,,,225,240,250,,,,,250,DQ
D,Raw,Alfredo Martín Rojas,,Argentina,M,1985-09-17,O,,110,,,,,,,,,,,,,,,,,DQ
D,Raw,Walter Morales,,Argentina,M,1972-06-04,M1,105,110,,,,,,,,,240,-270.5,,,,,,240,DQ
D,Raw,Marek Pivovarnik,,Slovakia,M,1984-10-23,O,124.2,125,,,,,,,,,240,260,-277.5,,,,,260,DQ
D,Raw,Salvador Accari,,Argentina,M,1986-10-20,O,119,125,,,,,,,,,230,250,275,,,,,275,DQ
D,Raw,Emanuel Montes de Oca,,Argentina,M,1985-10-06,O,137.9,140,,,,,,,,,-302.5,302.5,-332.5,,,,,302.5,DQ
D,Raw,Fabricio Ubirajara Assis,,Brazil,M,1978-07-25,O,137.8,140,,,,,,,,,315,330,-335,,,,,330,DQ
D,Raw,Luciano Newton Pereira,,Brazil,M,1979-12-29,O,134.4,140,,,,,,,,,230,270,-302.5,,,,,270,DQ
D,Raw,Jorge Alvarez,,Argentina,M,1961-04-20,M3,158,140+,,,,,,,,,160,175,185,,,,,185,DQ
SBD,Multi-ply,Lucila Rabasa,,Argentina,F,1986-12-05,O,57.8,60,145,160,170,,95,100,-105,,-140,140,,,410,170,100,140,1
SBD,Multi-ply,Esko Ketola,,Finland,M,1941-10-05,M7,67.1,67.5,-180,-180,180,-195,90,-100,100,,180,190,,,470,180,100,190,1
SBD,Multi-ply,Guillermo Rodriguez,,Argentina,M,1977-03-18,O,64.9,67.5,270,290,-305,,180,-200,200,-210.5,210,-220,-222.5,,700,290,200,210,1
SBD,Multi-ply,Mauricio Hernandez,,Argentina,M,1985-01-01,O,67,67.5,-200,200,-220,,130,140,150,,190,200,-207,,550,200,150,200,1
SBD,Multi-ply,Cristian Mansilla,,Argentina,M,1978-03-26,O,74,75,-270,270,280,,180,-190,-190,,210,220,-230,,680,280,180,220,1
SBD,Multi-ply,Sandro Zayas,,Argentina,M,1976-06-11,O,75,75,-210,210,-220,,150,160,-167.5,,245,260,-270,,630,210,160,260,2
SBD,Multi-ply,Gérard Dufour,,France,M,1949-01-26,M6,74.5,75,150,170,177.5,,100,110,115,,190,210,-225,,502.5,177.5,115,210,1
SBD,Multi-ply,David D'Arpino,,Argentina,M,1991-01-14,J,79.1,82.5,-220,230,-250,,150,157.5,-165,,220,240,-270,,627.5,230,157.5,240,1
SBD,Multi-ply,Enrique Villanueva,,Argentina,M,1983-06-30,O,81.7,82.5,-250,250,260,,160,-170,170,,220,240,,,670,260,170,240,1
SBD,Multi-ply,Jesus Balbiano,,Argentina,M,1984-07-25,O,82.4,82.5,190,-200,,,130,145,150,,230,240,,,580,190,150,240,2
SBD,Multi-ply,Frédéric Parmentier,,France,M,1976-08-02,O,79.2,82.5,200,-220,-220,,130,140,145,,200,-210,-210,,545,200,145,200,1
SBD,Multi-ply,Oscar Figueredo,,Argentina,M,1972-05-06,M1,82.1,82.5,-270,270,,,160,175,-185,,200,215,-230,,660,270,175,215,1
SBD,Multi-ply,Claudiney Alvarenga,,Brazil,M,1970-03-14,M1,,82.5,,,,,,,,,,,,,,,,,DQ
SBD,Multi-ply,Frédéric Parmentier,,France,M,1976-08-02,O,79.2,82.5,200,,,,130,,,,200,,,,530,200,130,200,2
SBD,Multi-ply,Juan Pereyra #1,,Argentina,M,1946-12-21,M6,82.1,82.5,180,200,210,,125,135,-140,,150,160,-170,,505,210,135,160,1
SBD,Multi-ply,Birchmans Pereira,,Canada,M,1946-08-13,M6,,82.5,,,,,,,,,,,,,,,,,DQ
SBD,Multi-ply,Ján Matej,,Slovakia,M,1985-04-29,O,87.5,90,305,320,330,,240,255,-265,,240,257.5,280,,865,330,255,280,3
SBD,Multi-ply,Alberto Caceres,,Argentina,M,1986-04-13,O,,90,,,,,,,,,,,,,,,,,DQ
SBD,Multi-ply,Daniel Sánchez,,Argentina,M,1973-11-21,O,89.1,90,320,350,365,,-220,230,-250,,252.5,270,280,,875,365,230,280,1
SBD,Multi-ply,Kody Presswood,,USA,M,1989-11-11,O,88.1,90,375,-392.5,-405,,227.5,-237.5,-237.5,,242.5,-260,270,,872.5,375,227.5,270,2
SBD,Multi-ply,Gérard Ivars,,France,M,1966-07-07,M2,88,90,240,-260,260,,-140,140,150,,220,230,-240,,640,260,150,230,1
SBD,Multi-ply,Oscar Espinello,,Argentina,M,1939-06-16,M8,88.2,90,190,205,215,,-100,100,107.5,-112.5,235,250,-260,,572.5,215,107.5,250,1
SBD,Multi-ply,Alberto Caceres,,Argentina,M,1986-04-13,O,91.3,100,265,282.5,292.5,,175,-180,-185,,220,230,-245,,697.5,292.5,175,230,1
SBD,Multi-ply,Marcos Martinez,,Argentina,M,1975-04-22,O,98.8,100,360,392.5,411,,210,-220,225,,325,342.5,-352.5,,978.5,411,225,342.5,1
SBD,Multi-ply,Libor Hurdálek,,Czechia,M,1954-08-05,M5,99.3,100,230,250,270,,155,165,-170.5,,200,-215,215,,650,270,165,215,1
SBD,Multi-ply,Carlos Garelli,,Argentina,M,1971-09-24,M1,97.5,100,240,250,260,,127.5,135,-140,,-225,225,240,,635,260,135,240,1
SBD,Multi-ply,Marcelo Escobedo,,Argentina,M,1969-11-12,M1,108.5,110,200,220,240,,180,-192.5,192.5,,210,225,235,,667.5,240,192.5,235,1
SBD,Multi-ply,Victor Quispe,,Argentina,M,1970-09-27,M1,102.1,110,190,210,240,,175,180,185,,190,212.5,-225,,637.5,240,185,212.5,2
SBD,Multi-ply,Gonzalo Figueroa,,Argentina,M,1985-03-02,O,103.7,110,260,280,-300,,160,-175,-175,,230,,,,670,280,160,230,1
SBD,Multi-ply,Brian Johnston,,Canada,M,1964-10-22,M2,102.8,110,320,360,-412,,190,205,,,225,,,,790,360,205,225,1
SBD,Multi-ply,Sergio Devich,,Argentina,M,1950-01-29,M5,109.9,110,130,-160,160,,115,125,-130,,140,155,-165,,440,160,125,155,1
SBD,Multi-ply,Eric Bar,,France,M,1975-07-19,O,123.5,125,212.5,230,245,,205,-210,210,,240,260,-265,,715,245,210,260,1
SBD,Multi-ply,Luciano Newton Pereira,,Brazil,M,1979-12-29,O,,140,,,,,,,,,,,,,,,,,DQ
SBD,Multi-ply,Tim O'Shea,,Australia,M,1978-05-10,O,136.5,140,340,-370,-370,,220,-232.5,-232.5,,260,-290,,,820,340,220,260,2
SBD,Multi-ply,Chris Janek,37,USA,M,,O,139.5,140,480,-502.5,-512.5,,345,,,,352.5,385,-410,,1210,480,345,385,1
SBD,Multi-ply,Jorge Alvarez,,Argentina,M,1961-04-20,M3,157,140+,150,172.5,,,100,-110,-110,,142.5,172.5,,,445,172.5,100,172.5,1
SBD,Wraps,Danyelle De Jesus Mota Franco,,Brazil,F,1999-09-15,T1,46.4,48,50,65,80,,25,-32.5,-35,-35,55,65,77.5,80,182.5,80,25,77.5,1
SBD,Wraps,Lil Bianchi Kimble,,South Africa,F,1984-04-17,O,46.8,48,75,85,90,,47.5,52.5,-55,,115,130,137.5,-140,280,90,52.5,137.5,1
SBD,Wraps,Belinda Ryder,,Australia,F,1970-11-08,O,50.6,52,95,102.5,-110,,-55,55,-57.5,,112.5,120,-130,,277.5,102.5,55,120,1
SBD,Wraps,Bettina Razzouki-Korkis,,Poland,F,1965-08-28,M2,51.6,52,-80,-80,80,,-55,57.5,60.5,,90,100.5,105,,245,80,60.5,105,1
SBD,Wraps,Slávka Ratvajská,,Slovakia,F,1973-12-31,M1,,56,,,,,,,,,,,,,,,,,DQ
SBD,Wraps,Marisa De Paiva Pereira Gonçalves,,Brazil,F,1990-06-29,O,55.7,56,85,95,100,,45,50,-55,,115,125,132.5,,282.5,100,50,132.5,1
SBD,Wraps,Debbie McAlpine,,South Africa,F,1976-10-15,O,55.9,56,100,107.5,-115,,52.5,55,-57.5,-57.5,102.5,105,-110,111,267.5,107.5,55,105,1
SBD,Wraps,Mariel Bertona,,Argentina,F,1971-07-03,M1,54.8,56,135,142.5,-145,,75,80,85,,135,145,150.5,155,377.5,142.5,85,150.5,1
SBD,Wraps,Suzzanna Hellena Peixoto,,Brazil,F,1998-01-31,T2,58.5,60,80,90,110,,45,-47.5,47.5,,130,135,140,-142.5,297.5,110,47.5,140,1
SBD,Wraps,Laura Aylén Castrilli,,Argentina,F,1997-04-30,T2,57,60,60,75,-85,,30,40,-45,,80,100,105,,220,75,40,105,2
SBD,Wraps,Fiamma Costa,,Argentina,F,1991-07-18,J,58.8,60,110,122.5,-135,,60,65,71,,135,155.5,165,,358.5,122.5,71,165,1
SBD,Wraps,Natalia Perez,,Argentina,F,1993-03-23,J,58.4,60,100,110,-120,,47.5,-52.5,52.5,,110,-115,-115,,272.5,110,52.5,110,2
SBD,Wraps,Heidi De Mendoca,,South Africa,F,1976-04-17,O,59,60,90,-97.5,100,,50,-55,-55,,155,160,165,167,315,100,50,165,1
SBD,Wraps,Rosenilda Oliveira Bonfim,,Brazil,F,1979-03-20,O,,60,,,,,,,,,,,,,,,,,DQ
SBD,Wraps,Lucila Rabasa,,Argentina,F,1986-12-05,O,58.7,60,140,145,150,155,80,90,97.5,,-125,125,,,372.5,150,97.5,125,1
SBD,Wraps,María Izetta,,Argentina,F,1977-12-05,O,,60,,,,,,,,,,,,,,,,,DQ
SBD,Wraps,Vicki Jewson,,Australia,F,1972-03-13,O,59.3,60,120,130,-135,,65,70,-72.5,,145,-155,,,345,130,70,145,2
SBD,Wraps,Blanka Hronová,,Czechia,F,1969-07-27,M2,56.3,60,40,45,50,,30,35,-37.5,,65,70,75,,160,50,35,75,1
SBD,Wraps,Carla Pádua Garcia,,Brazil,F,2000-03-14,T1,,67.5,,,,,,,,,,,,,,,,,DQ
SBD,Wraps,Caitlin Ross,,Australia,F,1993-03-02,J,66.4,67.5,80,95,-105,,45,55,60,,115,-130,-130,,270,95,60,115,2
SBD,Wraps,Tierney Molenaar,,Australia,F,1991-11-22,J,67.4,67.5,120,130,-135,,70,75,-77.5,,140,147.5,-150,,352.5,130,75,147.5,1
SBD,Wraps,Maraisa Proença Moral,,Brazil,F,1985-04-12,O,61,67.5,30,40,45,,42.5,45,-50,,85,97.5,105,,195,45,45,105,3
SBD,Wraps,Aida Agüero,,Argentina,F,1961-09-15,O,66.2,67.5,180,-193,-193,,120,127.5,132.5,,180,190,-195,,502.5,180,132.5,190,1
SBD,Wraps,María De Las Nieves Punalef,,Argentina,F,1986-09-07,O,,67.5,,,,,,,,,,,,,,,,,DQ
SBD,Wraps,Michele Silva Batista,,Brazil,F,1989-09-21,O,66.3,67.5,115,130,140,,65,75,-80,,130,140,150,,365,140,75,150,2
SBD,Wraps,Zoe Bibbings,,South Africa,F,1972-06-12,M1,67,67.5,140,-145,-145,-145,60,67.5,70,,125,135,-143,-143,345,140,70,135,1
SBD,Wraps,Sonja Stefanie Krüger,,South Africa,F,1967-01-06,M2,63,67.5,85,90,92.5,,60,62.5,-65,-65,135,145,150,-155,305,92.5,62.5,150,1
SBD,Wraps,Emily Norce,,Brazil,F,2000-07-07,T1,71.6,75,40,50,55,,25,32.5,-35,,80,85,90,100,177.5,55,32.5,90,1
SBD,Wraps,Adriana Plaza,,Argentina,F,1992-03-03,J,73,75,95,-105,-110,,45,50,-52.5,,100,115,130,,275,95,50,130,1
SBD,Wraps,Estela Peña,,Argentina,F,1990-04-10,O,73.5,75,160,200,220,-240,95,102.5,-105,,190,210.5,215,-220,537.5,220,102.5,215,1
SBD,Wraps,Melina Andrea Silva,,Argentina,F,1986-04-26,O,,75,,,,,,,,,,,,,,,,,DQ
SBD,Wraps,Courtney Johnston,,Canada,F,1981-08-22,O,71.9,75,112.5,120,122.5,,62.5,67.5,70,-70.5,150,160,-165,,352.5,122.5,70,160,1
SBD,Wraps,Leticia Bertotto,,Argentina,F,1971-09-18,M1,74.3,75,120,135,-150,,65,75,82.5,,150,162.5,170,,387.5,135,82.5,170,1
SBD,Wraps,Rosangela Mendes,,Brazil,F,1965-01-01,M2,69.5,75,80,90,-100,100,-70,70,75,-80,130,-140,140,,305,90,75,140,1
SBD,Wraps,Michaela Spadacini,,Brazil,F,1997-07-14,T2,68.5,75,-85,85,-100,,45,-47.5,-47.5,,100,110,-120,,240,85,45,110,1
SBD,Wraps,Micaela Symouang,,Argentina,F,1989-05-20,O,81.3,82.5,130,-145,-160,,47.5,-62.5,-65,,155,162.5,170,,347.5,130,47.5,170,3
SBD,Wraps,Vallerie Sweeney,,South Africa,F,1984-12-28,O,80.5,82.5,100,110,120,,65,70,72.5,,155,160,165,,357.5,120,72.5,165,2
SBD,Wraps,Larissa Oliveira,,Brazil,F,1990-09-04,O,80.3,82.5,-175,175,185,-195,70,80,-85,,180,190,-195,,455,185,80,190,1
SBD,Wraps,Rosa Floriano,,Argentina,F,1973-02-04,M1,78,82.5,140,145,150,160.5,100,110,115,,140,150,170,,435,150,115,170,1
SBD,Wraps,Artemira Sobrinho,,Brazil,F,1967-10-23,M2,77,82.5,175,190,200,-210,80,90,-100,,185,195,-200,,485,200,90,195,1
SBD,Wraps,Margaret Estabrooks,,Canada,F,1947-08-19,M6,79.9,82.5,45,47.5,52.5,,35,37.5,42,,75,82.5,85,,179.5,52.5,42,85,1
SBD,Wraps,Débora Ester,,Brazil,F,1982-01-23,O,,90,,,,,,,,,,,,,,,,,DQ
SBD,Wraps,Karyna Carosini,,Argentina,F,1978-12-03,O,88.5,90,160,170,170.5,-180,70,75,80,-82.5,120,130,140,,390,170.5,80,140,1
SBD,Wraps,Stella Pinto,,Argentina,F,1983-11-28,O,,90,,,,,,,,,,,,,,,,,DQ
SBD,Wraps,Mariela Ortellado,,Argentina,F,1985-07-10,O,101.5,90+,140,150,-165,,80,90.5,-95,,140,185.5,187.5,,427.5,150,90.5,187.5,1
SBD,Wraps,Pavel Balážik,,Slovakia,M,1979-08-23,O,,56,,,,,,,,,,,,,,,,,DQ
SBD,Wraps,Pablo Tafarel Sanaioti Silva,,Brazil,M,1988-11-05,O,55.3,56,120,130,140,,80,85,-93,,160,170,-172.5,,395,140,85,170,1
SBD,Wraps,Vicente Pereira Magalhães,,Brazil,M,1996-05-28,T3,,60,,,,,,,,,,,,,,,,,DQ
SBD,Wraps,Matías Buffarini,,Argentina,M,1990-12-13,J,60,60,120,135,145,,70,98,-100,,130,-175.5,-175.5,,372.5,145,98,130,1
SBD,Wraps,Davi Micael de Oliveira,,Brazil,M,1999-06-15,T1,64.2,67.5,-130,-140,140,,-70,70,-80,,130,-140,140,,350,140,70,140,1
SBD,Wraps,Jorge Abud Neto,,Brazil,M,1997-08-08,T2,,67.5,,,,,,,,,,,,,,,,,DQ
SBD,Wraps,Shahien Essakjee,,South Africa,M,1993-07-12,J,66.5,67.5,160,170,180,,100,110,-115,,-200,200,212.5,,502.5,180,110,212.5,1
SBD,Wraps,Guillermo Rodriguez,,Argentina,M,1977-03-18,O,65,67.5,225,237.5,250,,132.5,150,-160.5,,195,212.5,-220,,612.5,250,150,212.5,1
SBD,Wraps,Pablo Cornejo,,Argentina,M,1988-07-25,O,66.8,67.5,180,-190,-195,,110,120,-130,,170,180,-195,,480,180,120,180,1
SBD,Wraps,Steffen Burkhar,,Germany,M,1950-05-29,M5,,67.5,,,,,,,,,,,,,,,,,DQ
SBD,Wraps,Henrique Seabra Da Silva,,Brazil,M,1980-11-17,O,74.5,75,100,115,-125,,80,90,-100,,170,190,-200,,395,115,90,190,3
SBD,Wraps,Kaio Vinicius Barbosa Piva,,Brazil,M,2000-02-25,T1,73.1,75,25,40,55,,25,-37.5,-37.5,,80,,,,160,55,25,80,1
SBD,Wraps,Denner Seabra Martins,,Brazil,M,1998-06-14,T2,72,75,110,120,130,,80,90,92.5,,160,180,185,,407.5,130,92.5,185,1
SBD,Wraps,Kevin Penailillio,,Argentina,M,1995-07-10,T3,,75,,,,,,,,,,,,,,,,,DQ
SBD,Wraps,Enzo Lechman,,Argentina,M,1994-10-04,T3,73.2,75,140,145,-150,,95,102.5,-110,,170,180,-182.5,,427.5,145,102.5,180,1
SBD,Wraps,David Zerpa,,Argentina,M,1991-02-11,J,,75,,,,,,,,,,,,,,,,,DQ
SBD,Wraps,Ezequiel Fernandez Uguet,,Argentina,M,1993-03-03,J,74.1,75,150,170,180,,95,105,-110,,170,185,200,,485,180,105,200,1
SBD,Wraps,Michael Jordan Santos Da Mata,,Brazil,M,1993-07-11,J,73.1,75,-130,-130,130,,90,100,105,,160,170,200,,435,130,105,200,2
SBD,Wraps,Juan Sosa,,Argentina,M,1981-03-24,O,74.4,75,195,205,212,,135,145,150,,215,222.5,227.5,,589.5,212,150,227.5,1
SBD,Wraps,Pablo Esquivel,,Argentina,M,1977-12-07,O,,75,,,,,,,,,,,,,,,,,DQ
SBD,Wraps,Martín San Felice,,Argentina,M,1985-04-08,O,,75,,,,,,,,,,,,,,,,,DQ
SBD,Wraps,Les Grills,,Australia,M,1988-04-13,O,74.3,75,232.5,250.5,-260,,162.5,-175,175,,250,-261.5,,,675,250.5,175,250,1
SBD,Wraps,Jose Luis Ferrer,,Argentina,M,1965-05-10,M2,68.7,75,130,150,165,,100,110,-117,,130,,,,405,165,110,130,2
SBD,Wraps,Sergei Trukhnin,,Russia,M,1965-08-10,M2,72.1,75,190,210,220,,120,130,141,,180,200,-213,,561,220,141,200,1
SBD,Wraps,Adriano DaCosta,,France,M,1963-01-13,M3,74.4,75,210,230,,,130,,,,212.5,220,,,580,230,130,220,1
SBD,Wraps,Guylhem Feraud,,France,M,1945-01-25,M6,73.5,75,100,115,125,,100,113,,,160,-170,,,397.5,125,113,160,1
SBD,Wraps,Facundo Symouang,,Argentina,M,1998-11-18,T1,80.8,82.5,200,210,220,225,100,105,110.5,115,180,190,200,207.5,530,220,110.5,200,1
SBD,Wraps,Facundo Piermatei,,Argentina,M,1997-03-09,T2,78.9,82.5,170,175,-180,,90,100,-102.5,,180,190,205,,480,175,100,205,1
SBD,Wraps,José Torino,,Argentina,M,1995-10-16,T3,,82.5,,,,,,,,,,,,,,,,,DQ
SBD,Wraps,Matheus Silva Queiroz,,Brazil,M,1995-10-16,T3,77.6,82.5,160,175,190,,100,110,-134,,160,-175,,,460,190,110,160,1
SBD,Wraps,Diego Stauro,,Argentina,M,1993-01-27,J,81.8,82.5,260,270,-275,,120,130,137.5,,230,242.5,247.5,,655,270,137.5,247.5,1
SBD,Wraps,Fabio Marqueti Gomes,,Brazil,M,1978-12-30,O,78.8,82.5,130,140,-150,,80,-90,90,,160,180,-185,,410,140,90,180,4
SBD,Wraps,Júlio Cesar Ferraz,,Brazil,M,1982-01-01,O,,82.5,,,,,,,,,,,,,,,,,DQ
SBD,Wraps,Jaco De Waal,,South Africa,M,1989-03-17,O,81.8,82.5,277.5,300,-312.5,-312.5,172.5,187.5,200,,280,305,315,,815,300,200,315,1
SBD,Wraps,Fernando Gonzaga Lorenzo,,Brazil,M,1980-07-27,O,80.2,82.5,170,-210,210,,110,120,135,,170,210,-230,,555,210,135,210,3
SBD,Wraps,Marcos Velozo,,Argentina,M,1977-04-24,O,81.1,82.5,245,-260,265,,172.5,180,185,,240,250,260,,710,265,185,260,1
SBD,Wraps,Luis Díaz,,Argentina,M,1980-09-13,O,82,82.5,-200,-200,200,,100,115,125,,220,240,255,,580,200,125,255,2
SBD,Wraps,Lee Powell,,Canada,M,1984-03-24,O,81.2,82.5,180,197,202.5,,110,122.5,127.5,,230,240,-250,,570,202.5,127.5,240,2
SBD,Wraps,Eduardo Cespedes,,Argentina,M,1969-09-12,M2,,82.5,,,,,,,,,,,,,,,,,DQ
SBD,Wraps,Colin Mullaney,,Canada,M,1959-09-15,M4,80.1,82.5,140,155,160,,100,110,115.5,,150,175,180,,455,160,115.5,180,1
SBD,Wraps,José Augusto Lanzi,,Brazil,M,1956-09-25,M4,,82.5,,,,,,,,,,,,,,,,,DQ
SBD,Wraps,Frédéric Parmentier,,France,M,1976-08-02,O,79.1,82.5,180,200,220,,110,120,127.5,,180,205,-222.5,,552.5,220,127.5,205,3
SBD,Wraps,Emiliano Acosta,,Argentina,M,1946-11-12,M6,77.8,82.5,-140,140,160,,110,-115,115,,160,170,180,,455,160,115,180,1
SBD,Wraps,Birchmans Pereira,,Canada,M,1946-08-13,M6,76.7,82.5,145,165,172,180.5,52.5,60,65,,192.5,202.5,205,,442.5,172,65,205,2
SBD,Wraps,Horacio Zoilo,,Argentina,M,1941-11-17,M7,77.9,82.5,100,-125,125,,105,120,130,,180,-190,-190,,435,125,130,180,1
SBD,Wraps,Vlastimil Šafařík,,Czechia,M,1998-09-16,T2,86,90,160,,,,105,,,,140,,,,405,160,105,140,1
SBD,Wraps,Stanislav Pryakhin,,Russia,M,1975-03-18,O,85.5,90,-260,-260,-260,,,,,,,,,,,,,,DQ
SBD,Wraps,Júlio César Da Silva,,Brazil,M,1990-07-21,O,,90,,,,,,,,,,,,,,,,,DQ
SBD,Wraps,Lucas Liljestrhom,,Argentina,M,1990-10-13,J,83,90,205,220,,,135,145,-152.5,,180,,,,545,220,145,180,1
SBD,Wraps,Presley Johnathas Tavares Magalhães,,Brazil,M,1990-11-22,J,88.7,90,-200,-220,-220,,,,,,,,,,,,,,DQ
SBD,Wraps,Valdemir Affini Da Silva,,Brazil,M,1977-02-19,O,88.5,90,200,-210,-210,,120,130,135,,210,220,-230,,555,200,135,220,3
SBD,Wraps,Marcos Cabezas,35,Argentina,M,,O,87.1,90,-240,240,-250,250,140,155,165,,200,220,-240,,625,240,165,220,2
SBD,Wraps,Sergio Salas,,Argentina,M,1968-12-17,O,,90,,,,,,,,,,,,,,,,,DQ
SBD,Wraps,Luis Fonzalida,,Argentina,M,1976-03-22,O,88,90,-190,-190,-190,,,,,,,,,,,,,,DQ
SBD,Wraps,José Augusto da Silva,,Brazil,M,1981-12-21,O,83.9,90,180,200,205,,130,140,-150,,200,210,-217.5,,555,205,140,210,1
SBD,Wraps,Imad Bahria,,France,M,1975-07-19,O,88,90,240,260,280,-290.5,125,132.5,137.5,,265,-285,-285,,682.5,280,137.5,265,1
SBD,Wraps,Daniel Sánchez,,Argentina,M,1973-11-21,M1,89.5,90,272.5,285,300,,140,160,172.5,,227.5,237.5,255.5,,727.5,300,172.5,255.5,1
SBD,Wraps,Ismael Luna,,Argentina,M,1970-09-15,M1,,90,,,,,,,,,,,,,,,,,DQ
SBD,Wraps,Alberto Carlos Seabra Norce,,Brazil,M,1969-08-08,M2,86.3,90,110,117.5,120,,100,110,,,160,,,,390,120,110,160,2
SBD,Wraps,Gérard Ivars,,France,M,1966-07-07,M2,87.2,90,210,220,231.5,,110,115,-120,,200,210,220,,566.5,231.5,115,220,1
SBD,Wraps,Franciszek Szabluk,,Poland,M,1956-09-17,M4,,90,,,,,,,,,,,,,,,,,DQ
SBD,Wraps,Hernan Bedacarratz,,Argentina,M,1954-10-06,M4,87.1,90,150,160,-190,,100,110,,,160,180,-200,,450,160,110,180,1
SBD,Wraps,Antônio Marcos Xavier Junior,,Brazil,M,1995-07-06,T3,,100,,,,,,,,,,,,,,,,,DQ
SBD,Wraps,Lucas Quitanas,,Argentina,M,1994-11-01,T3,,100,,,,,,,,,,,,,,,,,DQ
SBD,Wraps,Dione César Teodoro,,Brazil,M,1992-01-12,J,95,100,190,210,-225,,140,-150,150,,210,-230,-230,,570,210,150,210,2
SBD,Wraps,Martín Muñoz #1,,Argentina,M,1991-07-20,J,98.1,100,290.5,320,340,-360,-175,182.5,190.5,-195,230,250,270,,800,340,190.5,270,1
SBD,Wraps,Murilo Daniel Dos Santos,,Brazil,M,1985-11-14,O,,100,,,,,,,,,,,,,,,,,DQ
SBD,Wraps,Jose Albornoz,,Argentina,M,1977-09-24,O,99.2,100,270,280,290,,160,165,-170,,295,300,,,755,290,165,300,1
SBD,Wraps,Marcelo Gatica,,Argentina,M,1981-12-15,O,99,100,250,-260,260,,140,-155,-155,,230,240,250,,650,260,140,250,2
SBD,Wraps,Curtis McDonald,,USA,M,1987-10-19,O,99.5,100,285,307.5,317.5,,180,190,195,,280,302.5,312.5,,825,317.5,195,312.5,1
SBD,Wraps,David Cleberson Seabra Piva,,Brazil,M,1981-01-19,O,97.5,100,140,,,,105,,,,210,230,-240,,475,140,105,230,2
SBD,Wraps,Ricky Goodyear,,Australia,M,1975-04-19,O,99.1,100,315,-325,-325,,200,210,-215,,300,-315,-315,,825,315,210,300,1
SBD,Wraps,Elcio Correa Leite,,Brazil,M,1976-04-26,O,99.3,100,200,220,-240,,150,160,-170,,200,220,-230,,600,220,160,220,2
SBD,Wraps,Gustavo Miño,,Argentina,M,1971-01-15,M1,94.4,100,220,227.5,235,,140,147.5,150,,220,235,-240,,620,235,150,235,1
SBD,Wraps,Walter Diaz #1,,Argentina,M,1973-07-03,M1,94.5,100,175,190,200,,140,155,160,,220,235,-240,,595,200,160,235,3
SBD,Wraps,Fabio Pardo,,Argentina,M,1968-09-08,M2,95.1,100,220,230,-237,,102.5,110,-112.5,,170,240,257.5,,597.5,230,110,257.5,1
SBD,Wraps,Ivan Giňovský,,Slovakia,M,1967-03-31,M2,95.7,100,175,210,230,,125,137.5,-142.5,,195,212.5,230,,597.5,230,137.5,230,1
SBD,Wraps,Sergio Gayoso,,Argentina,M,1961-04-17,M3,99.5,100,180,200,215,,130,142.5,-147.5,,200,225,235,,592.5,215,142.5,235,1
SBD,Wraps,Bachcevanidis Panajotis,,Czechia,M,1951-09-01,M5,99.3,100,90,105,,,90,-100,100,,130,140,,,345,105,100,140,1
SBD,Wraps,Gustavo Castro,,Argentina,M,1995-08-24,T3,,110,,,,,,,,,,,,,,,,,DQ
SBD,Wraps,Mohammed Dangor,,South Africa,M,1991-04-07,J,107.5,110,265,285,292.5,,170,185,-190,,300,315,330,-340,807.5,292.5,185,330,1
SBD,Wraps,Adriano Oliveira Torres,,Brazil,M,1985-02-28,O,108.3,110,-205,205,220,,125,-130,130,,250,265,-270,,615,220,130,265,3
SBD,Wraps,Alfredo Martín Rojas,,Argentina,M,1985-09-17,O,108.1,110,270,285,300,,140,155,-162.5,,260,290,-310,,745,300,155,290,1
SBD,Wraps,Pablo López,,Argentina,M,1980-09-15,O,106.5,110,200,220,240,,160,175,-180,,200,220,-240,,635,240,175,220,2
SBD,Wraps,Adriano Leal Farias,,Brazil,M,1973-01-10,M1,104.5,110,-200,200,220,,140,,,,220,230,240,,600,220,140,240,1
SBD,Wraps,Walter Morales,,Argentina,M,1972-06-04,M1,105.1,110,240,260,273,,160,180,187.5,-200.5,240,267.5,,,727.5,273,187.5,267.5,1
SBD,Wraps,Victor Quispe,,Argentina,M,1970-09-27,M1,,110,,,,,,,,,,,,,,,,,DQ
SBD,Wraps,Walter Britez,,Argentina,M,1968-07-18,M2,107.7,110,220,-240,250,,145,-150,-157.5,,237.5,252.5,262.5,,657.5,250,145,262.5,2
SBD,Wraps,Omar Cordoba,,Argentina,M,1966-02-07,M2,107.9,110,190,200,210,,145,-152.5,152.5,,190,215,220,,582.5,210,152.5,220,3
SBD,Wraps,Michal Šafařík,,Czechia,M,1967-01-14,M2,107.5,110,235,250,260,,145,-155,160,,235,250,265,,685,260,160,265,1
SBD,Wraps,Luboš Halenkovský,,Czechia,M,1959-12-27,M3,101.4,110,110,120,,,100,110,-115,,120,140,,,370,120,110,140,1
SBD,Wraps,Juan Domingo Pelozo,,Argentina,M,1954-06-21,M5,,110,,,,,,,,,,,,,,,,,DQ
SBD,Wraps,Jan Suda,,Czechia,M,1979-02-27,O,114.5,125,230,255,265,,165,175,-180,,255,275,-282.5,,715,265,175,275,1
SBD,Wraps,Dan Hurlin,,South Africa,M,1986-10-07,O,117.5,125,290,310,325,,180,190,200,,270,290,300,,825,325,200,300,1
SBD,Wraps,Andre Sweeney,,South Africa,M,1982-04-13,O,119.2,125,260,285,-295,,-175,175,180,,270,-300,-300,,735,285,180,270,2
SBD,Wraps,Timothy Agnew,,Canada,M,1987-05-15,O,123,125,160,-222.5,-225,,135,-150,-150,,160,200,-210,,495,160,135,200,3
SBD,Wraps,Jason Gillespie,,Australia,M,1972-09-25,M1,123,125,237.5,255,267.5,,167.5,180,187.5,,240,255,-265,,710,267.5,187.5,255,1
SBD,Wraps,Jan Kruger,,South Africa,M,1964-01-14,M3,123.5,125,272.5,295,-305,,182.5,195,-200,,285,305,-310,,795,295,195,305,1
SBD,Wraps,Luciano Delorenzi,,Argentina,M,1991-01-17,J,137.1,140,280,305.5,315,-330,145,157.5,-165,,240,265,277.5,,750,315,157.5,277.5,1
SBD,Wraps,Pablo Lucero,,Argentina,M,1985-03-26,O,134.9,140,210,225,-235,,110,120,-125,,190,210,-230,,555,225,120,210,2
SBD,Wraps,Marek Pivovarnik,,Slovakia,M,1984-10-23,O,126.2,140,210,225,235,,160,170,175,,240,250,-260,,660,235,175,250,1
SBD,Wraps,Fabricio Ubirajara Assis,,Brazil,M,1980-07-25,O,138.9,140,270,-300,-300,,190,200,205,,315,-325,,,790,270,205,315,1
SBD,Wraps,Guido Bonanni Neto,,Brazil,M,1992-04-16,J,152,140+,-300,-300,300,315,220,240,,,270,280,-300,,820,300,240,280,1
SBD,Wraps,Francisco Mansilla,,Argentina,M,1978-09-18,O,142.4,140+,282.5,-295,-295,,185,197.5,207.5,,240,265,-280,,755,282.5,207.5,265,1
SBD,Wraps,Zane Ison,,South Africa,M,1968-08-16,M2,141,140+,320,335,345,,190,-198,198,,240,-301,-301,,782.5,345,198,240,1
SBD,Wraps,Saksa Josef,,Slovakia,M,1985-06-05,O,127,140,,,,,,,,,,,,,,,,,DQ
