Division,WeightClassKg,Place,Name,Team,BodyweightKg,Best3SquatKg,Best3BenchKg,Best3DeadliftKg,TotalKg,Equipment,Event,Sex,BirthDate
Boys,51.71,1,Javier Aleman,Karnes City,51.71,142.88,86.18,154.22,383.29,Single-ply,SBD,M,
Boys,51.71,2,Brandon Bower,Seguin,50.53,61.23,43.09,79.38,183.7,Single-ply,SBD,M,
Boys,55.79,1,Reese Janda,Seguin,55.29,129.27,97.52,127.01,353.8,Single-ply,SBD,M,
Boys,59.87,1,Josh Soliz,Seguin,58.88,145.15,88.45,165.56,399.16,Single-ply,SBD,M,
Boys,59.87,2,Braxton Springer,Pleasanton,59.87,140.61,83.91,145.15,369.68,Single-ply,SBD,M,
Boys,59.87,3,Joe Lopez,Blanco,59.83,136.08,58.97,142.88,337.93,Single-ply,SBD,M,
Boys,59.87,DQ,Brandon Edgar,Karnes City,59.47,,,,,Single-ply,SBD,M,
Boys,67.13,1,Jesse John Guel,Pleasanton,66.72,183.7,102.06,190.51,476.27,Single-ply,SBD,M,
Boys,67.13,2,Aidan Flores,Seguin,65.45,163.29,102.06,190.51,455.86,Single-ply,SBD,M,
Boys,67.13,3,Jesus Guevara,Seguin,64.77,154.22,86.18,163.29,403.7,Single-ply,SBD,M,
Boys,67.13,4,Gilbert Salas,Karnes City,66.36,131.54,74.84,149.69,356.07,Single-ply,SBD,M,
Boys,67.13,5,Nick Fox,Blanco,66.68,113.4,65.77,124.74,303.91,Single-ply,SBD,M,
Boys,74.84,1,Harrison Gaenzel,Pleasanton,71.62,213.19,122.47,208.65,544.31,Single-ply,SBD,M,
Boys,74.84,2,Joel Salazar,Seguin,73.98,192.78,111.13,197.31,501.22,Single-ply,SBD,M,
Boys,74.84,3,Marc Flores,Blanco,70.17,195.04,120.2,170.1,485.34,Single-ply,SBD,M,
Boys,74.84,4,Michael Kroll,Karnes City,70.22,154.22,115.67,197.31,467.2,Single-ply,SBD,M,
Boys,74.84,5,Max Chessher,Pleasanton,72.71,172.37,97.52,183.7,453.59,Single-ply,SBD,M,
Boys,74.84,6,Lucas Villareal,Blanco,73.89,154.22,106.59,174.63,435.45,Single-ply,SBD,M,
Boys,74.84,DQ,Brandon Ruiz,Pleasanton,73.03,183.7,,,,Single-ply,SBD,M,
Boys,82.1,1,Jackson Cress,Blanco,80.42,188.24,129.27,195.04,512.56,Single-ply,SBD,M,
Boys,82.1,2,Michael Martinez,Seguin,81.69,190.51,127.01,195.04,512.56,Single-ply,SBD,M,
Boys,82.1,3,Luke Johnson,Blanco,76.16,158.76,104.33,167.83,430.91,Single-ply,SBD,M,
Boys,82.1,4,Marshall Homeyer,Karnes City,76.84,136.08,106.59,165.56,408.23,Single-ply,SBD,M,
Boys,82.1,5,Bennett Brock,Blanco,78.24,133.81,86.18,163.29,383.29,Single-ply,SBD,M,
Boys,82.1,6,Rhett Hodges,Karnes City,81.56,131.54,61.23,151.95,344.73,Single-ply,SBD,M,
Boys,89.81,1,John Leandro,Seguin,85.37,222.26,145.15,244.94,612.35,Single-ply,SBD,M,
Boys,89.81,2,D'onte Hector,Blanco,83.82,170.1,133.81,170.1,474,Single-ply,SBD,M,
Boys,89.81,3,Ivan Perez,Pleasanton,86.59,138.35,108.86,154.22,401.43,Single-ply,SBD,M,
Boys,89.81,4,Rowdy Topper,Blanco,86.91,136.08,92.99,145.15,374.21,Single-ply,SBD,M,
Boys,99.79,1,Santi Herrera,Seguin,93.8,217.72,136.08,222.26,576.06,Single-ply,SBD,M,
Boys,99.79,2,Steven Nava,Karnes City,96.57,224.53,124.74,215.46,564.72,Single-ply,SBD,M,
Boys,99.79,3,Aidan Garza,Karnes City,93.12,163.29,88.45,181.44,433.18,Single-ply,SBD,M,
Boys,99.79,4,Cole Tharp,Blanco,97.66,161.03,113.4,154.22,428.64,Single-ply,SBD,M,
Boys,109.77,1,DJ Nunez,Karnes City,108.59,226.8,129.27,229.06,585.13,Single-ply,SBD,M,
Boys,109.77,2,Solomon Barnoski,Karnes City,100.7,170.1,95.25,195.04,460.4,Single-ply,SBD,M,
Boys,109.77,3,Skylar Germany,Seguin,107.23,161.03,102.06,172.37,435.45,Single-ply,SBD,M,
Boys,109.77,4,Derek Lopez,Karnes City,103.69,154.22,83.91,149.69,387.82,Single-ply,SBD,M,
Boys,124.74,1,Daniel Jaimes,Blanco,116.71,229.06,117.93,213.19,560.19,Single-ply,SBD,M,
Boys,124.74,2,Marcus Tristan,Karnes City,124.6,183.7,108.86,161.03,453.59,Single-ply,SBD,M,
Boys,124.74,3,Gunner Moryl,Seguin,121.97,111.13,120.2,158.76,390.09,Single-ply,SBD,M,
Boys,139.71,1,Diego Anguiano,Pleasanton,138.57,238.14,142.88,197.31,578.33,Single-ply,SBD,M,
Boys,139.71,2,Diego Valdez,Pleasanton,130.86,226.8,154.22,188.24,569.26,Single-ply,SBD,M,
Boys,139.71+,1,Colton Graham,Seguin,152.54,102.06,56.7,111.13,269.89,Single-ply,SBD,M,
