Division,WeightClassKg,Place,Name,Team,BodyweightKg,Best3SquatKg,Best3BenchKg,Best3DeadliftKg,TotalKg,Equipment,Event,Sex
Boys,51.71,1,Stephen Mathison,Whitney,48.08,111.13,61.23,106.59,278.96,Single-ply,SBD,M
Boys,51.71,2,Mason Johnson,Gatesville,44.91,92.99,52.16,92.99,238.14,Single-ply,SBD,M
Boys,51.71,DQ,Zachary Callaway,Whitney,51.26,,,,,Single-ply,SBD,M
Boys,55.79,1,Fausto Rodriguez,West,54.43,167.83,92.99,181.44,442.25,Single-ply,SBD,M
Boys,55.79,2,Noah Pachicano,Taylor,53.98,149.69,90.72,165.56,405.97,Single-ply,SBD,M
Boys,55.79,3,Cameron Carpenter,McGregor,55.79,158.76,74.84,158.76,392.36,Single-ply,SBD,M
Boys,55.79,4,Alex Schaefer,Venus,55.34,142.88,70.31,151.95,365.14,Single-ply,SBD,M
Boys,55.79,5,Joe Guerra,Robinson,55.79,120.2,56.7,145.15,322.05,Single-ply,SBD,M
Boys,55.79,6,Eduardo Perez,Venus,55.79,120.2,68.04,129.27,317.51,Single-ply,SBD,M
Boys,55.79,7,Travis Potter,Gatesville,52.16,120.2,54.43,129.27,303.91,Single-ply,SBD,M
Boys,55.79,8,Cameron Buck,Venus,55.79,102.06,45.36,113.4,260.82,Single-ply,SBD,M
Boys,55.79,9,Joseph Saldivar,Groesbeck,54.88,83.91,45.36,127.01,256.28,Single-ply,SBD,M
Boys,55.79,DQ,Philip Sharp,Robinson,55.79,181.44,,,,Single-ply,SBD,M
Boys,,NS,Donovan McClane,Rosebud-Lott,,,,,,Single-ply,SBD,M
Boys,,NS,Patrick Lewis,Whitney,,,,,,Single-ply,SBD,M
Boys,59.87,1,Isaiah Mesa,Taylor,59.87,192.78,131.54,219.99,544.31,Single-ply,SBD,M
Boys,59.87,2,Bobby Hanson,Axtell,59.87,151.95,102.06,165.56,419.57,Single-ply,SBD,M
Boys,59.87,3,Alex Reynoso,West,59.42,145.15,86.18,183.7,415.04,Single-ply,SBD,M
Boys,59.87,4,Ian Howard,Robinson,58.06,133.81,63.5,129.27,326.59,Single-ply,SBD,M
Boys,59.87,DQ,Rodrigo Hernandez,Hillsboro,58.97,156.49,,,,Single-ply,SBD,M
Boys,59.87,DQ,Osvaldo Antunez,Hillsboro,59.87,,,,,Single-ply,SBD,M
Boys,59.87,DQ,Blake Ceballos,Rosebud-Lott,58.51,,,,,Single-ply,SBD,M
Boys,,NS,Manuel Suarez,Rosebud-Lott,,,,,,Single-ply,SBD,M
Boys,,NS,Stephen Leal,Taylor,,,,,,Single-ply,SBD,M
Boys,67.13,1,Lorenzo Sanchez,Taylor,66.68,226.8,120.2,233.6,580.6,Single-ply,SBD,M
Boys,67.13,2,Cory Sauer,Robinson,66.22,224.53,129.27,197.31,551.11,Single-ply,SBD,M
Boys,67.13,3,Dillon Daniel,Robinson,64.86,210.92,102.06,174.63,487.61,Single-ply,SBD,M
Boys,67.13,4,Chance Alvarez,Gatesville,66.68,176.9,113.4,195.04,485.34,Single-ply,SBD,M
Boys,67.13,5,Matthew Kocian,Taylor,67.13,183.7,97.52,183.7,464.93,Single-ply,SBD,M
Boys,67.13,6,Davin Carboni,Hillsboro,59.96,174.63,106.59,165.56,446.79,Single-ply,SBD,M
Boys,67.13,7,Oscar Manuel,Hillsboro,67.13,165.56,102.06,174.63,442.25,Single-ply,SBD,M
Boys,67.13,8,Josh Turner,McGregor,67.13,167.83,99.79,174.63,442.25,Single-ply,SBD,M
Boys,67.13,9,Xavier Fisher,Waco La Vega,65.32,170.1,81.65,170.1,421.84,Single-ply,SBD,M
Boys,67.13,10,Israel Castillo,Venus,63.05,158.76,74.84,174.63,408.23,Single-ply,SBD,M
Boys,67.13,11,David Barrerea,Venus,65.32,136.08,72.57,154.22,362.87,Single-ply,SBD,M
Boys,67.13,12,Jose Maldonado,Venus,65.32,136.08,74.84,151.95,362.87,Single-ply,SBD,M
Boys,67.13,13,Javier Trejo,Hillsboro,63.05,127.01,74.84,140.61,342.46,Single-ply,SBD,M
Boys,67.13,14,Traetin Turbriarte,Groesbeck,67.13,122.47,74.84,145.15,342.46,Single-ply,SBD,M
Boys,67.13,15,Josh Watson,Robinson,63.5,111.13,90.72,127.01,328.85,Single-ply,SBD,M
Boys,67.13,16,Jason Zarate,Centerville,62.6,102.06,68.04,133.81,303.91,Single-ply,SBD,M
Boys,67.13,DQ,Calvin Gunselman,Centerville,64.41,138.35,,,,Single-ply,SBD,M
Boys,,NS,Joshua Bryant,Waco La Vega,,,,,,Single-ply,SBD,M
Boys,,NS,Joseph Bryant,Waco La Vega,,,,,,Single-ply,SBD,M
Boys,,NS,Dalton Wiethorn,West,,,,,,Single-ply,SBD,M
Boys,,NS,Richard DelaRosa,Taylor,,,,,,Single-ply,SBD,M
Boys,,NS,Juan Ramirez,Taylor,,,,,,Single-ply,SBD,M
Boys,74.84,1,Daniel Hernandez,Taylor,74.84,256.28,129.27,247.21,632.76,Single-ply,SBD,M
Boys,74.84,2,Devyn Hebbe,Axtell,74.39,274.42,122.47,233.6,630.49,Single-ply,SBD,M
Boys,74.84,3,Sergio Villareal,Centerville,71.67,213.19,120.2,195.04,528.44,Single-ply,SBD,M
Boys,74.84,4,Emanuel Silva,Venus,74.39,213.19,102.06,195.04,510.29,Single-ply,SBD,M
Boys,74.84,5,Isaiah Houston,Robinson,68.49,192.78,90.72,183.7,467.2,Single-ply,SBD,M
Boys,74.84,6,Nathan Gerik,West,69.85,181.44,104.33,172.37,458.13,Single-ply,SBD,M
Boys,74.84,7,Christian Yannis,Taylor,71.21,165.56,86.18,195.04,446.79,Single-ply,SBD,M
Boys,74.84,8,Mariano Perez,West,73.48,181.44,104.33,156.49,442.25,Single-ply,SBD,M
Boys,74.84,9,Bailey Janisch,Gatesville,74.39,172.37,106.59,156.49,435.45,Single-ply,SBD,M
Boys,74.84,10,River Stone,Venus,70.31,174.63,63.5,195.04,433.18,Single-ply,SBD,M
Boys,74.84,11,Dalton Baker,West,72.12,161.03,97.52,174.63,433.18,Single-ply,SBD,M
Boys,74.84,12,Armando Castaneda,Hillsboro,67.59,149.69,106.59,167.83,424.11,Single-ply,SBD,M
Boys,74.84,13,Dusty Roberts,Groesbeck,74.84,167.83,77.11,170.1,415.04,Single-ply,SBD,M
Boys,74.84,14,Ruben Jimenez,Groesbeck,73.03,181.44,90.72,140.61,412.77,Single-ply,SBD,M
Boys,74.84,15,Armani Johnson,Robinson,71.67,154.22,70.31,167.83,392.36,Single-ply,SBD,M
Boys,74.84,16,Ronnie Macedo,McGregor,73.03,158.76,74.84,158.76,392.36,Single-ply,SBD,M
Boys,74.84,17,Noah Jenkins,McGregor,74.84,151.95,74.84,158.76,385.55,Single-ply,SBD,M
Boys,74.84,DQ,Jacob Williams,Gatesville,73.48,170.1,,,,Single-ply,SBD,M
Boys,74.84,DQ,Jaxon Key,Robinson,73.03,,,,,Single-ply,SBD,M
Boys,,NS,Zachary Childs,Rosebud-Lott,,,,,,Single-ply,SBD,M
Boys,,NS,Ernie Vega,Rosebud-Lott,,,,,,Single-ply,SBD,M
Boys,,NS,Hugh Shelton,Taylor,,,,,,Single-ply,SBD,M
Boys,82.1,1,Everado Araujo,Taylor,79.83,267.62,147.42,247.21,662.24,Single-ply,SBD,M
Boys,82.1,2,Jesus Oranday,Taylor,79.38,254.01,129.27,217.72,601.01,Single-ply,SBD,M
Boys,82.1,3,Myles McGruder,Groesbeck,81.65,204.12,104.33,206.38,514.83,Single-ply,SBD,M
Boys,82.1,4,Abraham Sanchez,Centerville,75.3,163.29,124.74,183.7,471.74,Single-ply,SBD,M
Boys,82.1,5,Lance Sembera,West,81.19,172.37,106.59,151.95,430.91,Single-ply,SBD,M
Boys,82.1,6,Jacob Bernal,McGregor,81.19,158.76,106.59,142.88,408.23,Single-ply,SBD,M
Boys,82.1,7,Rolando Ramirez,Hillsboro,82.1,149.69,102.06,149.69,401.43,Single-ply,SBD,M
Boys,82.1,8,Kevin Montoya,Groesbeck,77.56,151.95,88.45,154.22,394.63,Single-ply,SBD,M
Boys,82.1,9,António Sotero,Hillsboro,81.65,145.15,86.18,151.95,383.29,Single-ply,SBD,M
Boys,82.1,10,Cooper Wagenschein,Robinson,77.56,147.42,86.18,147.42,381.02,Single-ply,SBD,M
Boys,82.1,11,Tate Sehon,Robinson,80.74,131.54,74.84,117.93,324.32,Single-ply,SBD,M
Boys,82.1,DQ,Malcolm Johnson,Rosebud-Lott,78.47,,,,,Single-ply,SBD,M
Boys,82.1,DQ,Quinn Dunn,Rosebud-Lott,77.11,,,,,Single-ply,SBD,M
Boys,82.1,DQ,Fernando Fernandez,Chilton,80.74,190.51,,,,Single-ply,SBD,M
Boys,82.1,DQ,Tyler Lloyd #3,Groesbeck,78.02,106.59,58.97,,,Single-ply,SBD,M
Boys,82.1,DQ,Benny Shurmur,Gatesville,79.83,172.37,,,,Single-ply,SBD,M
Boys,,NS,Randy Sandoval,McGregor,,,,,,Single-ply,SBD,M
Boys,,NS,Brendon Stockton,Whitney,,,,,,Single-ply,SBD,M
Boys,89.81,1,Chris Hatch,Taylor,86.64,242.67,165.56,235.87,644.1,Single-ply,SBD,M
Boys,89.81,2,Alex Parsons,McGregor,89.36,249.48,127.01,226.8,603.28,Single-ply,SBD,M
Boys,89.81,3,Oscar Gomez,Hillsboro,84.37,188.24,131.54,206.38,526.17,Single-ply,SBD,M
Boys,89.81,4,Matthew Freeman,Venus,89.36,208.65,99.79,199.58,508.02,Single-ply,SBD,M
Boys,89.81,5,Aaron Benitez,McGregor,88.9,215.46,117.93,167.83,501.22,Single-ply,SBD,M
Boys,89.81,6,Derian Guzman,Centerville,87.54,183.7,120.2,183.7,487.61,Single-ply,SBD,M
Boys,89.81,7,Ben Roberson,Robinson,83.91,185.97,108.86,181.44,476.27,Single-ply,SBD,M
Boys,89.81,8,Jose Hernandez #7,Centerville,83.01,172.37,92.99,197.31,462.66,Single-ply,SBD,M
Boys,89.81,9,Dane Mace,McGregor,84.37,170.1,108.86,167.83,446.79,Single-ply,SBD,M
Boys,89.81,10,Nick Barrios,West,89.36,174.63,92.99,161.03,428.64,Single-ply,SBD,M
Boys,89.81,11,Brady King,Robinson,87.09,190.51,97.52,136.08,424.11,Single-ply,SBD,M
Boys,89.81,12,Ethan Johnson #2,Rosebud-Lott,84.37,129.27,86.18,163.29,378.75,Single-ply,SBD,M
Boys,89.81,13,Cade Lewis,Venus,88,217.72,,,217.72,Single-ply,S,M
Boys,89.81,DQ,Trey Lewis,Venus,88.9,,,,,Single-ply,SBD,M
Boys,89.81,DQ,Martin Navarrete,Taylor,85.73,158.76,88.45,,,Single-ply,SBD,M
Boys,89.81,DQ,Cameron Williams #6,Centerville,84.82,,,,,Single-ply,SBD,M
Boys,,NS,Brandon Madison,Centerville,,,,,,Single-ply,SBD,M
Boys,,NS,Colton Hanacik,Taylor,,,,,,Single-ply,SBD,M
Boys,,NS,Timothy Thomas,Whitney,,,,,,Single-ply,SBD,M
Boys,,NS,Ryan Hilty,Whitney,,,,,,Single-ply,SBD,M
Boys,,NS,Matt Sparks,West,,,,,,Single-ply,SBD,M
Boys,,NS,Calam Earley,Centerville,,,,,,Single-ply,SBD,M
Boys,99.79,1,Jason Marroquin,Axtell,99.79,244.94,136.08,249.48,630.49,Single-ply,SBD,M
Boys,99.79,2,Lupe Silva,Venus,97.07,238.14,136.08,224.53,598.74,Single-ply,SBD,M
Boys,99.79,3,Daniel Fraire,West,98.43,263.08,147.42,185.97,596.47,Single-ply,SBD,M
Boys,99.79,4,Jose Alcantar,Venus,92.08,199.58,108.86,183.7,492.15,Single-ply,SBD,M
Boys,99.79,5,Travis Pilgrim,Robinson,96.62,181.44,111.13,190.51,483.08,Single-ply,SBD,M
Boys,99.79,6,Korey Grisham,Centerville,93.89,183.7,95.25,183.7,462.66,Single-ply,SBD,M
Boys,99.79,7,Nathan Red Elk,Robinson,95.25,185.97,108.86,165.56,460.4,Single-ply,SBD,M
Boys,99.79,8,Cooper McCauley,McGregor,95.71,183.7,92.99,183.7,460.4,Single-ply,SBD,M
Boys,99.79,9,Justin Wardlow,Whitney,90.72,170.1,108.86,151.95,430.91,Single-ply,SBD,M
Boys,99.79,10,Connor Laughrin,Gatesville,90.26,156.49,83.91,138.35,378.75,Single-ply,SBD,M
Boys,99.79,11,Jacob Snoddy,Gatesville,95.71,124.74,92.99,142.88,360.61,Single-ply,SBD,M
Boys,,NS,Sam Jackson #1,Gatesville,,,,,,Single-ply,SBD,M
Boys,,NS,Daniel Byrd #2,Centerville,,,,,,Single-ply,SBD,M
Boys,,NS,Trace Lopez,Taylor,,,,,,Single-ply,SBD,M
Boys,,NS,Tanner Sparks,West,,,,,,Single-ply,SBD,M
Boys,109.77,1,Eric Marton,Axtell,103.42,272.16,138.35,233.6,644.1,Single-ply,SBD,M
Boys,109.77,2,Casey Allison,Waco La Vega,108.86,183.7,129.27,195.04,508.02,Single-ply,SBD,M
Boys,109.77,3,Michael Simmons,Waco La Vega,101.6,201.85,106.59,172.37,480.81,Single-ply,SBD,M
Boys,109.77,4,Ryan Hardin,Groesbeck,105.69,181.44,90.72,185.97,458.13,Single-ply,SBD,M
Boys,109.77,5,Dawson Brown,McGregor,100.24,167.83,104.33,163.29,435.45,Single-ply,SBD,M
Boys,109.77,6,Clayton Herridge,Groesbeck,101.15,163.29,102.06,149.69,415.04,Single-ply,SBD,M
Boys,109.77,7,Blake Odenbaugh,Rosebud-Lott,107.05,170.1,102.06,136.08,408.23,Single-ply,SBD,M
Boys,109.77,8,Ronnie Sebock,Robinson,107.5,181.44,95.25,129.27,405.97,Single-ply,SBD,M
Boys,109.77,9,Gabriel Gongora,Waco La Vega,105.23,151.95,79.38,149.69,381.02,Single-ply,SBD,M
Boys,109.77,10,Trace Snyder,Robinson,107.5,145.15,68.04,149.69,362.87,Single-ply,SBD,M
Boys,,NS,Elijah Cummings,Whitney,,,,,,Single-ply,SBD,M
Boys,124.74,1,Paul Dominguez,Taylor,110.22,337.93,192.78,238.14,768.84,Single-ply,SBD,M
Boys,124.74,2,Brandon Taylor,Gatesville,110.68,263.08,145.15,258.55,666.78,Single-ply,SBD,M
Boys,124.74,3,Chris Bullington,Gatesville,115.21,272.16,156.49,204.12,632.76,Single-ply,SBD,M
Boys,124.74,4,Isaias Hernandez,Hillsboro,121.56,260.82,131.54,240.4,632.76,Single-ply,SBD,M
Boys,124.74,5,Joe Fallwell,Whitney,122.02,204.12,129.27,210.92,544.31,Single-ply,SBD,M
Boys,124.74,6,Jim Hitchcock,Gatesville,115.67,188.24,104.33,174.63,467.2,Single-ply,SBD,M
Boys,124.74,7,Travis Ferrare,Hillsboro,113.85,181.44,106.59,172.37,460.4,Single-ply,SBD,M
Boys,124.74,8,DJ Roberts,Groesbeck,117.48,142.88,88.45,154.22,385.55,Single-ply,SBD,M
Boys,124.74,DQ,Crispin Salinas,Chilton,123.83,222.26,108.86,,,Single-ply,SBD,M
Boys,,NS,Bailey Adair,Gatesville,,,,,,Single-ply,SBD,M
Boys,124.74+,1,Jordan Rivera,Waco La Vega,132.45,317.51,195.04,240.4,752.96,Single-ply,SBD,M
Boys,124.74+,2,David Garcia,Venus,140.16,276.69,183.7,226.8,687.19,Single-ply,SBD,M
Boys,124.74+,3,Connor Barnett,Robinson,144.24,272.16,167.83,226.8,666.78,Single-ply,SBD,M
Boys,124.74+,4,Traylon Berry,Waco La Vega,139.25,272.16,142.88,217.72,632.76,Single-ply,SBD,M
Boys,124.74+,5,Jairo Rodriguez,Waco La Vega,125.19,226.8,129.27,213.19,569.26,Single-ply,SBD,M
Boys,124.74+,6,Jorge Tapia,Waco La Vega,127.91,249.48,120.2,165.56,535.24,Single-ply,SBD,M
Boys,124.74+,7,Jacob Villa,Robinson,131.09,219.99,131.54,170.1,521.63,Single-ply,SBD,M
Boys,,NS,Jose Vega,Rosebud-Lott,,,,,,Single-ply,SBD,M
