Place,WeightClassKg,Name,CyrillicName,BirthDate,Sex,Event,Equipment,Division,Tested,BodyweightKg,Squat1Kg,Squat2Kg,Squat3Kg,Squat4Kg,Best3SquatKg,Bench1Kg,Bench2Kg,Bench3Kg,Bench4Kg,Best3BenchKg,Deadlift1Kg,Deadlift2Kg,Deadlift3Kg,Deadlift4Kg,Best3DeadliftKg,TotalKg
1,52,Olga Mikhaylova,Ольга Михайлова,1971-12-14,F,SBD,Wraps,Pro Masters 40-44,No,52,87.5,95,-102.5,,95,55,57.5,-58.5,,57.5,135,145,150,,150,302.5
1,52,Olga Mikhaylova,Ольга Михайлова,1971-12-14,F,SBD,Wraps,Pro Open,No,52,87.5,95,-102.5,,95,55,57.5,-58.5,,57.5,135,145,150,,150,302.5
1,60,Larisa Gvozdeva,Лариса Гвоздева,1965-06-25,F,SBD,Wraps,Pro Masters 45-49,No,59.1,137.5,142.5,147.5,,147.5,80,87.5,90,,90,150,-160,-162.5,,150,387.5
1,60,Larisa Gvozdeva,Лариса Гвоздева,1965-06-25,F,SBD,Wraps,Pro Open,No,59.1,137.5,142.5,147.5,,147.5,80,87.5,90,,90,150,-160,-162.5,,150,387.5
2,60,Anastasiya Amelina,Анастасия Амелина,1988-12-01,F,SBD,Wraps,Pro Open,No,60,132.5,142.5,152.5,,152.5,65,70,72.5,,72.5,150,162.5,-170,,162.5,387.5
1,75,Anna Chubarova,Анна Чубарова,1988-02-03,F,SBD,Wraps,Pro Open,No,67.8,130,137.5,140.5,,140.5,70,77.5,82.5,,82.5,150,160,170,,170,393
1,90,Tatyana Merezhko,Татьяна Мережко,1978-07-05,F,SBD,Wraps,Pro Open,No,82.7,198,207.5,213,,213,97.5,102.5,-105,,102.5,200,212.5,-218.5,,212.5,528
1,44,Nikita Nikitin,Никита Никитин,2001-05-31,M,S,Wraps,Pro Teen 13,No,31.8,30,40,45,,45,,,,,,,,,,,45
1,82.5,Vladislav Lukanin,Владислав Луканин,1984-10-28,M,S,Wraps,Pro Open,No,81.4,292,302.5,-307.5,,302.5,,,,,,,,,,,302.5
1,125,Stanislav Shvetsov,Станислав Швецов,1988-02-08,M,S,Wraps,Pro Open,No,114.4,320,335,350,,350,,,,,,,,,,,350
1,44,Nikita Nikitin,Никита Никитин,2001-05-31,M,D,Raw,Pro Teen 13,No,31.8,,,,,,,,,,,40,55,60,,60,60
1,90,Vyacheslav Sapozhnikov,Вячеслав Сапожников,1988-08-01,M,D,Raw,Pro Open,No,87.6,,,,,,,,,,,160,175,190,,190,190
1,75,Vitaliy Myasnikov,Виталий Мясников,1990-12-21,M,D,Raw,Pro Juniors 20-23,No,72,,,,,,,,,,,225,240,260,,260,260
1,100,Aleksandr Obukhovich,Александр Обухович,1987-08-16,M,D,Raw,Pro Open,No,99.2,,,,,,,,,,,-330,350,365,377.5,365,365
1,110,Yuriy Dementev,Юрий Дементьев,1983-05-26,M,D,Raw,Pro Open,No,107.6,,,,,,,,,,,300,320,330,,330,330
1,125,Stanislav Shvetsov,Станислав Швецов,1988-02-08,M,D,Raw,Pro Open,No,114.4,,,,,,,,,,,320,340,-370,,340,340
1,52,Ignat Evstafev,Игнат Евстафьев,1998-05-18,M,SBD,Wraps,Pro Teen 14-15,No,49.2,90,97.5,102.5,,102.5,50,55,60,,60,95,100,-107.5,,100,262.5
2,44,Nikita Nikitin,Никита Никитин,2001-05-31,M,SBD,Wraps,Pro Teen 13,No,31.8,30,40,45,,45,30,-35,-35,,30,40,55,60,,60,135
1,56,Anton Likhachev,Антон Лихачев,1998-03-16,M,SBD,Wraps,Pro Teen 14-15,No,56,-95,95,-107.5,,95,72.5,77.5,80,,80,105,112.5,120,,120,295
2,56,Dmitriy Lokshteyn,Дмитрий Локштейн,1997-06-29,M,SBD,Wraps,Pro Teen 14-15,No,54.2,92.5,-97.5,97.5,,97.5,52.5,57.5,-62.5,,57.5,100,107.5,112.5,,112.5,267.5
1,60,Nikita Kavardin,Никита Кавардин,1997-04-10,M,SBD,Wraps,Pro Teen 14-15,No,56.8,95,100,105,,105,60,67.5,72.5,,72.5,120,130,140,,140,317.5
DQ,60,Dmitriy Buldakov,Дмитрий Булдаков,1997-10-10,M,SBD,Wraps,Pro Teen 14-15,No,58.4,-80,-80,-80,,,-62.5,,,,,-110,,,,,
1,67.5,Andrey Kadochnikov,Андрей Кадочников,1988-10-14,M,SBD,Wraps,Pro Juniors 20-23,No,67.5,155,165,175,-182.5,175,110,120,-130,,120,180,195,202.5,,202.5,497.5
1,67.5,Mingaley Zagirov,Мингалей Загиров,1948-08-07,M,SBD,Wraps,Pro Masters 60-64,No,66.2,80,90,95,100,95,70,75,80,,80,130,140,150,,150,325
DQ,67.5,Evgeniy Belykh,Евгений Белых,1985-11-28,M,SBD,Wraps,Pro Open,No,66.9,-150,-150,-160,,,-100,,,,,-175,,,,,
1,67.5,Artem Gorbachev,Артем Горбачев,1996-11-15,M,SBD,Wraps,Pro Teen 14-15,No,67.4,150,-160,-160,,150,95,100,-105,,100,160,170,185,,185,435
1,75,Dmitriy Solonnikov,Дмитрий Солонников,1982-07-03,M,SBD,Wraps,Pro Open,No,74.5,170,180,-190,,180,127.5,-135,135,,135,225,235,245,,245,560
2,75,Roman Shamrikov,Роман Шамриков,1981-04-01,M,SBD,Wraps,Pro Open,No,74,160,-170,170,,170,122.5,127.5,-130,,127.5,170,180,190,,190,487.5
3,75,Konstantin Kopach,Константин Копач,1986-07-24,M,SBD,Wraps,Pro Open,No,74.8,125,135,-142.5,,135,95,100,105,,105,170,180,190,,190,430
1,82.5,Arkadiy Shalokha,Аркадий Шалоха,1983-02-28,M,SBD,Wraps,Pro Open,No,76.4,250,-265,265,,265,175,-185,187.5,,187.5,280,290,292.5,-307.5,292.5,745
2,82.5,Vladislav Lukanin,Владислав Луканин,1984-10-28,M,SBD,Wraps,Pro Open,No,81.4,292,302.5,-307.5,,302.5,145,152.5,-155,,152.5,265,280,290,,290,745
3,82.5,Roman Durnov,Роман Дурнов,1986-09-23,M,SBD,Wraps,Pro Open,No,82.2,205,215,-225,,215,-147.5,-147.5,147.5,,147.5,210,230,245,,245,607.5
4,82.5,Aleksandr Zyryanov,Александр Зырянов,1990-12-14,M,SBD,Wraps,Pro Open,No,80.5,190,200,-205,,200,117.5,125,130,,130,205,217.5,227.5,,227.5,557.5
5,82.5,Aleksandr Foshchanka,Александр Фощанка,1985-04-22,M,SBD,Wraps,Pro Open,No,80.6,160,170,-180,,170,110,125,-135,,125,160,170,180,,180,475
1,90,Aleksandr Khavkunov,Александр Хавкунов,1989-12-26,M,SBD,Wraps,Pro Juniors 20-23,No,89.9,-245,245,260,,260,170,175,180,,180,270,300,302.5,-310.5,302.5,742.5
1,90,Denis Krasnov,Денис Краснов,1971-11-08,M,SBD,Wraps,Pro Masters 40-44,No,87.7,190,210,-220,,210,-160,160,-175,,160,160,,,,160,530
1,90,Robert Trokhin,Роберт Трохин,1935-03-01,M,SBD,Wraps,Pro Masters 75-79,No,86.8,100,105,110,,110,90,-100,100,,100,110,120,125,,125,335
1,90,Aleksandr Khavkunov,Александр Хавкунов,1989-12-26,M,SBD,Wraps,Pro Open,No,89.9,-245,245,260,,260,170,175,180,,180,270,300,302.5,-310.5,302.5,742.5
2,90,Evgeniy Fedyakin,Евгений Федякин,1980-11-26,M,SBD,Wraps,Pro Open,No,90,235,252.5,262.5,,262.5,180,190,-197.5,,190,262.5,272.5,290,,290,742.5
3,90,Aleksandr Kuznetsov #4,Александр Кузнецов,1981-12-09,M,SBD,Wraps,Pro Open,No,89.9,210,227.5,242.5,,242.5,155,162.5,167.5,,167.5,-210,210,-227.5,,210,620
4,90,Denis Krasnov,Денис Краснов,1971-11-08,M,SBD,Wraps,Pro Open,No,87.7,190,210,-220,,210,-160,160,-175,,160,160,,,,160,530
5,90,Ilya Voluyskikh,Илья Волуйских,1986-09-26,M,SBD,Wraps,Pro Open,No,89.9,170,180,185,,185,110,-120,-120,,110,200,215,220,,220,515
6,90,Aleksandr Glebov,Александр Глебов,1984-12-29,M,SBD,Wraps,Pro Open,No,83.7,150,160,-172.5,,160,110,-115,115,,115,155,170,177.5,,177.5,452.5
DQ,90,Vladimir Khlyustov,Владимир Хлюстов,1976-10-26,M,SBD,Wraps,Pro Open,No,89.1,150,,,,150,-100,,,,,,,,,,
1,90,Vadim Vandakurov,Вадим Вандакуров,1992-10-14,M,SBD,Wraps,Pro Teen 18-19,No,83.2,220,232.5,242.5,,242.5,130,142.5,150,,150,200,220,250,,250,642.5
1,100,Andrey Skvortsov,Андрей Скворцов,1977-11-25,M,SBD,Wraps,Pro Open,No,98.5,-240,250,260,,260,210,220,225,,225,240,250,-260,,250,735
2,100,Konstantin Kalikin,Константин Каликин,1986-11-04,M,SBD,Wraps,Pro Open,No,97.7,-230,250,-270,,250,-170,-170,170,,170,190,210,220,,220,640
1,100,Aleksey Brovkin,Алексей Бровкин,1993-12-08,M,SBD,Wraps,Pro Teen 18-19,No,91.8,160,,,,160,110,120,,,120,200,230,,,230,510
1,110,Dmitriy Tarasov,Дмитрий Тарасов,1981-12-21,M,SBD,Wraps,Pro Open,No,106.6,250,270,280,,280,200,-210,-210,,200,320,340,-350,,340,820
2,110,Yuriy Dementev,Юрий Дементьев,1983-05-26,M,SBD,Wraps,Pro Open,No,107.6,250,265,275,,275,190,-200,-200,,190,300,320,330,,330,795
3,110,Ivan Shorokhov,Иван Шорохов,1982-12-07,M,SBD,Wraps,Pro Open,No,103.4,185,-195,200,,200,150,155,-160,,155,190,200,210,,210,565
1,125,Vyacheslav Duryshin,Вячеслав Дурышин,1989-04-22,M,SBD,Wraps,Pro Juniors 20-23,No,119.3,195,200,-210,,200,130,140,150,,150,240,250,260,,260,610
1,125,Ruslan Akhmetov,Руслан Ахметов,1960-04-11,M,SBD,Wraps,Pro Masters 50-54,No,114.1,250,260,-270,,260,165,175,180,,180,220,250,260,,260,700
1,125,Stanislav Shvetsov,Станислав Швецов,1988-02-08,M,SBD,Wraps,Pro Open,No,114.4,320,335,350,,350,222.5,230,240,,240,320,340,-370,,340,930
2,125,Sergey Luchenkov,Сергей Лученков,1977-05-24,M,SBD,Wraps,Pro Open,No,123.1,-280,280,-290,,280,220,230,-232.5,,230,280,300,310,,310,820
3,125,Sergey Farafontev,Сергей Фарафонтьев,1984-01-27,M,SBD,Wraps,Pro Open,No,119.1,260,-270,270,,270,180,190,195,,195,280,300,310,,310,775
1,56,Anastasiya Noskova,Анастасия Носкова,1984-02-14,F,D,Raw,Amateur Open,Yes,54.5,,,,,,,,,,,115,-122.5,-122.5,,115,115
1,67.5,Anna Glushko,Анна Глушко,1974-06-25,F,D,Raw,Amateur Open,Yes,65.6,,,,,,,,,,,-105,115,-122.5,122.5,115,115
1,52,Anna Fedorova,Анна Федорова,1993-11-04,F,SBD,Wraps,Amateur Open,Yes,52,97,107,112.5,,112.5,55,60,65,,65,105,112.5,117.5,,117.5,295
2,52,Anastasiya Bedriy,Анастасия Бедрий,1979-04-25,F,SBD,Wraps,Amateur Open,Yes,50.7,-75,75,-85,,75,42.5,47.5,-50,,47.5,90,105,-117.5,,105,227.5
3,52,Natalya Shchekaleva,Наталья Щекалева,1985-10-11,F,SBD,Wraps,Amateur Open,Yes,51.4,-65,65,72.5,,72.5,42.5,50,-55,,50,85,92.5,-97.5,,92.5,215
1,56,Natalya Tolkacheva,Наталья Толкачева,1987-12-07,F,SBD,Wraps,Amateur Open,Yes,54.8,95,-102.5,-105,,95,65,-70,-70,,65,110,-122.5,122.5,,122.5,282.5
2,56,Mariya Kirillova,Мария Кириллова,1984-10-01,F,SBD,Wraps,Amateur Open,Yes,52.1,72.5,75,80,,80,40,45,-47.5,,45,85,100,110,,110,235
1,56,Yuliya Isupova,Юлия Исупова,1998-06-26,F,SBD,Wraps,Amateur Teen 14-15,Yes,54.6,57.5,-65,65,,65,30,32.5,-35,,32.5,75,80,85,90,85,182.5
1,60,Irina Raborovskaya,Ирина Раборовская,1983-12-14,F,SBD,Wraps,Amateur Open,Yes,59.3,105,110,-112.5,,110,65,-70,-70,,65,125,140,-145,,140,315
1,67.5,Nadezhda Marochkina,Надежда Марочкина,1957-02-07,F,SBD,Wraps,Amateur Masters 55-59,Yes,67.5,85,95,-100,,95,50,-55,57.5,,57.5,90,100,110,,110,262.5
1,67.5,Evgeniya Perevozchikova,Евгения Перевозчикова,1980-07-07,F,SBD,Wraps,Amateur Open,Yes,65.6,80,90,-100,,90,50,57.5,-62.5,,57.5,100,115,120,,120,267.5
1,82.5,Inna Bessonova,Инна Бессонова,1988-10-25,F,SBD,Wraps,Amateur Juniors 20-23,Yes,82.2,95,105,115,,115,50,57.5,-62.5,,57.5,107.5,115,120,,120,292.5
1,82.5,Olga Kazankova,Ольга Казанкова,1979-06-26,F,SBD,Wraps,Amateur Open,Yes,77.6,110,120,125,,125,80,-85,90,,90,130,140,150,,150,365
2,82.5,Mariya Pertsel,Мария Перцель,1982-12-12,F,SBD,Wraps,Amateur Open,Yes,82,70,-75,,,70,37.5,40,-42.5,,40,85,92.5,100,,100,210
1,75,Konstantin Sgibnev,Константин Сгибнев,1997-12-30,M,S,Wraps,Amateur Teen 14-15,Yes,72.4,125,135,140,,140,,,,,,,,,,,140
1,90,Evgeniy Svoboda,Евгений Свобода,1972-03-23,M,S,Wraps,Amateur Masters 40-44,Yes,89,160,175,182.5,,182.5,,,,,,,,,,,182.5
1,110,Evgeniy Kochnev,Евгений Кочнев,1965-09-19,M,S,Wraps,Amateur Masters 45-49,Yes,107,180,192.5,202.5,,202.5,,,,,,,,,,,202.5
1,110,Valentin Trepshin,Валентин Трепшин,1987-06-10,M,S,Wraps,Amateur Open,Yes,108.2,240,255,265,,265,,,,,,,,,,,265
1,44,Dmitriy Zhukov,Дмитрий Жуков,1999-01-22,M,D,Raw,Amateur Teen 13,Yes,43.4,,,,,,,,,,,75,-85,-85,,75,75
1,67.5,Sergey Volkov,Сергей Волков,1981-08-18,M,D,Raw,Amateur Open,Yes,66.9,,,,,,,,,,,177.5,-187.5,-187.5,,177.5,177.5
1,75,Sergey Kudinov,Сергей Кудинов,1990-07-25,M,D,Raw,Amateur Juniors 20-23,Yes,71,,,,,,,,,,,-190,190,195,,195,195
1,75,Evgeniy Dyupin,Евгений Дюпин,1976-04-28,M,D,Raw,Amateur Open,Yes,71,,,,,,,,,,,215,-232.5,232.5,,232.5,232.5
2,75,Taras Mukovozchik,Тарас Муковозчик,1983-03-12,M,D,Raw,Amateur Open,Yes,72.5,,,,,,,,,,,210,230,-252.5,,230,230
3,75,Andrey Kabanov,Андрей Кабанов,1982-04-29,M,D,Raw,Amateur Open,Yes,72.7,,,,,,,,,,,-195,205,215,,215,215
1,90,Evgeniy Svoboda,Евгений Свобода,1972-03-23,M,D,Raw,Amateur Masters 40-44,Yes,89,,,,,,,,,,,170,200,220,,220,220
1,100,Aleksandr Ilin,Александр Ильин,1964-11-20,M,D,Raw,Amateur Masters 45-49,Yes,97.7,,,,,,,,,,,225,235,245,250,245,245
1,110,Valentin Trepshin,Валентин Трепшин,1987-06-10,M,D,Raw,Amateur Open,Yes,108.2,,,,,,,,,,,240,265,-275,,265,265
1,52,Vitaliy Matveev,Виталий Матвеев,1991-07-25,M,SBD,Wraps,Amateur Juniors 20-23,Yes,49,100,110,115,,115,65,70,-72.5,,70,135,145,-152.5,,145,330
1,52,Ivan Skornyakov,Иван Скорняков,1997-01-24,M,SBD,Wraps,Amateur Teen 14-15,Yes,49.3,80,85,-90,,85,-50,-50,50,,50,85,90,97.5,,97.5,232.5
2,52,Vyacheslav Belousov,В'ячеслав Бєлоусов,1996-10-13,M,SBD,Wraps,Amateur Teen 14-15,Yes,48.2,52.5,60,-65,,60,-45,50,-52.5,,50,80,87.5,92.5,,92.5,202.5
3,48,Grigoriy Belonosov,Григорий Белоносов,1999-11-25,M,SBD,Wraps,Amateur Teen 13,Yes,47.3,60,65,70,,70,35,40,-42.5,,40,80,85,90,,90,200
4,44,Dmitriy Zhukov,Дмитрий Жуков,1999-01-22,M,SBD,Wraps,Amateur Teen 13,Yes,43.4,45,-50,-50,,45,50,55,-57.5,,55,75,-85,-85,,75,175
1,52,Denis Matveev,Денис Матвеев,1992-12-24,M,SBD,Wraps,Amateur Teen 18-19,Yes,51.8,115,-120,120,,120,70,-75,-75,,70,140,-150,-150,,140,330
1,56,Vitaliy Kuznetsov,Виталий Кузнецов,1990-07-28,M,SBD,Wraps,Amateur Juniors 20-23,Yes,55.8,-100,100,110,,110,85,90,-92.5,,90,135,150,-160,,150,350
1,56,Valentin Sarancha,Валентин Саранча,1983-06-26,M,SBD,Wraps,Amateur Open,Yes,55.9,100,105,110,,110,80,-85,85,,85,120,130,-140,,130,325
1,56,Dmitriy Pytkeev,Дмитрий Пыткеев,1995-10-09,M,SBD,Wraps,Amateur Teen 16-17,Yes,54,85,-87.5,,,85,55,-60,-67.5,,55,100,110,-115,,110,250
1,60,Anatoliy Chistyakov,Анатолий Чистяков,1940-01-29,M,SBD,Wraps,Amateur Masters 70-74,Yes,57.8,82.5,85,90,,90,-62.5,62.5,-65,,62.5,110,117.5,120,,120,272.5
1,60,Dmitriy Buldakov,Дмитрий Булдаков,1997-10-10,M,SBD,Wraps,Amateur Teen 14-15,Yes,58.4,80,90,95,,95,62.5,65,-67.5,,65,100,-125,125,,125,285
2,60,Kirill Ryazanov,Кирилл Рязанов,1998-04-10,M,SBD,Wraps,Amateur Teen 14-15,Yes,58.4,-90,90,-95,,90,55,60,-65,,60,120,132.5,-140,,132.5,282.5
1,67.5,Viktor Siliyan,Виктор Силиян,1992-03-25,M,SBD,Wraps,Amateur Juniors 20-23,Yes,61.8,100,-110,-110,,100,75,-80,-85,,75,120,132.5,-145,,132.5,307.5
1,67.5,Sergey Ryavkin,Сергей Рявкин,1959-10-31,M,SBD,Wraps,Amateur Masters 50-54,Yes,63.3,-130,130,140,,140,90,-100,,,90,140,150,160,,160,390
1,67.5,Arseniy Shishkin,Арсений Шишкин,1939-05-02,M,SBD,Wraps,Amateur Masters 70-74,Yes,66.9,-120,120,,,120,60,,,,60,130,,,,130,310
1,67.5,Sergey Volkov,Сергей Волков,1981-08-18,M,SBD,Wraps,Amateur Open,Yes,66.9,140,150,160,,160,85,92.5,-97.5,,92.5,177.5,-187.5,-187.5,,177.5,430
DQ,67.5,Arkadiy Strelnikov,Аркадий Стрельников,1977-06-20,M,SBD,Wraps,Amateur Open,Yes,64,-155,-160,-160,,,120,,,,120,185,,,,185,
1,67.5,Denis Kashaulin,Денис Кашаулин,1997-04-24,M,SBD,Wraps,Amateur Teen 14-15,Yes,66.4,100,110,115,-123.5,115,80,85,90,,90,140,150,-160,,150,355
1,67.5,Pavel Vyatkin,Павел Вяткин,1994-10-25,M,SBD,Wraps,Amateur Teen 16-17,Yes,67,-130,135,145,-147.5,145,95,100,-102.5,,100,170,177.5,185,,185,430
2,67.5,Nikita Gordeev,Никита Гордеев,1996-03-16,M,SBD,Wraps,Amateur Teen 16-17,Yes,67.3,-130,-130,130,,130,-100,100,-105,,100,160,175,-182.5,,175,405
3,67.5,Danil Gubaydullin,Данил Губайдуллин,1995-03-03,M,SBD,Wraps,Amateur Teen 16-17,Yes,64.5,-120,125,130,,130,80,-82.5,-82.5,,80,150,-160,,,150,360
DD,75,Pavel Shvetsov,Павел Швецов,1990-03-15,M,SBD,Wraps,Amateur Juniors 20-23,Yes,74.8,212.5,222.5,227.5,,227.5,145,150,-155,,150,260,265,,,265,
1,75,Aleksey Vikhrov,Алексей Вихров,1988-10-12,M,SBD,Wraps,Amateur Juniors 20-23,Yes,73.6,162.5,172.5,182.5,,182.5,110,117.5,120,,120,200,215,230,,230,532.5
2,75,Ilya Minin,Илья Минин,1989-02-01,M,SBD,Wraps,Amateur Juniors 20-23,Yes,71.7,150,160,165,,165,-135,135,-140,,135,200,205,210,,210,510
3,75,Sergey Kudinov,Сергей Кудинов,1990-07-25,M,SBD,Wraps,Amateur Juniors 20-23,Yes,71,-150,150,155,,155,105,-110,110,,110,-190,190,195,,195,460
4,75,Evgeniy Timofeev,Евгений Тимофеев,1990-12-21,M,SBD,Wraps,Amateur Juniors 20-23,Yes,74,140,152.5,160,,160,95,102.5,-107.5,,102.5,-180,180,187.5,,187.5,450
1,75,Efim Kalimullin,Ефим Калимуллин,1955-06-10,M,SBD,Wraps,Amateur Masters 55-59,Yes,74.9,120,-130,130,,130,85,90,92.5,,92.5,155,167.5,175,,175,397.5
DD,75,Pavel Shvetsov,Павел Швецов,1990-03-15,M,SBD,Wraps,Amateur Open,Yes,74.8,212.5,222.5,227.5,,227.5,145,150,-155,,150,260,265,,,265,
1,75,Taras Mukovozchik,Тарас Муковозчик,1983-03-12,M,SBD,Wraps,Amateur Open,Yes,72.5,150,160,170,-180,170,120,-130,132.5,,132.5,210,230,-252.5,,230,532.5
2,75,Ilya Gizatullin,Илья Гизатуллин,1974-09-25,M,SBD,Wraps,Amateur Open,Yes,74.2,160,165,170,,170,-110,110,-115,,110,190,200,-210,,200,480
1,75,Konstantin Sgibnev,Константин Сгибнев,1997-12-30,M,SBD,Wraps,Amateur Teen 14-15,Yes,72.4,125,135,140,,140,85,-90,90,,90,137.5,152.5,157.5,,157.5,387.5
1,75,Semen Kurpishev,Семен Курпишев,1995-10-28,M,SBD,Wraps,Amateur Teen 16-17,Yes,73.1,100,110,120,,120,85,90,92.5,,92.5,90,100,120,,120,332.5
1,75,Sergey Kulakov,Сергей Кулаков,1994-06-07,M,SBD,Wraps,Amateur Teen 18-19,Yes,72.9,130,140,-155,,140,110,115,-120,,115,160,-175,185,,185,440
1,82.5,Nikolay German,Николай Герман,1991-03-20,M,SBD,Wraps,Amateur Juniors 20-23,Yes,82.5,-185,-185,185,,185,150,-152.5,,,150,225,245,257.5,-263,257.5,592.5
2,82.5,Dmitriy Melekhov,Дмитрий Мелехов,1989-04-30,M,SBD,Wraps,Amateur Juniors 20-23,Yes,81,170,180,-190,,180,125,-130,-130,,125,190,200,-210,,200,505
1,82.5,Mikhail Manyugin,Михаил Манюгин,1969-07-10,M,SBD,Wraps,Amateur Masters 40-44,Yes,81.3,170,180,187.5,,187.5,115,125,130,,130,205,217.5,232.5,236,232.5,550
1,82.5,Vyacheslav Piskalov,Вячеслав Пискалов,1958-10-23,M,SBD,Wraps,Amateur Masters 50-54,Yes,80,215,227.5,235,,235,120,-125,-127.5,,120,210,227.5,235,,235,590
1,82.5,Vyacheslav Piskalov,Вячеслав Пискалов,1958-10-23,M,SBD,Wraps,Amateur Open,Yes,80,215,227.5,235,,235,120,-125,-127.5,,120,215,227.5,235,,235,590
2,82.5,Sergey Kislyakov,Сергей Кисляков,1987-11-04,M,SBD,Wraps,Amateur Open,Yes,81.4,190,205,-215,,205,150,155,-160,,155,215,222.5,-230,,222.5,582.5
3,82.5,Konstantin Kuznetsov,Константин Кузнецов,1983-06-01,M,SBD,Wraps,Amateur Open,Yes,81.5,162.5,-172.5,172.5,,172.5,150,160,-165,,160,202.5,217.5,230,,230,562.5
4,82.5,Mikhail Manyugin,Михаил Манюгин,1969-07-10,M,SBD,Wraps,Amateur Open,Yes,81.3,170,180,187.5,,187.5,115,125,130,,130,205,217.5,232.5,236,232.5,550
5,82.5,Mikhail Evdokimov,Михаил Евдокимов,1987-10-31,M,SBD,Wraps,Amateur Open,Yes,81.7,170,180,-185,,180,120,-127.5,130,,130,210,215,-230,,215,525
1,82.5,Daniil Kotlovskiy,Даниил Котловский,1996-09-18,M,SBD,Wraps,Amateur Teen 16-17,Yes,80.5,140,150,-155,,150,85,-95,95,,95,160,170,180,,180,425
1,82.5,Anatoliy Baluev,Анатолий Балуев,1993-05-13,M,SBD,Wraps,Amateur Teen 18-19,Yes,76.4,130,140,150,,150,110,120,-125,,120,160,175,-185,,175,445
1,90,Andrey Malenkikh,Андрей Маленьких,1989-01-20,M,SBD,Wraps,Amateur Juniors 20-23,Yes,89.7,-210,-210,210,,210,140,150,157.5,,157.5,200,220,245,,245,612.5
2,90,Dmitriy Devyatkin,Дмитрий Девяткин,1991-09-29,M,SBD,Wraps,Amateur Juniors 20-23,Yes,88.1,210,-220,-220,,210,-140,140,-147.5,,140,250,260,-270,,260,610
3,90,Igor Sharifov,Игорь Шарифов,1991-10-05,M,SBD,Wraps,Amateur Juniors 20-23,Yes,86.3,200,210,215,,215,120,-127.5,-127.5,,120,220,230,240,,240,575
DQ,90,Evgeniy Sobyanin,Евгений Собянин,1990-07-24,M,SBD,Wraps,Amateur Juniors 20-23,Yes,89,-170,-170,-170,,,137.5,,,,137.5,175,,,,175,
1,90,Sergey Talalaev,Сергей Талалаев,1968-09-07,M,SBD,Wraps,Amateur Masters 40-44,Yes,89.6,170,175,185,,185,140,150,155,,155,200,220,232.5,,232.5,572.5
2,90,Vyacheslav Myasnikov,Вячеслав Мясников,1970-12-07,M,SBD,Wraps,Amateur Masters 40-44,Yes,89,-200,200,210,,210,120,-140,-140,,120,210,-230,230,,230,560
3,90,Evgeniy Svoboda,Евгений Свобода,1972-03-23,M,SBD,Wraps,Amateur Masters 40-44,Yes,89,160,175,182.5,,182.5,140,147.5,,,147.5,170,200,220,,220,550
DQ,90,Sergey Taranenko,Сергей Тараненко,1971-03-14,M,SBD,Wraps,Amateur Masters 40-44,Yes,86.3,-180,-180,-180,,,130,,,,130,190,,,,190,
1,90,Gleb Gromov,Глеб Громов,1962-10-31,M,SBD,Wraps,Amateur Masters 45-49,Yes,88.1,90,-95,-95,,90,57.5,62.5,-65,,62.5,120,130,137.5,,137.5,290
1,90,Vyacheslav Yakushov,Вячеслав Якушов,,M,SBD,Wraps,Amateur Masters 70-74,Yes,83,150,160,165,,165,90,97.5,100,,100,175,185,192.5,,192.5,457.5
1,90,Pavel Shutkin,Павел Шуткин,1986-04-24,M,SBD,Wraps,Amateur Open,Yes,87.9,190,-200,205,,205,140,150,155,,155,230,240,245,,245,605
2,90,Igor Sharifov,Игорь Шарифов,1991-10-05,M,SBD,Wraps,Amateur Open,Yes,86.3,200,210,215,,215,120,-127.5,-127.5,,120,220,230,240,,240,575
3,90,Sergey Talalaev,Сергей Талалаев,1968-09-07,M,SBD,Wraps,Amateur Open,Yes,89.6,-170,175,185,,185,140,150,155,,155,200,220,232.5,,232.5,572.5
4,90,Konstantin Palchevskiy,Константин Пальчевский,1985-11-16,M,SBD,Wraps,Amateur Open,Yes,85.4,155,160,165,,165,105,110,-115,,110,185,195,207.5,,207.5,482.5
5,90,Yan Bolkunevich,Ян Болкуневич,1982-08-01,M,SBD,Wraps,Amateur Open,Yes,85.8,150,160,-170,,160,105,-115,115,,115,150,170,190,,190,465
6,90,Andrey Simonov,Андрей Симонов,1975-11-17,M,SBD,Wraps,Amateur Open,Yes,89,-90,90,115,,115,80,-90,90,,90,100,115,125,,125,330
DQ,90,Pavel Popandopulo,Павел Попандопуло,1985-02-21,M,SBD,Wraps,Amateur Open,Yes,89.5,190,200,-210,,200,-130,-135,-135,,,210,,,,210,
1,90,Anton Zinatullin,Антон Зинатуллин,1994-08-17,M,SBD,Wraps,Amateur Teen 18-19,Yes,88.7,190,200,210,,210,145,150,-155,,150,250,260,270,,270,630
1,100,Aleksandr Ilin,Александр Ильин,1964-11-20,M,SBD,Wraps,Amateur Masters 45-49,Yes,97.7,190,200,205,,205,150,-155,-157.5,,150,225,235,245,250,245,600
1,100,Vladimir Khilyuk,Владимир Хилюк,1948-12-04,M,SBD,Wraps,Amateur Masters 60-64,Yes,98.2,180,185,190,,190,100,110,-115,,110,200,215,220,,220,520
1,100,Yuriy Pudikov,Юрий Пудиков,1982-01-06,M,SBD,Wraps,Amateur Open,Yes,98,235,250,260,,260,190,200,-207.5,,200,235,250,260,,260,720
2,100,Andrey Anisimov,Андрей Анисимов,1984-12-26,M,SBD,Wraps,Amateur Open,Yes,99,225,-235,-235,,225,135,145,-147.5,,145,260,272.5,-282.5,,272.5,642.5
3,100,Alan Romero,Алан Ромеро,1986-11-26,M,SBD,Wraps,Amateur Open,Yes,95.8,180,200,205,,205,130,140,-145,,140,250,265,285,,285,630
4,100,Sergey Shlyapnikov,Сергей Шляпников,1978-08-24,M,SBD,Wraps,Amateur Open,Yes,94.2,190,205,215,,215,110,145,150,,150,170,220,-240,,220,585
1,110,Dmitriy Malts,Дмитрий Мальц,1967-06-18,M,SBD,Wraps,Amateur Masters 45-49,Yes,107,205,210,-217.5,,210,160,-170,-172.5,,160,250,-260,,,250,620
1,110,Arkadiy Chernavskikh,Аркадий Чернавских,1953-06-06,M,SBD,Wraps,Amateur Masters 55-59,Yes,106.9,170,180,190,,190,125,130,-135,,130,170,190,200,,200,520
1,110,Denis Astakhov,Денис Астахов,1984-05-21,M,SBD,Wraps,Amateur Open,Yes,107,290,297.5,-308,,297.5,142.5,-152.5,-152.5,,142.5,280,300,-310,,300,740
2,110,Valentin Trepshin,Валентин Трепшин,1987-06-10,M,SBD,Wraps,Amateur Open,Yes,108.2,240,255,265,,265,190,205,210,,210,240,265,-275,,265,740
3,110,Konstantin Komelin,Константин Комелин,1986-03-31,M,SBD,Wraps,Amateur Open,Yes,106.9,245,260,-265,,260,150,160,-165,,160,280,290,295,,295,715
4,110,Dmitriy Malts,Дмитрий Мальц,1967-06-18,M,SBD,Wraps,Amateur Open,Yes,107,205,210,-217.5,,210,165,-170,-172.5,,165,250,-260,,,250,625
DQ,125,Bogdan Shtefan,Богдан Штефан,1991-06-27,M,SBD,Wraps,Amateur Juniors 20-23,Yes,121.1,-160,-160,-160,,,-130,,,,,-150,,,,,
1,125,Sergey Lukyanov,Сергей Лукьянов,1973-05-27,M,SBD,Wraps,Amateur Open,Yes,118.2,260,270,280,,280,205,215,-222.5,,215,260,270,280,,280,775
2,125,Igor Eltsov,Игорь Ельцов,1978-12-03,M,SBD,Wraps,Amateur Open,Yes,118.6,200,220,240,,240,172.5,180,-185,,180,255,267.5,-275,,267.5,687.5
3,125,Aleksandr Marfitsyn,Александр Марфицын,1982-08-23,M,SBD,Wraps,Amateur Open,Yes,116,220,230,240,,240,135,142.5,147.5,,147.5,250,262.5,275,,275,662.5
1,52,Dmitriy Kochiev,Дмитрий Кочиев,1992-05-23,M,S,Raw,Disabled Juniors 20-23,No,48.6,65,72.5,-80,,72.5,,,,,,,,,,,72.5
1,52,Sergey Bakanov,Сергей Баканов,1985-10-25,M,S,Raw,Disabled Open,No,49.1,115,125,-130,,125,,,,,,,,,,,125
1,56,Vladimir Sergeev,Владимир Сергеев,1985-10-15,M,S,Raw,Disabled Open,No,55.6,75,80,-90,,80,,,,,,,,,,,80
1,56,Vitaliy Zhuravlev,Виталий Журавлев,1992-11-12,M,S,Raw,Disabled Teen 18-19,No,54.6,100,-102.5,102.5,,102.5,,,,,,,,,,,102.5
1,60,Viktor Inamov,Виктор Инамов,1996-12-11,M,S,Raw,Disabled Teen 14-15,No,58.7,95,100,102.5,,102.5,,,,,,,,,,,102.5
1,60,Sergey Otev,Сергей Отев,1992-12-20,M,S,Raw,Disabled Teen 18-19,No,60,95,100,-105,,100,,,,,,,,,,,100
1,75,Aleksey Uymin,Алексей Уймин,1990-02-15,M,S,Raw,Disabled Juniors 20-23,No,73.4,100,105,110,,110,,,,,,,,,,,110
2,75,Dmitriy Ivanov #3,Дмитрий Иванов,1989-08-14,M,S,Raw,Disabled Juniors 20-23,No,67.7,92.5,97.5,102.5,,102.5,,,,,,,,,,,102.5
1,75,Aleksey Knyazkin,Алексей Князькин,1987-05-18,M,S,Raw,Disabled Open,No,71.5,115,-125,-125,,115,,,,,,,,,,,115
2,75,Pavel Chushkin,Павел Чушкин,1987-05-14,M,S,Raw,Disabled Open,No,72.3,100,-110,-112.5,,100,,,,,,,,,,,100
1,75,Nikita Zhelev,Никита Желев,1994-08-30,M,S,Raw,Disabled Teen 18-19,No,70.5,95,100,-105,,100,,,,,,,,,,,100
1,82.5,Pavel Zubov,Павел Зубов,1990-03-04,M,S,Raw,Disabled Juniors 20-23,No,78,-162.5,162.5,170,,170,,,,,,,,,,,170
1,82.5,Kirill Isaev,Кирилл Исаев,1987-06-01,M,S,Raw,Disabled Open,No,80,120,130,-140,,130,,,,,,,,,,,130
2,82.5,Andrey Gusev,Андрей Гусев,1987-05-09,M,S,Raw,Disabled Open,No,78.1,95,102.5,-107.5,,102.5,,,,,,,,,,,102.5
1,82.5,Petr Borodinov,Петр Бородинов,1994-09-03,M,S,Raw,Disabled Teen 18-19,No,76.9,120,125,-130,,125,,,,,,,,,,,125
1,90,Vladimir Nagalyuk,Владимир Нагалюк,1951-09-21,M,S,Raw,Disabled Masters 60-64,No,87,-140,140,150,,150,,,,,,,,,,,150
1,90,Vladimir Nagalyuk,Владимир Нагалюк,1951-09-21,M,S,Raw,Disabled Open,No,87,-140,140,150,,150,,,,,,,,,,,150
2,90,Viktor Ananin,Виктор Ананьин,1988-08-27,M,S,Raw,Disabled Open,No,88,115,-120,120,,120,,,,,,,,,,,120
3,90,Evgeniy Tambovtsev,Евгений Тамбовцев,1984-11-08,M,S,Raw,Disabled Open,No,82.7,65,72.5,80,,80,,,,,,,,,,,80
4,90,Ivan Kukoba,Иван Кукоба,1986-04-04,M,S,Raw,Disabled Open,No,83,80,,,,80,,,,,,,,,,,80
1,100,Andrey Ladeyshchikov,Андрей Ладейщиков,1984-10-27,M,S,Raw,Disabled Open,No,94,180,190,195,,195,,,,,,,,,,,195
1,110,Sergey Mikushin,Сергей Микушин,1984-01-20,M,S,Raw,Disabled Open,No,102.5,120,132.5,140,,140,,,,,,,,,,,140
1,52,Dmitriy Kochiev,Дмитрий Кочиев,1992-05-23,M,D,Raw,Disabled Juniors 20-23,No,48.6,,,,,,,,,,,100,112.5,130,,130,130
1,52,Sergey Bakanov,Сергей Баканов,1985-10-25,M,D,Raw,Disabled Open,No,49.1,,,,,,,,,,,75,85,,,85,85
1,56,Vladimir Sergeev,Владимир Сергеев,1985-10-15,M,D,Raw,Disabled Open,No,55.6,,,,,,,,,,,140,-157.5,-157.5,,140,140
1,56,Vitaliy Zhuravlev,Виталий Журавлев,1992-11-12,M,D,Raw,Disabled Teen 18-19,No,54.6,,,,,,,,,,,140,157.5,-167.5,,157.5,157.5
1,60,Viktor Inamov,Виктор Инамов,1996-12-11,M,D,Raw,Disabled Teen 14-15,No,58.7,,,,,,,,,,,130,142.5,-147.5,,142.5,142.5
1,60,Sergey Otev,Сергей Отев,1992-12-20,M,D,Raw,Disabled Teen 18-19,No,60,,,,,,,,,,,147.5,157.5,160,,160,160
1,75,Dmitriy Ivanov #3,Дмитрий Иванов,1989-08-14,M,D,Raw,Disabled Juniors 20-23,No,67.7,,,,,,,,,,,160,170,-172.5,,170,170
2,75,Aleksey Uymin,Алексей Уймин,1990-02-15,M,D,Raw,Disabled Juniors 20-23,No,73.4,,,,,,,,,,,130,140,-150,,140,140
1,75,Pavel Chushkin,Павел Чушкин,1987-05-14,M,D,Raw,Disabled Open,No,72.3,,,,,,,,,,,170,175,180,,180,180
2,75,Aleksey Knyazkin,Алексей Князькин,1987-05-18,M,D,Raw,Disabled Open,No,71.5,,,,,,,,,,,140,150,-160,,150,150
1,75,Nikita Zhelev,Никита Желев,1994-08-30,M,D,Raw,Disabled Teen 18-19,No,70.5,,,,,,,,,,,-145,150,,,150,150
1,82.5,Pavel Zubov,Павел Зубов,1990-03-04,M,D,Raw,Disabled Juniors 20-23,No,78,,,,,,,,,,,175,185,-192.5,,185,185
1,82.5,Kirill Isaev,Кирилл Исаев,1987-06-01,M,D,Raw,Disabled Open,No,80,,,,,,,,,,,130,150,160,,160,160
2,82.5,Andrey Gusev,Андрей Гусев,1987-05-09,M,D,Raw,Disabled Open,No,78.1,,,,,,,,,,,125,130,137.5,,137.5,137.5
1,82.5,Petr Borodinov,Петр Бородинов,1994-09-03,M,D,Raw,Disabled Teen 18-19,No,76.9,,,,,,,,,,,175,180,-185,,180,180
1,90,Vladimir Nagalyuk,Владимир Нагалюк,1951-09-21,M,D,Raw,Disabled Masters 60-64,No,87,,,,,,,,,,,170,180,185,,185,185
1,90,Vladimir Nagalyuk,Владимир Нагалюк,1951-09-21,M,D,Raw,Disabled Open,No,87,,,,,,,,,,,170,180,185,,185,185
2,90,Viktor Ananin,Виктор Ананьин,1988-08-27,M,D,Raw,Disabled Open,No,88,,,,,,,,,,,160,172.5,-192.5,,172.5,172.5
3,90,Ivan Kukoba,Иван Кукоба,1986-04-04,M,D,Raw,Disabled Open,No,83,,,,,,,,,,,120,145,150,,150,150
4,90,Evgeniy Tambovtsev,Евгений Тамбовцев,1984-11-08,M,D,Raw,Disabled Open,No,82.7,,,,,,,,,,,100,125,145,,145,145
1,100,Andrey Ladeyshchikov,Андрей Ладейщиков,1984-10-27,M,D,Raw,Disabled Open,No,94,,,,,,,,,,,205,222.5,230,,230,230
1,110,Sergey Mikushin,Сергей Микушин,1984-01-20,M,D,Raw,Disabled Open,No,102.5,,,,,,,,,,,150,160,170,,170,170
1,52,Dmitriy Kochiev,Дмитрий Кочиев,1992-05-23,M,SBD,Wraps,Disabled Juniors 20-23,No,48.6,65,72.5,-80,,72.5,45,52.5,-55,,52.5,100,112.5,130,,130,255
1,52,Sergey Bakanov,Сергей Баканов,1985-10-25,M,SBD,Wraps,Disabled Open,No,49.1,115,125,-130,,125,95,100,-102.5,,100,75,85,,,85,310
1,56,Vladimir Sergeev,Владимир Сергеев,1985-10-15,M,SBD,Wraps,Disabled Open,No,55.6,75,80,-90,,80,60,62.5,-65,,62.5,140,-157.5,-157.5,,140,282.5
1,56,Vitaliy Zhuravlev,Виталий Журавлев,1992-11-12,M,SBD,Wraps,Disabled Teen 18-19,No,54.6,100,-102.5,102.5,,102.5,80,-85,-85,,80,140,157.5,-167.5,,157.5,340
1,60,Viktor Inamov,Виктор Инамов,1996-12-11,M,SBD,Wraps,Disabled Teen 14-15,No,58.7,95,100,102.5,,102.5,55,62.5,-65,,62.5,130,142.5,-147.5,,142.5,307.5
1,60,Sergey Otev,Сергей Отев,1992-12-20,M,SBD,Wraps,Disabled Teen 18-19,No,60,95,100,-105,,100,60,65,72.5,,72.5,147.5,157.5,160,,160,332.5
1,75,Dmitriy Ivanov #3,Дмитрий Иванов,1989-08-14,M,SBD,Wraps,Disabled Juniors 20-23,No,67.7,92.5,97.5,102.5,,102.5,75,77.5,-80,,77.5,160,170,-172.5,,170,350
2,75,Aleksey Uymin,Алексей Уймин,1990-02-15,M,SBD,Wraps,Disabled Juniors 20-23,No,73.4,100,105,110,,110,80,85,-90,,85,130,140,-150,,140,335
1,75,Pavel Chushkin,Павел Чушкин,1987-05-14,M,SBD,Wraps,Disabled Open,No,72.3,100,-110,-112.5,,100,102.5,105,-107.5,,105,170,175,180,,180,385
2,75,Aleksey Knyazkin,Алексей Князькин,1987-05-18,M,SBD,Wraps,Disabled Open,No,71.5,115,-125,-125,,115,90,-95,95,,95,140,150,-160,,150,360
1,75,Nikita Zhelev,Никита Желев,1994-08-30,M,SBD,Wraps,Disabled Teen 18-19,No,70.5,95,100,-105,,100,75,82.5,87.5,,87.5,-145,150,,,150,337.5
1,82.5,Pavel Zubov,Павел Зубов,1990-03-04,M,SBD,Wraps,Disabled Juniors 20-23,No,78,-162.5,162.5,170,,170,95,100,-102.5,,100,175,185,-192.5,,185,455
1,82.5,Kirill Isaev,Кирилл Исаев,1987-06-01,M,SBD,Wraps,Disabled Open,No,80,120,130,-140,,130,85,92.5,-100,,92.5,130,150,160,,160,382.5
2,82.5,Andrey Gusev,Андрей Гусев,1987-05-09,M,SBD,Wraps,Disabled Open,No,78.1,95,102.5,-107.5,,102.5,75,77.5,-80,,77.5,125,130,137.5,,137.5,317.5
1,82.5,Petr Borodinov,Петр Бородинов,1994-09-03,M,SBD,Wraps,Disabled Teen 18-19,No,76.9,120,125,-130,,125,95,-100,-100,,95,175,180,-185,,180,400
1,90,Vladimir Nagalyuk,Владимир Нагалюк,1951-09-21,M,SBD,Wraps,Disabled Masters 60-64,No,87,-140,140,150,,150,70,75,77.5,,77.5,170,180,185,,185,412.5
1,90,Vladimir Nagalyuk,Владимир Нагалюк,1951-09-21,M,SBD,Wraps,Disabled Open,No,87,-140,140,150,,150,70,75,77.5,,77.5,170,180,185,,185,412.5
2,90,Viktor Ananin,Виктор Ананьин,1988-08-27,M,SBD,Wraps,Disabled Open,No,88,115,-120,120,,120,70,85,-90,,85,160,172.5,-192.5,,172.5,377.5
3,90,Ivan Kukoba,Иван Кукоба,1986-04-04,M,SBD,Wraps,Disabled Open,No,83,80,,,,80,80,-87.5,-87.5,,80,120,145,150,,150,310
4,90,Evgeniy Tambovtsev,Евгений Тамбовцев,1984-11-08,M,SBD,Wraps,Disabled Open,No,82.7,65,72.5,80,,80,55,60,-65,,60,100,125,145,,145,285
1,100,Andrey Ladeyshchikov,Андрей Ладейщиков,1984-10-27,M,SBD,Wraps,Disabled Open,No,94,180,190,195,,195,120,127.5,132.5,,132.5,205,222.5,230,,230,557.5
1,110,Evgeniy Byzov,Евгений Бызов,1970-10-06,M,SBD,Wraps,Disabled Open,No,101.8,150,170,-185,,170,100,-110,-115,,100,150,175,-190,,175,445
2,110,Sergey Mikushin,Сергей Микушин,1984-01-20,M,SBD,Wraps,Disabled Open,No,102.5,120,132.5,140,,140,102.5,-107.5,107.5,,107.5,150,160,170,,170,417.5
1,52,Agnessa Antipova,Агнесса Антипова,1988-03-09,F,B,Multi-ply,Pro Open,No,51.5,,,,,,-110,110,-117.5,,110,,,,,,110
1,52,Semen Paley,Семен Палей,1999-04-14,M,B,Multi-ply,Pro Teen 13,No,52,,,,,,77.5,80,-87.5,,80,,,,,,80
1,67.5,Oleg Mironov,Олег Миронов,1970-10-28,M,B,Multi-ply,Pro Masters 40-44,No,65.4,,,,,,-165,165,175,-187.5,175,,,,,,175
1,75,Denis Alypov,Денис Алыпов,1992-09-22,M,B,Multi-ply,Pro Juniors 20-23,No,75,,,,,,230,240,-250,,240,,,,,,240
2,75,Vladimir Ubeyvolk,Владимир Убейволк,1992-08-12,M,B,Multi-ply,Pro Juniors 20-23,No,73.4,,,,,,180,-192.5,-192.5,,180,,,,,,180
DQ,75,Evgeniy Gansh,Евгений Ганш,1992-04-10,M,B,Multi-ply,Pro Juniors 20-23,No,72.9,,,,,,-190,-195,-195,,,,,,,,
1,75,Maksim Popov #4,Максим Попов,1979-09-18,M,B,Multi-ply,Pro Open,No,74.5,,,,,,190,-205,-210,,190,,,,,,190
2,75,Ruslan Allayarov,Руслан Аллаяров,1978-01-30,M,B,Multi-ply,Pro Open,No,73.4,,,,,,-175,175,180,,180,,,,,,180
1,82.5,Dmitriy Ovcharov,Дмитрий Овчаров,1989-06-04,M,B,Multi-ply,Pro Juniors 20-23,No,82.4,,,,,,215,-225,-230,,215,,,,,,215
1,82.5,Artem Bykhovets,Артем Быховец,1983-07-19,M,B,Multi-ply,Pro Open,No,82.3,,,,,,220,-232.5,-235,,220,,,,,,220
2,82.5,Maksim Sharonov,Максим Шаронов,1982-02-25,M,B,Multi-ply,Pro Open,No,81.3,,,,,,190,205,217.5,,217.5,,,,,,217.5
3,82.5,Andrey Miroshnichenko,Андрей Мирошниченко,1975-07-31,M,B,Multi-ply,Pro Open,No,81,,,,,,200,-210,-210,,200,,,,,,200
4,82.5,Yuriy Kornilov,Юрий Корнилов,1981-12-19,M,B,Multi-ply,Pro Open,No,82,,,,,,-185,185,-195,,185,,,,,,185
1,90,Aleksandr Sapozhnikov,Александр Сапожников,1989-03-17,M,B,Multi-ply,Pro Juniors 20-23,No,84,,,,,,180,190,,,190,,,,,,190
2,90,Alisher Duskulov,Алишер Дускулов,1991-04-11,M,B,Multi-ply,Pro Juniors 20-23,No,84,,,,,,-160,160,170,,170,,,,,,170
1,90,Evgeniy Basov,Евгений Басов,1955-02-24,M,B,Multi-ply,Pro Masters 55-59,No,89.3,,,,,,150,163,173,180,173,,,,,,173
1,90,Vladimir Korolchenko,Владимир Корольченко,1950-11-02,M,B,Multi-ply,Pro Masters 60-64,No,84.3,,,,,,135,145,150,,150,,,,,,150
1,90,Evgeniy Nechaev,Евгений Нечаев,1978-02-10,M,B,Multi-ply,Pro Open,No,89.7,,,,,,-300,300,310,,310,,,,,,310
2,90,Aleksey Gasanov,Алексей Гасанов,1982-04-13,M,B,Multi-ply,Pro Open,No,89,,,,,,230,240,250,,250,,,,,,250
3,90,Pavel Tsetsulin,Павел Цецулин,1978-01-12,M,B,Multi-ply,Pro Open,No,89.9,,,,,,220,230,240,,240,,,,,,240
4,90,Evgeniy Aksenov,Евгений Аксенов,1986-08-03,M,B,Multi-ply,Pro Open,No,88.1,,,,,,190,-200,202.5,,202.5,,,,,,202.5
DQ,100,Artur Vayserman,Артур Вайсерман,1991-01-01,M,B,Multi-ply,Pro Juniors 20-23,No,97,,,,,,-225,-225,,,,,,,,,
1,100,Andrey Fadeev,Андрей Фадеев,1970-06-08,M,B,Multi-ply,Pro Masters 40-44,No,100,,,,,,240,-250,-250,,240,,,,,,240
2,100,Aleksandr Oshchepkov,Александр Ощепков,1967-12-08,M,B,Multi-ply,Pro Masters 40-44,No,99.5,,,,,,225,-232.5,-232.5,,225,,,,,,225
3,100,Valeriy Snigirev,Валерий Снигирев,1969-05-07,M,B,Multi-ply,Pro Masters 40-44,No,99,,,,,,215,-225,-225,,215,,,,,,215
DQ,100,Dmitriy Tambovtsev,Дмитрий Тамбовцев,1969-10-24,M,B,Multi-ply,Pro Masters 40-44,No,95.8,,,,,,-260,-270,-280,,,,,,,,
DQ,100,Igor Sergeev,Игорь Сергеев,1966-08-07,M,B,Multi-ply,Pro Masters 45-49,No,96.3,,,,,,-310,-310,-310,,,,,,,,
1,100,Andrey Martemyanov,Андрей Мартемьянов,1961-07-08,M,B,Multi-ply,Pro Masters 50-54,No,99.6,,,,,,205,-210,-210,,205,,,,,,205
1,100,Sergey Konovalov #1,Сергей Коновалов,1987-05-23,M,B,Multi-ply,Pro Open,No,95.8,,,,,,310,320,325.5,,325.5,,,,,,325.5
2,100,Maksim Smirnov,Максим Смирнов,1986-10-25,M,B,Multi-ply,Pro Open,No,99.3,,,,,,225,235,-240,,235,,,,,,235
3,100,Denis Kondrashov,Денис Кондрашов,1976-03-30,M,B,Multi-ply,Pro Open,No,97.8,,,,,,-225,225,230,,230,,,,,,230
4,100,Anatoliy Sedelnikov,Анатолий Седельников,1974-11-17,M,B,Multi-ply,Pro Open,No,99.1,,,,,,195,205,210,,210,,,,,,210
DQ,100,Stanislav Kulikov,Станислав Куликов,1978-11-29,M,B,Multi-ply,Pro Open,No,91.1,,,,,,-200,-200,-205,,,,,,,,
DQ,100,Dmitriy Tambovtsev,Дмитрий Тамбовцев,1969-10-24,M,B,Multi-ply,Pro Open,No,95.8,,,,,,-260,-270,-280,,,,,,,,
DQ,100,Igor Sergeev,Игорь Сергеев,1966-08-07,M,B,Multi-ply,Pro Open,No,96.3,,,,,,-310,-310,-310,,,,,,,,
DQ,100,Egor Koykov,Егор Койков,1985-03-27,M,B,Multi-ply,Pro Open,No,99.1,,,,,,-300,-305,-305,,,,,,,,
1,110,Dmitriy Sorokin,Дмитрий Сорокин,1971-03-22,M,B,Multi-ply,Pro Masters 40-44,No,108.4,,,,,,270,-290,-290,,270,,,,,,270
1,110,Andrey Paley,Андрей Палей,1961-10-11,M,B,Multi-ply,Pro Masters 50-54,No,109.9,,,,,,-320,320,-330,,320,,,,,,320
1,110,Alexander Maksimushkin,Александр Максимушкин,1950-11-03,M,B,Multi-ply,Pro Masters 60-64,No,110,,,,,,-215,215,,,215,,,,,,215
1,110,Andrey Paley,Андрей Палей,1961-10-11,M,B,Multi-ply,Pro Open,No,109.9,,,,,,-320,320,-330,,320,,,,,,320
2,110,Konstantin Motov,Константин Мотов,1986-11-03,M,B,Multi-ply,Pro Open,No,107.9,,,,,,-260,260,-277.5,,260,,,,,,260
3,110,Ivan Klinov,Иван Клинов,1987-02-08,M,B,Multi-ply,Pro Open,No,106.5,,,,,,250,-262.5,-262.5,,250,,,,,,250
4,110,Yuriy Chernousov,Юрий Черноусов,1985-05-27,M,B,Multi-ply,Pro Open,No,108.9,,,,,,200,220,-232.5,,220,,,,,,220
DQ,110,Konstantin Otavin,Константин Отавин,1973-11-25,M,B,Multi-ply,Pro Open,No,104,,,,,,-315,-315,-330,,,,,,,,
DQ,110,Eduard Khaliullin,Эдуард Халиуллин,1973-05-22,M,B,Multi-ply,Pro Open,No,107.4,,,,,,-290,-305,-305,,,,,,,,
1,110,Aleksandr Zhukov,Александр Жуков,1993-03-23,M,B,Multi-ply,Pro Teen 18-19,No,107.5,,,,,,190,-202.5,202.5,,202.5,,,,,,202.5
1,125,Yuriy Sufimov,Юрий Суфимов,1970-04-20,M,B,Multi-ply,Pro Masters 40-44,No,117.2,,,,,,295,-310,-310,,295,,,,,,295
1,125,Nikolay Pyshmintsev,Николай Пышминцев,1981-01-04,M,B,Multi-ply,Pro Open,No,122.9,,,,,,320,-360,-360,,320,,,,,,320
2,125,Dmitriy Khanykov,Дмитрий Ханыков,1983-12-02,M,B,Multi-ply,Pro Open,No,115.4,,,,,,-295,295,-305,,295,,,,,,295
3,125,Yuriy Sufimov,Юрий Суфимов,1970-04-20,M,B,Multi-ply,Pro Open,No,117.2,,,,,,295,-310,-310,,295,,,,,,295
4,125,Kanat Islamov,Канат Исламов,1983-02-23,M,B,Multi-ply,Pro Open,No,115.5,,,,,,260,-270,275,,275,,,,,,275
5,125,Sergey Yachmenev,Сергей Ячменев,1978-11-25,M,B,Multi-ply,Pro Open,No,114.9,,,,,,260,-280,-280,,260,,,,,,260
1,140,Vladimir Maksimov,Владимир Максимов,1966-06-07,M,B,Multi-ply,Pro Masters 45-49,No,135.3,,,,,,390,-410,-420,,390,,,,,,390
1,140,Vladimir Maksimov,Владимир Максимов,1966-06-07,M,B,Multi-ply,Pro Open,No,135.3,,,,,,390,-410,-420,,390,,,,,,390
2,140,Maksim Shabanov,Максим Шабанов,1980-12-08,M,B,Multi-ply,Pro Open,No,127.1,,,,,,270,-290,300,,300,,,,,,300
1,52,Nadezhda Reutova,Надежда Реутова,1993-01-30,F,B,Multi-ply,Amateur Teen 18-19,Yes,51.6,,,,,,90,100,-102.5,,100,,,,,,100
1,60,Mariya Berezenko,Мария Березенко,1989-06-15,F,B,Multi-ply,Amateur Juniors 20-23,Yes,59.4,,,,,,-90,90,100,,100,,,,,,100
DQ,60,Olga Knyazeva,Ольга Князева,1972-05-01,F,B,Multi-ply,Amateur Masters 40-44,Yes,59.5,,,,,,-75,-75,-75,,,,,,,,
1,60,Kseniya Shershen,Ксения Шершень,1985-04-26,F,B,Multi-ply,Amateur Open,Yes,59.6,,,,,,75,-82.5,82.5,,82.5,,,,,,82.5
2,60,Anna Burylova,Анна Бурылова,1986-07-08,F,B,Multi-ply,Amateur Open,Yes,57.8,,,,,,-80,-80,80,,80,,,,,,80
DQ,90,Larisa Semenova,Лариса Семенова,1962-01-31,F,B,Multi-ply,Amateur Masters 50-54,Yes,84.9,,,,,,-97.5,-107.5,-107.5,,,,,,,,
1,44,Pavel Nekrasov,Павел Некрасов,2001-07-22,M,B,Multi-ply,Amateur Teen 13,Yes,38.4,,,,,,37.5,42.5,-47.5,,42.5,,,,,,42.5
1,56,Boris Anferov,Борис Анферов,1983-07-19,M,B,Multi-ply,Amateur Open,Yes,55.7,,,,,,-120,-120,125,,125,,,,,,125
1,67.5,Anton Mogilevskiy,Антон Могилевский,1991-03-10,M,B,Multi-ply,Amateur Juniors 20-23,Yes,66.6,,,,,,-165,165,-170,,165,,,,,,165
1,67.5,Dmitriy Matosyan,Дмитрий Матосян,1976-04-02,M,B,Multi-ply,Amateur Open,Yes,66,,,,,,160,170,-175,,170,,,,,,170
2,67.5,Sergey Mustafin,Сергей Мустафин,1985-11-01,M,B,Multi-ply,Amateur Open,Yes,67.5,,,,,,-162.5,162.5,-172.5,,162.5,,,,,,162.5
1,67.5,Artem Mikhaylov,Артем Михайлов,1993-01-19,M,B,Multi-ply,Amateur Teen 18-19,Yes,65.8,,,,,,-130,130,-140,,130,,,,,,130
2,67.5,Vladislav Trubin,Владислав Трубин,1993-02-14,M,B,Multi-ply,Amateur Teen 18-19,Yes,65.3,,,,,,100,-110,110,,110,,,,,,110
1,75,Dmitriy Prelovskiy,Дмитрий Преловский,1989-11-29,M,B,Multi-ply,Amateur Juniors 20-23,Yes,74.8,,,,,,150,-157.5,157.5,,157.5,,,,,,157.5
1,75,Valeriy Trubin,Валерий Трубин,1968-06-22,M,B,Multi-ply,Amateur Masters 40-44,Yes,70.3,,,,,,180,-190,190,,190,,,,,,190
1,75,Ilya Ilinykh,Илья Ильиных,1977-03-29,M,B,Multi-ply,Amateur Open,Yes,74.5,,,,,,155,-165,165,,165,,,,,,165
2,75,Mikhail Rybin,Михаил Рыбин,1979-09-10,M,B,Multi-ply,Amateur Open,Yes,74.2,,,,,,150,-162.5,-165,,150,,,,,,150
3,75,Ilya Alekseev,Илья Алексеев,1981-09-18,M,B,Multi-ply,Amateur Open,Yes,73.6,,,,,,-130,130,137.5,,137.5,,,,,,137.5
DQ,75,Anton Vershinin,Антон Вершинин,1981-06-09,M,B,Multi-ply,Amateur Open,Yes,68.6,,,,,,-150,-150,-150,,,,,,,,
1,82.5,Garma Bazarov,Гарма Базаров,1971-08-31,M,B,Multi-ply,Amateur Masters 40-44,Yes,81.6,,,,,,150,160,-170,,160,,,,,,160
1,82.5,Batmunkh Gunchinsuren,Батмунх Гунчинсурэн,1964-09-26,M,B,Multi-ply,Amateur Masters 45-49,Yes,81,,,,,,115,-120,120,,120,,,,,,120
1,82.5,Aleksey Popov #12,Алексей Попов,1983-02-27,M,B,Multi-ply,Amateur Open,Yes,82.5,,,,,,225,-245,-245,,225,,,,,,225
2,82.5,Nikolay Maslov,Николай Маслов,,M,B,Multi-ply,Amateur Open,Yes,81.5,,,,,,210,-217.5,-225,,210,,,,,,210
3,82.5,Andrey Veselov,Андрей Веселов,1975-11-11,M,B,Multi-ply,Amateur Open,Yes,81,,,,,,-180,180,195,,195,,,,,,195
4,82.5,Ivan Demidenko,Иван Демиденко,1976-12-20,M,B,Multi-ply,Amateur Open,Yes,82.3,,,,,,195,-200,-200,,195,,,,,,195
5,82.5,Dmitriy Krasilnikov,Дмитрий Красильников,1987-11-02,M,B,Multi-ply,Amateur Open,Yes,77.7,,,,,,-160,170,-175,,170,,,,,,170
6,82.5,Evgeniy Kolymagin,Евгений Колымагин,1987-05-19,M,B,Multi-ply,Amateur Open,Yes,79.8,,,,,,160,170,-177.5,-177.5,170,,,,,,170
1,90,Denis Bunchuk,Денис Бунчук,1989-07-09,M,B,Multi-ply,Amateur Juniors 20-23,Yes,88.9,,,,,,-220,220,-230,,220,,,,,,220
2,90,Ruslan Valitov,Руслан Валитов,1992-02-27,M,B,Multi-ply,Amateur Juniors 20-23,Yes,89,,,,,,-150,-150,150,,150,,,,,,150
1,90,Evgeniy Svoboda,Евгений Свобода,1972-03-23,M,B,Multi-ply,Amateur Masters 40-44,Yes,89,,,,,,165,-180,180,,180,,,,,,180
1,90,Vladimir Kolmakov,Владимир Колмаков,1965-09-27,M,B,Multi-ply,Amateur Masters 45-49,Yes,87.7,,,,,,175,-182.5,182.5,,182.5,,,,,,182.5
1,90,Vyacheslav Yakushov,Вячеслав Якушов,1941-09-01,M,B,Multi-ply,Amateur Masters 70-74,Yes,83.5,,,,,,-110,110,115,,115,,,,,,115
1,90,Viktor Mistratov,Виктор Мистратов,1981-02-10,M,B,Multi-ply,Amateur Open,Yes,89.2,,,,,,250,-260,260,-275,260,,,,,,260
2,90,Mikhail Kadochnikov,Михаил Кадочников,1980-10-18,M,B,Multi-ply,Amateur Open,Yes,88.3,,,,,,220,-230,,,220,,,,,,220
3,90,Artem Akhkyamov,Артем Ахкямов,1986-09-01,M,B,Multi-ply,Amateur Open,Yes,89,,,,,,160,-180,-180,,160,,,,,,160
1,100,Ilya Selivanov,Илья Селиванов,1989-03-02,M,B,Multi-ply,Amateur Juniors 20-23,Yes,94.4,,,,,,165,180,-192.5,,180,,,,,,180
1,100,Vasiliy Synkov,Василий Сынков,1972-09-07,M,B,Multi-ply,Amateur Masters 40-44,Yes,97.1,,,,,,225,235,242.5,,242.5,,,,,,242.5
2,100,Aleksandr Belyaev,Александр Беляев,1972-09-29,M,B,Multi-ply,Amateur Masters 40-44,Yes,99.4,,,,,,222.5,-227.5,-227.5,,222.5,,,,,,222.5
3,100,Sergey Sapozhnikov,Сергей Сапожников,1969-08-06,M,B,Multi-ply,Amateur Masters 40-44,Yes,94.3,,,,,,-210,210,-220,,210,,,,,,210
DQ,100,Aleksandr Terentyev,Александр Терентьев,1969-02-15,M,B,Multi-ply,Amateur Masters 40-44,Yes,99,,,,,,-225,-225,-225,,,,,,,,
1,100,Valeriy Kazhaev,Валерий Кажаев,1963-05-01,M,B,Multi-ply,Amateur Masters 45-49,Yes,96.2,,,,,,190,200,210,,210,,,,,,210
1,100,Viktor Pozdnyakov,Виктор Поздняков,1958-12-12,M,B,Multi-ply,Amateur Masters 50-54,Yes,98.9,,,,,,210,222.5,-230,,222.5,,,,,,222.5
DD,100,Andrey Dobryakov,Андрей Добряков,1975-04-27,M,B,Multi-ply,Amateur Open,Yes,97.7,,,,,,230,-237.5,237.5,,237.5,,,,,,
1,100,Aleksandr Baranov,Александр Баранов,1985-11-19,M,B,Multi-ply,Amateur Open,Yes,98.7,,,,,,230,-237.5,-237.5,,230,,,,,,230
2,100,Aleksandr Belyaev,Александр Беляев,1972-09-29,M,B,Multi-ply,Amateur Open,Yes,99.4,,,,,,222.5,-227.5,-227.5,,222.5,,,,,,222.5
3,100,Artem Mishlanov,Артем Мишланов,1986-09-01,M,B,Multi-ply,Amateur Open,Yes,98.7,,,,,,210,-222.5,-222.5,,210,,,,,,210
4,100,Vadim Dostovalov,Вадим Достовалов,1978-08-10,M,B,Multi-ply,Amateur Open,Yes,98,,,,,,-205,-205,205,,205,,,,,,205
5,100,Denis Semenov,Денис Семенов,1974-04-27,M,B,Multi-ply,Amateur Open,Yes,100,,,,,,-200,-200,200,,200,,,,,,200
6,100,Oleg Fedulov,Олег Федулов,1985-09-19,M,B,Multi-ply,Amateur Open,Yes,99,,,,,,-165,-165,165,,165,,,,,,165
DQ,100,Aleksey Melnik,Алексей Мельник,1977-07-17,M,B,Multi-ply,Amateur Open,Yes,98.9,,,,,,-255,-260,-260,,,,,,,,
DQ,100,Aleksandr Terentyev,Александр Терентьев,1969-02-15,M,B,Multi-ply,Amateur Open,Yes,99,,,,,,-225,-225,-225,,,,,,,,
DQ,100,Nikolay Drozhzhilov,Николай Дрожжилов,1986-08-28,M,B,Multi-ply,Amateur Open,Yes,97.2,,,,,,-185,-192.5,-192.5,,,,,,,,
1,110,Salman Shamkhalov,Салман Шамхалов,1952-08-29,M,B,Multi-ply,Amateur Masters 60-64,Yes,108.5,,,,,,175,185,-192.5,,185,,,,,,185
1,110,Aleksandr Nurutdinov,Александр Нурутдинов,1983-05-13,M,B,Multi-ply,Amateur Open,Yes,105.5,,,,,,225,-235,235,,235,,,,,,235
DQ,110,Vladislav Myasnikov,Владислав Мясников,1983-12-04,M,B,Multi-ply,Amateur Open,Yes,104.5,,,,,,-202.5,-202.5,-202.5,,,,,,,,
DQ,125,Sergey Kharlamov,Сергей Харламов,1969-04-09,M,B,Multi-ply,Amateur Masters 40-44,Yes,115.4,,,,,,-260,-270,-270,,,,,,,,
1,125,Pavel Yagovkin,Павел Яговкин,1959-07-27,M,B,Multi-ply,Amateur Masters 50-54,Yes,118.9,,,,,,-250,250,262.5,,262.5,,,,,,262.5
1,125,Vladimir Kiselev,Владимир Киселев,1977-03-15,M,B,Multi-ply,Amateur Open,Yes,122,,,,,,240,250,-255,,250,,,,,,250
DQ,125,Aleksandr Kvasnikov,Александр Квасников,1987-04-07,M,B,Multi-ply,Amateur Open,Yes,112.2,,,,,,-240,-240,-240,,,,,,,,
1,140,Oleg Melentev,Олег Мелентьев,1972-07-05,M,B,Multi-ply,Amateur Masters 40-44,Yes,138.1,,,,,,240,-257.5,257.5,,257.5,,,,,,257.5
2,140,Sergey Frolkov,Сергей Фролков,1969-10-04,M,B,Multi-ply,Amateur Masters 40-44,Yes,129.4,,,,,,235,245,-257.5,,245,,,,,,245
1,140,Andrey Kutlyaev,Андрей Кутляев,1984-11-06,M,B,Multi-ply,Amateur Open,Yes,138.5,,,,,,285,296,303.5,,303.5,,,,,,303.5
2,140,Yuriy Polyakov,Юрий Поляков,1982-04-27,M,B,Multi-ply,Amateur Open,Yes,134.8,,,,,,285,295,302.5,-310,302.5,,,,,,302.5
1,140+,Mikhail Nekrasov,Михаил Некрасов,1969-11-19,M,B,Multi-ply,Amateur Masters 40-44,Yes,144.6,,,,,,230,250,-255,,250,,,,,,250
1,140+,Mikhail Nekrasov,Михаил Некрасов,1969-11-19,M,B,Multi-ply,Amateur Open,Yes,144.6,,,,,,230,250,-255,,250,,,,,,250
2,140+,Aleksey Gorbunov,Алексей Горбунов,1979-10-11,M,B,Multi-ply,Amateur Open,Yes,141,,,,,,225,232.5,-240,,232.5,,,,,,232.5
1,75,Pavel Chushkin,Павел Чушкин,1987-05-14,M,B,Multi-ply,Disabled Open,No,72.3,,,,,,-115,115,-120,,115,,,,,,115
DQ,90,Tatyana Merezhko,Татьяна Мережко,1978-07-05,F,SBD,Multi-ply,Pro Open,No,83.5,260,-273,273,,273,-132.5,-132.5,-132.5,,,-200,,,,,
1,82.5,Aleksandr Yushkov,Александр Юшков,1983-04-24,M,D,Multi-ply,Pro Open,No,82,,,,,,,,,,,240,252.5,260,,260,260
1,90,Sergey Nafikov,Сергей Нафиков,,M,D,Multi-ply,Pro Open,No,89.5,,,,,,,,,,,260,280,-297.5,,280,280
1,56,Vladimir Komissarov,Владимир Комиссаров,1994-12-19,M,SBD,Multi-ply,Pro Teen 16-17,No,55.5,185,200,205,,205,100,110,,,110,195,205,-210,,205,520
1,75,Evgeniy Gansh,Евгений Ганш,1992-04-10,M,SBD,Multi-ply,Pro Juniors 20-23,No,72.5,260,-275,-275,,260,-180,180,190,,190,230,247.5,260,,260,710
1,75,Anatoliy Glazunov,Анатолий Глазунов,1972-02-09,M,SBD,Multi-ply,Pro Masters 40-44,No,72.5,270,300,310,,310,170,190,-200,,190,240,260,,,260,760
1,75,Anatoliy Glazunov,Анатолий Глазунов,1972-02-09,M,SBD,Multi-ply,Pro Open,No,72.5,270,300,310,,310,170,190,-200,,190,240,260,,,260,760
DQ,75,Igor Povazhnyuk,Ігор Поважнюк,1974-12-21,M,SBD,Multi-ply,Pro Open,No,74.4,-300,-300,-300,,,175,,,,175,255,,,,255,
DQ,75,Ilya Kokorev,Илья Кокорев,1973-01-19,M,SBD,Multi-ply,Pro Open,No,74.6,310,-330,-330,,310,-235,-235,-235,,,260,,,,260,
1,75,Arseniy Akhlestin,Арсений Ахлестин,1995-04-11,M,SBD,Multi-ply,Pro Teen 16-17,No,73.4,165,175,190,,190,100,105,107.5,,107.5,150,165,180,,180,477.5
1,82.5,Viktor Shmatkov,Виктор Шматков,1982-11-05,M,SBD,Multi-ply,Pro Open,No,79.6,170,190,210,,210,150,-160,160,,160,170,190,210,,210,580
1,82.5,Grigoriy Borodin,Григорий Бородин,1994-08-03,M,SBD,Multi-ply,Pro Teen 18-19,No,82.3,-260,260,-270,,260,125,135,-145,,135,225,240,-252.5,,240,635
1,90,Vladislav Filipovich,Владислав Филипович,1991-01-28,M,SBD,Multi-ply,Pro Juniors 20-23,No,89.1,340,352,370,,370,212.5,220,-225,,220,285,295,310,,310,900
1,90,Vladislav Filipovich,Владислав Филипович,1991-01-28,M,SBD,Multi-ply,Pro Open,No,89.1,340,352,370,,370,212.5,220,-225,,220,285,295,310,,310,900
2,90,Sergey Nafikov,Сергей Нафиков,,M,SBD,Multi-ply,Pro Open,No,89.5,240,255,270,,270,140,160,170,,170,260,280,-297.5,,280,720
DQ,90,Sergey Galanin,Сергей Галанин,1984-03-02,M,SBD,Multi-ply,Pro Open,No,88.9,210,,,,210,152.5,,,,152.5,210,,,,210,
1,90,Aleksandr Brodyagin,Александр Бродягин,1994-03-27,M,SBD,Multi-ply,Pro Teen 18-19,No,88.7,275,280,-285,,280,200,-210,-210,,200,240,-255,-270,,240,720
2,90,Andrey Trusov,Андрей Трусов,1993-03-19,M,SBD,Multi-ply,Pro Teen 18-19,No,86.8,230,250,-265,,250,150,162.5,-167.5,,162.5,210,242.5,-250,,242.5,655
1,100,Artem Reshetnikov,Артем Решетников,1989-06-08,M,SBD,Multi-ply,Pro Juniors 20-23,No,97.9,230,260,-275,,260,-170,170,190,,190,230,245,252.5,,252.5,702.5
2,100,Evgeniy Naumov,Евгений Наумов,1992-03-01,M,SBD,Multi-ply,Pro Juniors 20-23,No,95.5,250,275,290,,290,-160,160,-170,,160,200,215,-230,,215,665
DQ,100,Nikita Skvortsov,Никита Скворцов,1990-02-15,M,SBD,Multi-ply,Pro Juniors 20-23,No,95.7,-280,-280,-280,,,180,,,,180,275,,,,275,
1,100,Vladimir Kopchuk,Владимир Копчук,1957-03-23,M,SBD,Multi-ply,Pro Masters 55-59,No,93.1,240,265,275,,275,150,160,-170,,160,200,220,242.5,,242.5,677.5
1,100,Ivan Vasyunin,Иван Васюнин,1983-08-01,M,SBD,Multi-ply,Pro Open,No,97,360,370,375,,375,-290,290,302.5,,302.5,300,317.5,325,,325,1002.5
2,100,Rustam Mukhametzhanov,Рустам Мухаметжанов,1987-03-24,M,SBD,Multi-ply,Pro Open,No,99,330,-350,-350,,330,210,220,-225,,220,300,-315,-330,,300,850
3,100,Aleksandr Dorokhov,Александр Дорохов,1983-03-13,M,SBD,Multi-ply,Pro Open,No,96.8,310,320,-330,,320,-180,-180,180,,180,260,-275,-275,,260,760
1,110,Aleksandr Kopytov,Александр Копытов,1990-03-05,M,SBD,Multi-ply,Pro Juniors 20-23,No,104,220,230,-250,,230,160,175,-190,,175,200,215,225,,225,630
1,110,Vladimir Ladeyshchikov,Владимир Ладейщиков,1967-08-21,M,SBD,Multi-ply,Pro Masters 45-49,No,108.7,300,310,320,,320,170,180,,,180,290,310,-322.5,,310,810
1,110,Aleksey Vorotyntsev,Алексей Воротынцев,1977-05-21,M,SBD,Multi-ply,Pro Open,No,110,280,290,300,,300,205,-215,-215,,205,280,290,-300,,290,795
1,110,Pavel Kunievskiy,Павел Куниевский,1994-07-19,M,SBD,Multi-ply,Pro Teen 18-19,No,104.7,235,250,265,,265,110,115,125,,125,200,212.5,230,,230,620
1,125,Ruslan Akhmetov,Руслан Ахметов,1960-04-11,M,SBD,Multi-ply,Pro Masters 50-54,No,114.1,280,290,300,,300,170,200,-210,,200,200,,,,200,700
1,125,Mikhail Glazunov,Михаил Глазунов,1974-02-09,M,SBD,Multi-ply,Pro Open,No,121,360,390,420,,420,250,-270,-280,,250,350,375,-405,,375,1045
2,125,Artem Stepanenko,Артем Степаненко,1981-11-20,M,SBD,Multi-ply,Pro Open,No,115.8,320,340,352.5,,352.5,200,210,217.5,,217.5,260,280,-300,,280,850
3,125,Andrey Gurov,Андрей Гуров,1983-03-22,M,SBD,Multi-ply,Pro Open,No,112.3,190,220,-240,,220,140,150,160,,160,190,215,230,,230,610
DQ,125,Vyacheslav Sushin,Вячеслав Сушин,,M,SBD,Multi-ply,Pro Open,No,124.6,-240,-240,-240,,,180,,,,180,220,,,,220,
1,56,Veronika Galiakbarova,Вероника Галиакбарова,1989-06-14,F,SBD,Multi-ply,Amateur Juniors 20-23,Yes,55.7,140,145,150,,150,72.5,75,80,,80,135,145,,,145,375
1,56,Anastasiya Noskova,Анастасия Носкова,1984-02-14,F,D,Multi-ply,Amateur Open,Yes,54.5,,,,,,,,,,,122.5,127.5,132.5,,132.5,132.5
1,75,Sergey Kopchenov,Сергей Копченов,1993-09-16,M,S,Multi-ply,Amateur Teen 18-19,Yes,72.7,-210,230,-242.5,,230,,,,,,,,,,,230
1,90,Evgeniy Svoboda,Евгений Свобода,1972-03-23,M,S,Multi-ply,Amateur Masters 40-44,Yes,89.1,-225,225,250,,250,,,,,,,,,,,250
1,100,Vladimir Potapov,Владимир Потапов,1954-05-22,M,S,Multi-ply,Amateur Masters 55-59,Yes,94,200,220,235,,235,,,,,,,,,,,235
1,90,Evgeniy Svoboda,Евгений Свобода,1972-03-23,M,D,Multi-ply,Amateur Masters 40-44,Yes,89.1,,,,,,,,,,,200,235,-252.5,,235,235
1,52,Evgeniy Eremenko,Евгений Еременко,1997-10-15,M,SBD,Multi-ply,Amateur Teen 14-15,Yes,48.7,60,70,-90,,70,45,-55,-55,,45,70,80,-85,,80,195
1,60,Denis Prokhorov,Денис Прохоров,1997-06-17,M,SBD,Multi-ply,Amateur Teen 14-15,Yes,59.8,150,165,180,190,180,80,-90,90,,90,150,-160,-160,,150,420
1,67.5,Arsentiy Shishkin,Арсентий Шишкин,1939-05-02,M,SBD,Multi-ply,Amateur Masters 70-74,Yes,66.6,150,-170,190,,190,70,80,,,80,160,175,-182.5,,175,445
1,67.5,Rustam Musaev,Рустам Мусаев,1978-09-08,M,SBD,Multi-ply,Amateur Open,Yes,67.5,-250,250,-265,,250,65,,,,65,230,-246,-247,,230,545
1,67.5,Eduard Zamiralov,Эдуард Замиралов,1998-02-17,M,SBD,Multi-ply,Amateur Teen 14-15,Yes,65.8,160,-175,-180,,160,85,-95,95,,95,150,-160,-160,,150,405
1,75,Aleksandr Miranovich,Александр Миранович,1986-10-23,M,SBD,Multi-ply,Amateur Open,Yes,75,200,220,225,,225,140,145,,,145,160,180,200,,200,570
1,75,Vadim Panyakin,Вадим Панякин,1998-11-19,M,SBD,Multi-ply,Amateur Teen 13,Yes,72.6,175,190,201,,201,95,105,-112.5,,105,152.5,166,170,,170,476
1,75,Sergey Kopchenov,Сергей Копченов,1993-09-16,M,SBD,Multi-ply,Amateur Teen 18-19,Yes,72.7,-210,230,-242.5,,230,125,135,140,,140,200,-220,,,200,570
1,82.5,Konstantin Bazhin,Константин Бажин,1967-07-26,M,SBD,Multi-ply,Amateur Masters 45-49,Yes,77.5,190,205,210,,210,125,-132.5,132.5,,132.5,180,200,205,,205,547.5
1,82.5,Vyacheslav Piskalov,Вячеслав Пискалов,1958-10-23,M,SBD,Multi-ply,Amateur Masters 50-54,Yes,81,-260,260,,,260,115,125,,,125,215,230,-240,,230,615
1,82.5,Evgeniy Baranov,Евгений Баранов,1972-12-03,M,SBD,Multi-ply,Amateur Open,Yes,77.2,-280,280,300,,300,190,-200,200,,200,230,250,,,250,750
2,82.5,Vasiliy Rozhkov,Василий Рожков,1986-03-30,M,SBD,Multi-ply,Amateur Open,Yes,79.9,-220,220,230,,230,130,137.5,140,,140,190,205,215,,215,585
3,82.5,Rinat Galeev,Ринат Галеев,1974-03-28,M,SBD,Multi-ply,Amateur Open,Yes,82,190,210,225,,225,120,130,137.5,,137.5,170,190,-210,,190,552.5
1,82.5,Mikhail Vysotskiy,Михаил Высоцкий,1996-06-24,M,SBD,Multi-ply,Amateur Teen 16-17,Yes,82.4,230,-250,-250,,230,130,-140,140,,140,160,180,-185,,180,550
1,90,Evgeniy Svoboda,Евгений Свобода,1972-03-23,M,SBD,Multi-ply,Amateur Masters 40-44,Yes,89.1,-225,225,250,,250,165,175,,,175,200,235,-252.5,,235,660
1,90,Vyacheslav Korovin,Вячеслав Коровин,1967-04-26,M,SBD,Multi-ply,Amateur Masters 45-49,Yes,85.3,240,250,-260,,250,140,145,150,,150,202.5,-207.5,,,202.5,602.5
1,90,Vyacheslav Yakushov,Вячеслав Якушов,1941-09-01,M,SBD,Multi-ply,Amateur Masters 70-74,Yes,83.5,175,-185,185,,185,110,117.5,120,,120,180,195,200,,200,505
1,90,Evgeniy Golovanov,Евгений Голованов,1987-07-18,M,SBD,Multi-ply,Amateur Open,Yes,90,245,-265,-265,,245,-150,150,-165,,150,240,255,-262.5,,255,650
2,90,Sergey Galanin,Сергей Галанин,1984-03-02,M,SBD,Multi-ply,Amateur Open,Yes,89.9,-210,220,240,,240,152.5,160,170,,170,217.5,232.5,-240,,232.5,642.5
3,90,Evgeniy Gorelov,Евгений Горелов,1984-09-20,M,SBD,Multi-ply,Amateur Open,Yes,90,240,260,270,,270,100,105,,,105,240,260,265,,265,640
1,100,Sergey Olisov,Сергей Олисов,1992-06-10,M,SBD,Multi-ply,Amateur Juniors 20-23,Yes,93.2,-300,-300,300,-330,300,200,210,220,,220,260,280,,,280,800
2,100,Sergey Glazkov,Сергей Глазков,1992-07-21,M,SBD,Multi-ply,Amateur Juniors 20-23,Yes,99.8,300,-330,-330,,300,170,185,-200,,185,220,232.5,-235,,232.5,717.5
1,100,Pavel Galayda,Павел Галайда,1968-06-03,M,SBD,Multi-ply,Amateur Masters 40-44,Yes,100,215,235,-250,-255,235,170,185,-200,,185,230,250,270,,270,690
1,100,Igor Nikulin,Игорь Никулин,1960-06-27,M,SBD,Multi-ply,Amateur Masters 50-54,Yes,97.6,180,192.5,-202.5,,192.5,100,105,110,,110,160,170,175,,175,477.5
1,100,Vladimir Potapov,Владимир Потапов,1954-05-22,M,SBD,Multi-ply,Amateur Masters 55-59,Yes,94,200,220,235,,235,140,150,160,,160,170,185,195,,195,590
1,100,Sergey Olisov,Сергей Олисов,1992-06-10,M,SBD,Multi-ply,Amateur Open,Yes,93.2,-300,-300,300,-330,300,200,210,220,,220,260,280,-310,,280,800
2,100,Sergey Chupakhin,Сергей Чупахин,1988-06-09,M,SBD,Multi-ply,Amateur Open,Yes,95.8,275,295,310,,310,175,-187.5,187.5,,187.5,255,-272.5,272.5,,272.5,770
3,100,Amir Yakhin,Амир Яхин,1985-01-01,M,SBD,Multi-ply,Amateur Open,Yes,91,-300,-300,300,,300,155,165,175,,175,-242.5,-242.5,242.5,,242.5,717.5
1,110,Oleg Pisachenko,Олег Писаченко,1965-11-12,M,SBD,Multi-ply,Amateur Masters 45-49,Yes,106,-300,300,,,300,200,210,,,210,240,260,-270,,260,770
1,110,Andrey Zapylikhin,Андрей Запылихин,1960-09-07,M,SBD,Multi-ply,Amateur Masters 50-54,Yes,109.1,-280,280,300,,300,210,-220,220,,220,230,250,,,250,770
DD,110,Aleksandr Chuev,Александр Чуев,,M,SBD,Multi-ply,Amateur Open,Yes,105,340,355,,,355,-220,-220,220,,220,270,280,287,,287,
1,110,Aleksandr Nurutdinov,Александр Нурутдинов,1983-05-13,M,SBD,Multi-ply,Amateur Open,Yes,105.9,280,300,-320,-320,300,220,230,235,,235,250,265,-270,,265,800
1,82.5,Pavel Zubov,Павел Зубов,1990-03-04,M,S,Multi-ply,Disabled Juniors 20-23,No,78,200,215,-225,,215,,,,,,,,,,,215
DQ,75,Nikita Zhelev,Никита Желев,1994-08-30,M,SBD,Multi-ply,Disabled Teen 18-19,No,70.5,-177.5,-177.5,,,,,,,,,,,,,,
1,90,Vladimir Nagalyuk,Владимир Нагалюк,1951-09-21,M,SBD,Multi-ply,Disabled Masters 60-64,No,87,110,120,130,,130,60,65,67.5,,67.5,160,170,180,,180,377.5
1,90,Vladimir Nagalyuk,Владимир Нагалюк,1951-09-21,M,SBD,Multi-ply,Disabled Open,No,87,110,120,130,,130,60,65,67.5,,67.5,160,170,180,,180,377.5
1,44,Kristina Dobarina,Кристина Добарина,2000-08-09,F,B,Raw,Pro Teen 13,No,38.5,,,,,,27.5,30,32.5,,32.5,,,,,,32.5
1,60,Yuliya Tatyanina,Юлия Татьянина,1989-02-13,F,B,Raw,Pro Juniors 20-23,No,58.9,,,,,,92.5,95,100,,100,,,,,,100
1,60,Larisa Gvozdeva,Лариса Гвоздева,1965-06-25,F,B,Raw,Pro Masters 45-49,No,59.1,,,,,,80,85,90,,90,,,,,,90
1,60,Yuliya Tatyanina,Юлия Татьянина,1989-02-13,F,B,Raw,Pro Open,No,58.9,,,,,,92.5,95,100,,100,,,,,,100
2,60,Larisa Gvozdeva,Лариса Гвоздева,1965-06-25,F,B,Raw,Pro Open,No,59.1,,,,,,80,85,90,,90,,,,,,90
1,75,Stanislava Amelchenko,Станислава Амельченко,1986-07-30,F,B,Raw,Pro Open,No,74,,,,,,52.5,57.5,60,,60,,,,,,60
1,44,Ilya Repnitsyn,Илья Репницын,2002-04-29,M,B,Raw,Pro Teen 13,No,43.4,,,,,,20,22.5,25,,25,,,,,,25
1,52,Dmitriy Susloparov,Дмитрий Суслопаров,1993-10-01,M,B,Raw,Pro Teen 18-19,No,49,,,,,,70,75,-77.5,,75,,,,,,75
1,60,Ivan Repnitsyn,Иван Репницын,1998-02-27,M,B,Raw,Pro Teen 14-15,No,60,,,,,,30,35,-40,,35,,,,,,35
1,67.5,Aleksey Potapov,Алексей Потапов,1976-10-28,M,B,Raw,Pro Open,No,66.5,,,,,,120,125,127.5,,127.5,,,,,,127.5
2,67.5,Anton Timofeev,Антон Тимофеев,1986-06-01,M,B,Raw,Pro Open,No,66,,,,,,100,110,115,,115,,,,,,115
1,67.5,Grigoriy Pantyukhin,Григорий Пантюхин,1995-07-22,M,B,Raw,Pro Teen 16-17,No,67,,,,,,90,95,-97.5,,95,,,,,,95
2,67.5,Daniil Shkarin,Даниил Шкарин,1995-09-01,M,B,Raw,Pro Teen 16-17,No,66.6,,,,,,90,92.5,-95,,92.5,,,,,,92.5
1,75,Aleksandr Kuzmin,Александр Кузьмин,1989-07-16,M,B,Raw,Pro Juniors 20-23,No,74,,,,,,135,140,142.5,,142.5,,,,,,142.5
1,75,Dmitriy Matveev,Дмитрий Матвеев,1965-08-15,M,B,Raw,Pro Masters 45-49,No,72.6,,,,,,115,117.5,120,,120,,,,,,120
1,75,Georgiy Demenev,Георгий Деменев,1987-01-10,M,B,Raw,Pro Open,No,74.3,,,,,,165,-170,170,,170,,,,,,170
2,75,Anton Chirkov,Антон Чирков,1984-08-13,M,B,Raw,Pro Open,No,71.9,,,,,,110,117.5,122.5,,122.5,,,,,,122.5
1,75,Ivan Badin,Иван Бадьин,1996-03-17,M,B,Raw,Pro Teen 16-17,No,72.2,,,,,,130,135,140,,140,,,,,,140
2,75,Ivan Fokin,Иван Фокин,1995-05-10,M,B,Raw,Pro Teen 16-17,No,74.8,,,,,,100,102.5,107.5,,107.5,,,,,,107.5
3,75,Ruslan Kurteev,Руслан Куртеев,1994-11-01,M,B,Raw,Pro Teen 16-17,No,72.3,,,,,,90,100,-102.5,,100,,,,,,100
1,75,Aleksandr Krinitsyn,Александр Криницын,1993-08-08,M,B,Raw,Pro Teen 18-19,No,74.5,,,,,,150,155,-160,,155,,,,,,155
1,82.5,Ilya Timkin,Илья Тимкин,1992-07-28,M,B,Raw,Pro Juniors 20-23,No,81,,,,,,115,-120,120,,120,,,,,,120
DQ,82.5,Maksim Chirkov,Максим Чирков,1989-02-13,M,B,Raw,Pro Juniors 20-23,No,82,,,,,,-160,-160,-160,,,,,,,,
1,82.5,Aleksandr Biserov,Александр Бисеров,1943-08-18,M,B,Raw,Pro Masters 65-69,No,78.5,,,,,,80,85,90,,90,,,,,,90
1,82.5,Nikolay Puzhaev,Николай Пужаев,1935-08-13,M,B,Raw,Pro Masters 75-79,No,78.5,,,,,,97.5,-102.5,-102.5,,97.5,,,,,,97.5
1,82.5,Aleksandr Khudyakov,Александр Худяков,1977-04-29,M,B,Raw,Pro Open,No,79.9,,,,,,175,-180,182.5,,182.5,,,,,,182.5
2,82.5,Sergey Balandin,Сергей Баландин,1984-12-14,M,B,Raw,Pro Open,No,81.8,,,,,,170,177.5,182.5,,182.5,,,,,,182.5
3,82.5,Stanislav Pigilev,Станислав Пигилев,1970-01-04,M,B,Raw,Pro Open,No,78.3,,,,,,115,125,-130,,125,,,,,,125
1,82.5,Pavel Malinin,Павел Малинин,1998-09-01,M,B,Raw,Pro Teen 14-15,No,80.8,,,,,,30,35,40,,40,,,,,,40
1,82.5,Ilya Khodyrev,Илья Ходырев,1995-05-26,M,B,Raw,Pro Teen 16-17,No,82.3,,,,,,125,132.5,140,,140,,,,,,140
2,82.5,Stanislav Kadnikov,Станислав Кадников,1995-02-08,M,B,Raw,Pro Teen 16-17,No,80.6,,,,,,100,110,115,,115,,,,,,115
1,82.5,Grigoriy Fominykh,Григорий Фоминых,1993-08-28,M,B,Raw,Pro Teen 18-19,No,80.8,,,,,,102.5,110,115,,115,,,,,,115
2,82.5,Roman Arkhireev,Роман Архиреев,1992-12-25,M,B,Raw,Pro Teen 18-19,No,77.7,,,,,,100,110,-112.5,,110,,,,,,110
1,90,Vladimir Shiryaev,Владимир Ширяев,1992-01-24,M,B,Raw,Pro Juniors 20-23,No,87.8,,,,,,130,140,150,,150,,,,,,150
1,90,Yuriy Rubanov,Юрий Рубанов,1967-11-28,M,B,Raw,Pro Masters 40-44,No,87.6,,,,,,180,185,-190.5,,185,,,,,,185
2,90,Vladimir Petrov,Владимир Петров,1968-06-17,M,B,Raw,Pro Masters 40-44,No,89.8,,,,,,172.5,-180,-185,,172.5,,,,,,172.5
1,90,Igor Kozlov #1,Игорь Козлов,1964-11-09,M,B,Raw,Pro Masters 45-49,No,87.1,,,,,,125,-130,-135,,125,,,,,,125
1,90,Evgeniy Basov,Евгений Басов,1955-02-24,M,B,Raw,Pro Masters 55-59,No,89.3,,,,,,130,135,-146.5,,135,,,,,,135
1,90,Igor Korzhavin,Игорь Коржавин,1976-04-06,M,B,Raw,Pro Open,No,89.6,,,,,,180,-195,195,,195,,,,,,195
2,90,Evgeniy Fedyakin,Евгений Федякин,1980-11-26,M,B,Raw,Pro Open,No,90,,,,,,180,190,195,,195,,,,,,195
3,90,Nikolay Mikheev,Николай Михеев,1984-05-22,M,B,Raw,Pro Open,No,87.5,,,,,,185,192.5,-197.5,,192.5,,,,,,192.5
4,90,Aleksandr Novinskiy,Александр Новинский,1983-08-08,M,B,Raw,Pro Open,No,88.8,,,,,,190,-197.5,-197.5,,190,,,,,,190
5,90,Andrey Utkin,Андрей Уткин,1976-12-21,M,B,Raw,Pro Open,No,88.8,,,,,,190,-200,-200,,190,,,,,,190
6,90,Andrey Burkovskiy,Андрей Бурковский,1974-05-06,M,B,Raw,Pro Open,No,88.4,,,,,,-185,185,-190,,185,,,,,,185
7,90,Vyacheslav Shisterov,Вячеслав Шистеров,1987-01-05,M,B,Raw,Pro Open,No,89.3,,,,,,185,-195,-195,,185,,,,,,185
8,90,Leonid Malakichev,Леонид Малакичев,1988-08-28,M,B,Raw,Pro Open,No,88,,,,,,170,177.5,-185,,177.5,,,,,,177.5
9,90,Denis Savin,Денис Савин,1984-03-24,M,B,Raw,Pro Open,No,88.3,,,,,,165,172.5,-180,,172.5,,,,,,172.5
10,90,Evgeniy Sivov,Евгений Сивов,1984-05-29,M,B,Raw,Pro Open,No,88.5,,,,,,130,-135,-135,,130,,,,,,130
1,90,Aleksandr Levin,Александр Левин,1994-04-23,M,B,Raw,Pro Teen 18-19,No,89.9,,,,,,180,190,-207.5,,190,,,,,,190
1,100,Artur Vayserman,Артур Вайсерман,1991-04-09,M,B,Raw,Pro Juniors 20-23,No,97,,,,,,165,172.5,-180,,172.5,,,,,,172.5
1,100,Dmitriy Tambovtsev,Дмитрий Тамбовцев,1969-10-24,M,B,Raw,Pro Masters 40-44,No,95.7,,,,,,172.5,180,182.5,,182.5,,,,,,182.5
2,100,Vladimir Beloglazov,Владимир Белоглазов,1969-02-20,M,B,Raw,Pro Masters 40-44,No,96.9,,,,,,170,175,-180,,175,,,,,,175
3,100,Valeriy Snigirev,Валерий Снигирев,1969-05-07,M,B,Raw,Pro Masters 40-44,No,97.3,,,,,,170,-180,-180,,170,,,,,,170
1,100,Valeriy Nefedov,Валерий Нефедов,1967-06-17,M,B,Raw,Pro Masters 45-49,No,98.2,,,,,,160,-170,,,160,,,,,,160
1,100,Aleksandr Kazantsev,Александр Казанцев,1979-03-31,M,B,Raw,Pro Open,No,98,,,,,,210,215,222.5,,222.5,,,,,,222.5
2,100,Andrey Zharenov,Андрей Жаренов,1988-06-27,M,B,Raw,Pro Open,No,94.6,,,,,,-210,210,-220,,210,,,,,,210
3,100,Evgeniy Illarionov,Евгений Илларионов,1982-05-28,M,B,Raw,Pro Open,No,98.9,,,,,,200,207.5,,,207.5,,,,,,207.5
4,100,Sergey Plakhotin,Сергей Плахотин,1986-11-09,M,B,Raw,Pro Open,No,97.1,,,,,,187.5,197.5,-207.5,,197.5,,,,,,197.5
5,100,Sergey Popov #13,Сергей Попов,1984-03-02,M,B,Raw,Pro Open,No,95.5,,,,,,187.5,195,-200,,195,,,,,,195
6,100,Sergey Martyanov,Сергей Мартьянов,1975-02-25,M,B,Raw,Pro Open,No,97,,,,,,185,-195,-195,,185,,,,,,185
7,100,Aleksandr Spiryanin,Александр Спирянин,1977-12-19,M,B,Raw,Pro Open,No,98.6,,,,,,170,177.5,182.5,,182.5,,,,,,182.5
8,100,Aleksandr Zlenko,Александр Зленко,1983-07-28,M,B,Raw,Pro Open,No,100,,,,,,180,-195,-195,,180,,,,,,180
9,100,Maksim Sveyko,Максим Свейко,1979-07-17,M,B,Raw,Pro Open,No,100,,,,,,180,-185,-190,,180,,,,,,180
10,100,Artur Vayserman,Артур Вайсерман,1991-04-09,M,B,Raw,Pro Open,No,97,,,,,,165,172.5,-180,,172.5,,,,,,172.5
1,110,Andrey Tachanov,Андрей Тачанов,1964-08-06,M,B,Raw,Pro Masters 45-49,No,109.3,,,,,,187.5,-195,-195,,187.5,,,,,,187.5
1,110,Yuriy Obukhov,Юрий Обухов,1958-07-20,M,B,Raw,Pro Masters 50-54,No,103.6,,,,,,120,127.5,130,,130,,,,,,130
1,110,Sergey Popov #8,Сергей Попов,1977-01-05,M,B,Raw,Pro Open,No,109.7,,,,,,235,245,252.5,,252.5,,,,,,252.5
2,110,Stanislav Dimitryuk,Станислав Димитрюк,1975-04-19,M,B,Raw,Pro Open,No,103.5,,,,,,220,225,-227.5,,225,,,,,,225
3,110,Andrey Skvortsov,Андрей Скворцов,1977-11-25,M,B,Raw,Pro Open,No,101.3,,,,,,210,220,-225,,220,,,,,,220
4,110,Andrey Nasonov,Андрей Насонов,1976-10-03,M,B,Raw,Pro Open,No,103.2,,,,,,195,205,-210,,205,,,,,,205
5,110,Ilya Moshkovtsev,Илья Мошковцев,1987-03-23,M,B,Raw,Pro Open,No,108.9,,,,,,160,-170,-170,,160,,,,,,160
1,125,Vladimir Kravtsov,Владимир Кравцов,1972-03-04,M,B,Raw,Pro Masters 40-44,No,124.9,,,,,,265,-282.5,282.5,,282.5,,,,,,282.5
1,125,Aleksey Chernysh,Алексей Черныш,1967-05-10,M,B,Raw,Pro Masters 45-49,No,111,,,,,,180,185,190,,190,,,,,,190
2,125,Mikhail Strizhov,Михаил Стрижов,1964-09-22,M,B,Raw,Pro Masters 45-49,No,112.5,,,,,,170,180,187.5,,187.5,,,,,,187.5
1,125,Aleksandr Sychev,Александр Сычев,1960-07-14,M,B,Raw,Pro Masters 50-54,No,113.7,,,,,,160,170,-172.5,,170,,,,,,170
1,125,Vladimir Kravtsov,Владимир Кравцов,1972-03-04,M,B,Raw,Pro Open,No,124.9,,,,,,265,-282.5,282.5,,282.5,,,,,,282.5
2,125,Aleksandr Sykmenyov,Александр Сыкменёв,1978-06-24,M,B,Raw,Pro Open,No,116.4,,,,,,220,230,235,,235,,,,,,235
3,125,Dmitriy Bal,Дмитрий Баль,1974-11-09,M,B,Raw,Pro Open,No,114.5,,,,,,210,220,227.5,,227.5,,,,,,227.5
4,125,Sergey Luchenkov,Сергей Лученков,1977-05-24,M,B,Raw,Pro Open,No,123.4,,,,,,220,-230,-230,,220,,,,,,220
5,125,Andrey Pud,Андрей Пуд,1975-06-05,M,B,Raw,Pro Open,No,124,,,,,,220,-225,-225,,220,,,,,,220
6,125,Dmitriy Bubnov,Дмитрий Бубнов,1973-10-14,M,B,Raw,Pro Open,No,113.4,,,,,,210,-220,-227.5,,210,,,,,,210
1,125,Nikita Vedernikov,Никита Ведерников,1996-12-19,M,B,Raw,Pro Teen 14-15,No,124.4,,,,,,140,147.5,-152.5,,147.5,,,,,,147.5
1,140,Sergey Laskavyy,Сергей Ласкавый,1974-10-02,M,B,Raw,Pro Open,No,131,,,,,,180,-190,-190,,180,,,,,,180
DQ,44,Nina Samsonova,Нина Самсонова,1990-02-02,F,B,Raw,Amateur Open,Yes,44,,,,,,-55,-57.5,-57.5,,,,,,,,
1,44,Alena Taushkanova,Алена Таушканова,1995-10-10,F,B,Raw,Amateur Teen 16-17,Yes,41.5,,,,,,35,40,-45,,40,,,,,,40
1,48,Aynura Mukhamedzhanova,Айнура Мухамеджанова,1990-03-07,F,B,Raw,Amateur Juniors 20-23,Yes,47,,,,,,45,50,52.5,,52.5,,,,,,52.5
1,48,Mariya Onosova,Мария Оносова,1988-06-27,F,B,Raw,Amateur Open,Yes,47.8,,,,,,50,55,-57.5,,55,,,,,,55
1,48,Alena Girchich,Алена Гирчич,1995-11-08,F,B,Raw,Amateur Teen 16-17,Yes,47.9,,,,,,40,47.5,-50,,47.5,,,,,,47.5
2,48,Anastasiya Zyryanova,Анастасия Зырянова,1995-03-20,F,B,Raw,Amateur Teen 16-17,Yes,46.2,,,,,,-42.5,45,-50,,45,,,,,,45
1,52,Albina Mukminova,Альбина Мукминова,1991-01-16,F,B,Raw,Amateur Juniors 20-23,Yes,49,,,,,,45,55,62.5,,62.5,,,,,,62.5
1,52,Ekaterina Konovalova,Екатерина Коновалова,1986-05-04,F,B,Raw,Amateur Open,Yes,52,,,,,,70,72.5,-75,,72.5,,,,,,72.5
2,52,Ekaterina Puzyrenko,Екатерина Пузыренко,1976-11-24,F,B,Raw,Amateur Open,Yes,51.2,,,,,,55,62.5,-65,,62.5,,,,,,62.5
3,52,Olga Grineva,Ольга Гринева,1984-08-25,F,B,Raw,Amateur Open,Yes,51.4,,,,,,55,-60,-60,,55,,,,,,55
4,52,Olesya Kartsava,Олеся Карцава,1982-02-20,F,B,Raw,Amateur Open,Yes,50,,,,,,40,45,-47.5,,45,,,,,,45
DQ,52,Maryana Naumova,Марьяна Наумова,1999-04-22,F,B,Raw,Amateur Teen 13,Yes,52,,,,,,80,85,87.5,-90,87.5,,,,,,
1,52,Ekaterina Bener,Екатерина Бенер,1997-06-14,F,B,Raw,Amateur Teen 14-15,Yes,51.5,,,,,,40,45,-47.5,,45,,,,,,45
1,52,Ekaterina Fadeeva,Екатерина Фадеева,1995-07-30,F,B,Raw,Amateur Teen 16-17,Yes,52,,,,,,-52.5,-55,57.5,-60,57.5,,,,,,57.5
1,56,Valeriya Bochikhina,Валерия Бочихина,1990-01-24,F,B,Raw,Amateur Juniors 20-23,Yes,55.9,,,,,,50,55,-60,,55,,,,,,55
1,56,Natalya Tolkacheva,Наталья Толкачева,1987-12-07,F,B,Raw,Amateur Open,Yes,54.8,,,,,,65,-70,72.5,,72.5,,,,,,72.5
1,56,Valeriya Nabiulina,Валерия Набиулина,1995-04-26,F,B,Raw,Amateur Teen 16-17,Yes,55.9,,,,,,55,-60,-60,,55,,,,,,55
2,56,Alena Makarova,Алена Макарова,1996-05-31,F,B,Raw,Amateur Teen 16-17,Yes,56,,,,,,30,-35,35,,35,,,,,,35
1,60,Natalya Ber,Наталья Бер,1981-06-02,F,B,Raw,Amateur Open,Yes,58.5,,,,,,65,-70,70,,70,,,,,,70
2,60,Natalya Volodina,Наталья Володина,1978-10-19,F,B,Raw,Amateur Open,Yes,60,,,,,,57.5,62.5,-65,,62.5,,,,,,62.5
3,60,Tatyana Solonenko,Татьяна Солоненко,1981-05-20,F,B,Raw,Amateur Open,Yes,59,,,,,,50,-55,-60,,50,,,,,,50
1,67.5,Elena Vadyunina,Елена Вадюнина,1968-05-16,F,B,Raw,Amateur Masters 40-44,Yes,62.1,,,,,,45,50,52.5,,52.5,,,,,,52.5
1,67.5,Elena Parvatkina,Елена Парваткина,1981-07-18,F,B,Raw,Amateur Open,Yes,64.4,,,,,,72.5,77.5,-80,,77.5,,,,,,77.5
2,67.5,Tatyana Gudz,Татьяна Гудзь,1976-07-12,F,B,Raw,Amateur Open,Yes,65,,,,,,45,50,-55,,50,,,,,,50
1,67.5,Natalya Osipova #3,Наталья Осипова,1992-10-16,F,B,Raw,Amateur Teen 18-19,Yes,65,,,,,,55,60,-62.5,,60,,,,,,60
1,75,Elena Tryastsina,Елена Трясцина,1964-09-08,F,B,Raw,Amateur Masters 45-49,Yes,70.8,,,,,,37.5,40,-42.5,,40,,,,,,40
DQ,75,Ekaterina Verkhoturova,Екатерина Верхотурова,1983-05-12,F,B,Raw,Amateur Open,Yes,73,,,,,,-77.5,-85,-85,,,,,,,,
1,75,Evelina Apalkova,Эвелина Апалькова,1993-08-10,F,B,Raw,Amateur Teen 18-19,Yes,74.3,,,,,,72.5,77.5,-90,,77.5,,,,,,77.5
1,82.5,Anna Grigoreva,Анна Григорьева,1984-03-17,F,B,Raw,Amateur Open,Yes,77,,,,,,-55,55,57.5,,57.5,,,,,,57.5
DQ,82.5,Olga Kazankova,Ольга Казанкова,1979-06-26,F,B,Raw,Amateur Open,Yes,78.5,,,,,,-85,,,,,,,,,,
1,90,Larisa Semenova,Лариса Семенова,1962-01-31,F,B,Raw,Amateur Masters 50-54,Yes,85,,,,,,65,80,85,,85,,,,,,85
1,52,Dmitriy Zyazin,Дмитрий Зязин,1996-10-08,M,B,Raw,Amateur Teen 14-15,Yes,51,,,,,,70,75,-77.5,,75,,,,,,75
2,52,Yuriy Slizkov,Юрий Слизков,1999-09-15,M,B,Raw,Amateur Teen 13,Yes,49,,,,,,60,-65,65,,65,,,,,,65
3,52,Dmitriy Leyderman,Дмитрий Лейдерман,1997-05-25,M,B,Raw,Amateur Teen 14-15,Yes,49.9,,,,,,50,55,57.5,,57.5,,,,,,57.5
4,52,Evgeniy Eremenko,Евгений Еременко,1997-10-15,M,B,Raw,Amateur Teen 14-15,Yes,48.7,,,,,,40,42.5,-45,,42.5,,,,,,42.5
1,56,Vyacheslav Sirotin,Вячеслав Сиротин,1987-08-09,M,B,Raw,Amateur Open,Yes,55.9,,,,,,115,-122.5,,,115,,,,,,115
1,56,Sergey Stepanov,Сергей Степанов,1996-11-23,M,B,Raw,Amateur Teen 14-15,Yes,55.6,,,,,,87.5,-92.5,-92.5,,87.5,,,,,,87.5
1,56,Aleksandr Evseev,Александр Евсеев,1994-02-05,M,B,Raw,Amateur Teen 18-19,Yes,55.2,,,,,,80,85,87.5,90,87.5,,,,,,87.5
2,56,Anatoliy Anufriev,Анатолий Ануфриев,1993-04-23,M,B,Raw,Amateur Teen 18-19,Yes,55.7,,,,,,82.5,-87.5,-87.5,,82.5,,,,,,82.5
1,60,Sergey Sultanov,Сергей Султанов,1990-05-23,M,B,Raw,Amateur Juniors 20-23,Yes,59.9,,,,,,125,135,140,141,140,,,,,,140
2,60,Mikhail Ponomarev,Михаил Пономарев,1989-08-01,M,B,Raw,Amateur Juniors 20-23,Yes,60,,,,,,127.5,132.5,-135,,132.5,,,,,,132.5
3,60,Marat Zanakhov,Марат Занахов,1989-12-14,M,B,Raw,Amateur Juniors 20-23,Yes,58,,,,,,105,110,-115,,110,,,,,,110
4,60,Anton Chiyanov,Антон Чиянов,1991-05-28,M,B,Raw,Amateur Juniors 20-23,Yes,59.5,,,,,,90,95,100,,100,,,,,,100
1,60,Yanis Kalaychev,Янис Калайчев,1985-07-23,M,B,Raw,Amateur Open,Yes,59.7,,,,,,135,145,155,160,155,,,,,,155
2,60,Aleksandr Pitukhin,Александр Питухин,1985-11-29,M,B,Raw,Amateur Open,Yes,58.5,,,,,,110,-120,122.5,,122.5,,,,,,122.5
3,60,Dmitriy Nikulin,Дмитрий Никулин,1985-05-02,M,B,Raw,Amateur Open,Yes,60,,,,,,115,-117.5,120,,120,,,,,,120
1,60,Andrey Buravtsov,Андрей Буравцов,1997-04-26,M,B,Raw,Amateur Teen 14-15,Yes,59.9,,,,,,80,85,87.5,88,87.5,,,,,,87.5
2,60,Nikita Abzaev,Никита Абзаев,1998-01-14,M,B,Raw,Amateur Teen 14-15,Yes,59.2,,,,,,65,70,75,,75,,,,,,75
3,60,Timofey Likhanov,Тимофей Лиханов,1998-05-28,M,B,Raw,Amateur Teen 14-15,Yes,57.9,,,,,,50,55,-60,,55,,,,,,55
4,60,Daniil Vadyunin,Даниил Вадюнин,2001-01-27,M,B,Raw,Amateur Teen 13,Yes,59.5,,,,,,40,45,-50,,45,,,,,,45
5,60,Egor Zykov,Егор Зыков,2002-03-28,M,B,Raw,Amateur Teen 13,Yes,57.7,,,,,,37.5,-42.5,-42.5,,37.5,,,,,,37.5
1,56,Ivan Butakov,Иван Бутаков,1996-07-19,M,B,Raw,Amateur Teen 16-17,Yes,55.8,,,,,,70,-77.5,-85,,70,,,,,,70
1,67.5,Aleksey Betyov,Алексей Бетёв,1989-03-23,M,B,Raw,Amateur Juniors 20-23,Yes,63.5,,,,,,140,-145,-145,,140,,,,,,140
2,67.5,Andrey Savin,Андрей Савин,1989-03-04,M,B,Raw,Amateur Juniors 20-23,Yes,65.5,,,,,,122.5,132.5,-137.5,,132.5,,,,,,132.5
DQ,67.5,Igor Garenskikh,Игорь Гаренских,1991-11-18,M,B,Raw,Amateur Juniors 20-23,Yes,67.5,,,,,,-125,-130,-130,,,,,,,,
1,67.5,Sergey Kozhokin,Сергей Кожокин,1969-06-01,M,B,Raw,Amateur Masters 40-44,Yes,66.4,,,,,,115,,,,115,,,,,,115
1,67.5,Aleksey Sokolov,Алексей Соколов,1963-12-30,M,B,Raw,Amateur Masters 45-49,Yes,66.3,,,,,,85,90,92.5,,92.5,,,,,,92.5
1,67.5,Yuriy Lebedev,Юрий Лебедев,1938-06-26,M,B,Raw,Amateur Masters 70-74,Yes,63.2,,,,,,80,85,87.5,,87.5,,,,,,87.5
1,67.5,Garifulla Giniyatullin,Гарифулла Гиниятуллин,1932-12-15,M,B,Raw,Amateur Masters 75-79,Yes,62.2,,,,,,50,52.5,55,,55,,,,,,55
1,67.5,Evgeniy Zuev,Евгений Зуев,1984-01-10,M,B,Raw,Amateur Open,Yes,67.1,,,,,,125,132.5,137.5,,137.5,,,,,,137.5
2,67.5,Anton Vershinin,Антон Вершинин,1981-06-09,M,B,Raw,Amateur Open,Yes,65.3,,,,,,110,115,122.5,,122.5,,,,,,122.5
3,67.5,Mikhail Titov #2,Михаил Титов,1982-01-23,M,B,Raw,Amateur Open,Yes,64.6,,,,,,110,120,-122.5,,120,,,,,,120
4,67.5,Aleksandr Trubinov,Александр Трубинов,1987-08-28,M,B,Raw,Amateur Open,Yes,63.5,,,,,,97.5,105,-107.5,,105,,,,,,105
DQ,67.5,Oleg Akhmetzyanov,Олег Ахметзянов,1982-05-06,M,B,Raw,Amateur Open,Yes,65.5,,,,,,-105,-105,-105,,,,,,,,
DQ,67.5,Rustam Safin,Рустам Сафин,1978-09-10,M,B,Raw,Amateur Open,Yes,67.5,,,,,,-120,-120,-120,,,,,,,,
1,67.5,Andrey Godovalov,Андрей Годовалов,1996-11-05,M,B,Raw,Amateur Teen 14-15,Yes,65.3,,,,,,-110,-115,115,,115,,,,,,115
2,67.5,Aleksandr Kiryanov,Александр Кирьянов,1996-11-27,M,B,Raw,Amateur Teen 14-15,Yes,64.1,,,,,,-87.5,-87.5,87.5,,87.5,,,,,,87.5
3,67.5,Anton Vasilev,Антон Васильєв,1997-08-27,M,B,Raw,Amateur Teen 14-15,Yes,66.1,,,,,,80,85,87.5,,87.5,,,,,,87.5
4,67.5,Artem Muchkin,Артем Мучкин,1997-10-23,M,B,Raw,Amateur Teen 14-15,Yes,66.1,,,,,,85,87.5,-90,,87.5,,,,,,87.5
5,67.5,Egor Burilov,Егор Бурилов,1996-12-08,M,B,Raw,Amateur Teen 14-15,Yes,63.5,,,,,,75,-82.5,82.5,,82.5,,,,,,82.5
6,67.5,Arsen Kuyguldinov,Арсен Куйгульдинов,2000-08-31,M,B,Raw,Amateur Teen 13,Yes,62,,,,,,60,65,70,72.5,70,,,,,,70
DQ,67.5,Ilya Petrov,Илья Петров,1999-06-16,M,B,Raw,Amateur Teen 13,Yes,60.4,,,,,,-70,-70,-75,75,,,,,,,
DQ,67.5,Yaroslav Yazovskikh,Ярослав Язовских,1997-01-06,M,B,Raw,Amateur Teen 14-15,Yes,66.3,,,,,,-125,-125,,,,,,,,,
1,67.5,Sergey Nechaev,Сергей Нечаев,1995-09-06,M,B,Raw,Amateur Teen 16-17,Yes,64.6,,,,,,110,-115,117.5,,117.5,,,,,,117.5
2,67.5,Vladislav Katrushev,Владислав Катрушев,1995-04-27,M,B,Raw,Amateur Teen 16-17,Yes,62,,,,,,100,107.5,115,,115,,,,,,115
1,67.5,Roman Semyonov,Роман Семёнов,1994-08-18,M,B,Raw,Amateur Teen 18-19,Yes,64.9,,,,,,110,115,-117.5,,115,,,,,,115
2,67.5,Artyom Mikhaylov,Артём Михайлов,1993-01-19,M,B,Raw,Amateur Teen 18-19,Yes,66,,,,,,105,-112.5,-112.5,,105,,,,,,105
3,67.5,Ivan Anufriev,Иван Ануфриев,1994-01-10,M,B,Raw,Amateur Teen 18-19,Yes,66.8,,,,,,87.5,92.5,-95,,92.5,,,,,,92.5
1,75,Sergey Smychenko,Сергей Смыченко,1988-12-08,M,B,Raw,Amateur Juniors 20-23,Yes,74.2,,,,,,130,140,-145,,140,,,,,,140
2,75,Ilya Minin,Илья Минин,1989-02-01,M,B,Raw,Amateur Juniors 20-23,Yes,71.7,,,,,,135,-137.5,-137.5,,135,,,,,,135
3,75,Denis Baydin,Денис Байдин,1989-09-24,M,B,Raw,Amateur Juniors 20-23,Yes,74.3,,,,,,105,-115,-115,,105,,,,,,105
1,75,Vladimir Zabolotnev,Владимир Заболотнев,1968-02-25,M,B,Raw,Amateur Masters 40-44,Yes,72.4,,,,,,145,152.5,157.5,160,157.5,,,,,,157.5
2,75,Dmitriy Kukharenko,Дмитрий Кухаренко,1969-01-22,M,B,Raw,Amateur Masters 40-44,Yes,73.7,,,,,,150,155,-157.5,,155,,,,,,155
1,75,Sergey Sysolyatin,Сергей Сысолятин,1965-05-14,M,B,Raw,Amateur Masters 45-49,Yes,74.7,,,,,,100,105,107.5,,107.5,,,,,,107.5
1,75,Ravil Bakhtiyarov,Равиль Бахтияров,1961-01-06,M,B,Raw,Amateur Masters 50-54,Yes,75,,,,,,120,-125,,,120,,,,,,120
1,75,Aleksandr Baluev,Александр Балуев,1955-10-18,M,B,Raw,Amateur Masters 55-59,Yes,74.8,,,,,,125,135,-140,,135,,,,,,135
1,75,Valeriy Baranov,Валерий Баранов,1940-12-04,M,B,Raw,Amateur Masters 70-74,Yes,73.8,,,,,,85,90,95,,95,,,,,,95
1,75,Gennadiy Pereladov,Геннадий Переладов,1936-06-06,M,B,Raw,Amateur Masters 75-79,Yes,73.7,,,,,,80,85,,,85,,,,,,85
1,75,Ilya Babin,Илья Бабин,1980-04-18,M,B,Raw,Amateur Open,Yes,70.9,,,,,,155,165,-170,,165,,,,,,165
2,75,Dmitriy Kukharenko,Дмитрий Кухаренко,1969-01-22,M,B,Raw,Amateur Open,Yes,73.7,,,,,,150,155,-157.5,,155,,,,,,155
3,75,Vasiliy Morozov,Василий Морозов,1983-06-24,M,B,Raw,Amateur Open,Yes,70.3,,,,,,130,-140,145,,145,,,,,,145
4,75,Andrey Chalyy,Андрей Чалый,1988-07-16,M,B,Raw,Amateur Open,Yes,73.9,,,,,,145,-155,-155,,145,,,,,,145
5,75,Evgeniy Grebenshchikov,Евгений Гребенщиков,1988-08-22,M,B,Raw,Amateur Open,Yes,75,,,,,,130,142.5,-150,,142.5,,,,,,142.5
6,75,Yuriy Likin,Юрий Ликин,1978-02-03,M,B,Raw,Amateur Open,Yes,73.8,,,,,,140,-142.5,,,140,,,,,,140
7,75,Andrey Krasnozhon,Андрей Красножон,1982-02-05,M,B,Raw,Amateur Open,Yes,75,,,,,,127.5,140,-145,,140,,,,,,140
8,75,Ilya Galiakhmatov,Илья Галиахматов,1986-10-01,M,B,Raw,Amateur Open,Yes,72,,,,,,120,125,130,,130,,,,,,130
9,75,Sergey Zhuganenko,Сергей Жуганенко,1987-02-11,M,B,Raw,Amateur Open,Yes,75,,,,,,120,-130,-130,,120,,,,,,120
10,75,Konstantin Zorin,Константин Зорин,1980-05-21,M,B,Raw,Amateur Open,Yes,74.2,,,,,,117.5,-125,-125,,117.5,,,,,,117.5
11,75,Aleksey Ratmanov,Алексей Ратманов,1987-11-24,M,B,Raw,Amateur Open,Yes,72.9,,,,,,115,-120,-125,,115,,,,,,115
DQ,75,Igor Nikulin,Игорь Никулин,1975-05-12,M,B,Raw,Amateur Open,Yes,70.5,,,,,,-135,-140,-140,,,,,,,,
1,75,Konstantin Sgibnev,Константин Сгибнев,1997-12-30,M,B,Raw,Amateur Teen 14-15,Yes,73.5,,,,,,85,90,95,,95,,,,,,95
2,75,Aleksey Valov,Алексей Валов,1997-09-12,M,B,Raw,Amateur Teen 14-15,Yes,73.4,,,,,,75,80,82.5,,82.5,,,,,,82.5
1,75,Denis Odinokov,Денис Одиноков,1995-10-09,M,B,Raw,Amateur Teen 16-17,Yes,72.7,,,,,,125,132.5,-140,,132.5,,,,,,132.5
2,75,Kirill Mikhnyuk,Кирилл Михнюк,1994-10-15,M,B,Raw,Amateur Teen 16-17,Yes,74.4,,,,,,125,130,-135,,130,,,,,,130
3,75,Grigoriy Novikov,Григорий Новиков,1995-01-22,M,B,Raw,Amateur Teen 16-17,Yes,73,,,,,,105,112.5,117.5,,117.5,,,,,,117.5
4,75,Vitaliy Akinshin,Виталий Акиньшин,1995-12-10,M,B,Raw,Amateur Teen 16-17,Yes,73.6,,,,,,110,115,-120,,115,,,,,,115
5,75,Semen Kurpishev,Семен Курпишев,1995-10-28,M,B,Raw,Amateur Teen 16-17,Yes,73.1,,,,,,90,95,97.5,,97.5,,,,,,97.5
1,75,Aleksey Volodin,Алексей Володин,1993-08-28,M,B,Raw,Amateur Teen 18-19,Yes,73.3,,,,,,130,135,-140,,135,,,,,,135
1,82.5,Sergey Sharonov,Сергей Шаронов,1989-07-13,M,B,Raw,Amateur Juniors 20-23,Yes,77.9,,,,,,140,150,155,,155,,,,,,155
2,82.5,Ilya Popyanskiy,Илья Попянский,1989-01-30,M,B,Raw,Amateur Juniors 20-23,Yes,82,,,,,,-142.5,142.5,-145,,142.5,,,,,,142.5
3,82.5,Ilya Kunygin,Илья Куныгин,1989-12-08,M,B,Raw,Amateur Juniors 20-23,Yes,80.2,,,,,,140,-150,-150,,140,,,,,,140
4,82.5,Maksim Sadykov,Максим Садыков,1992-04-15,M,B,Raw,Amateur Juniors 20-23,Yes,82.2,,,,,,130,140,-150,,140,,,,,,140
1,82.5,Yuriy Dorzhitarov,Юрий Доржитаров,1971-06-05,M,B,Raw,Amateur Masters 40-44,Yes,82.5,,,,,,130,140,145,,145,,,,,,145
2,82.5,Denis Tomilov,Денис Томилов,1972-06-07,M,B,Raw,Amateur Masters 40-44,Yes,82.5,,,,,,140,-145,-145,,140,,,,,,140
3,82.5,Garma Bazarov,Гарма Базаров,1971-08-31,M,B,Raw,Amateur Masters 40-44,Yes,81.5,,,,,,130,-135,-135,,130,,,,,,130
4,82.5,Vasiliy Mishurinskiy,Василий Мишуринский,1968-12-21,M,B,Raw,Amateur Masters 40-44,Yes,78.9,,,,,,115,-120,-120,,115,,,,,,115
1,82.5,Vladimir Gurov,Владимир Гуров,1964-06-02,M,B,Raw,Amateur Masters 45-49,Yes,77.3,,,,,,120,125,-127.5,,125,,,,,,125
2,82.5,Igor Volodin,Игорь Володин,1962-12-28,M,B,Raw,Amateur Masters 45-49,Yes,80.6,,,,,,125,-132.5,-132.5,,125,,,,,,125
3,82.5,Aleksandr Gutsevich,Александр Гуцевич,1966-09-23,M,B,Raw,Amateur Masters 45-49,Yes,80.9,,,,,,125,-132.5,-132.5,,125,,,,,,125
1,82.5,Sergey Khudyakov,Сергей Худяков,1962-05-28,M,B,Raw,Amateur Masters 50-54,Yes,77.7,,,,,,-140,140,145,,145,,,,,,145
2,82.5,Yuriy Pankov,Юрий Паньков,1962-02-15,M,B,Raw,Amateur Masters 50-54,Yes,81,,,,,,100,105,110,,110,,,,,,110
1,82.5,Konstantin Tikhomirov,Константин Тихомиров,1952-07-26,M,B,Raw,Amateur Masters 60-64,Yes,81.6,,,,,,130,135,-140,,135,,,,,,135
2,82.5,Yuriy Kotov,Юрий Котов,1951-07-22,M,B,Raw,Amateur Masters 60-64,Yes,82.5,,,,,,120,125,-130,,125,,,,,,125
1,82.5,Eldar Tsoriev,Эльдар Цориев,1946-02-17,M,B,Raw,Amateur Masters 65-69,Yes,81.4,,,,,,130,132.5,,,132.5,,,,,,132.5
1,82.5,Aleksandr Balonochkin,Александр Балоночкин,1983-10-09,M,B,Raw,Amateur Open,Yes,81.3,,,,,,165,-172.5,-172.5,,165,,,,,,165
2,82.5,Aleksandr Alyaev,Александр Аляев,1984-07-17,M,B,Raw,Amateur Open,Yes,78.5,,,,,,155,160,-165,,160,,,,,,160
3,82.5,Nikita Dementev,Никита Дементьев,1985-07-26,M,B,Raw,Amateur Open,Yes,82.2,,,,,,155,160,-165,,160,,,,,,160
4,82.5,Mikhail Dorokhin,Михаил Дорохин,1984-06-03,M,B,Raw,Amateur Open,Yes,82.2,,,,,,137.5,-142.5,142.5,,142.5,,,,,,142.5
5,82.5,Aleksandr Pakhotin,Александр Пахотин,1974-08-04,M,B,Raw,Amateur Open,Yes,76.2,,,,,,-140,140,-150,,140,,,,,,140
6,82.5,Vladimir Mamaev,Владимир Мамаев,1988-06-27,M,B,Raw,Amateur Open,Yes,82.3,,,,,,-125,125,-132.5,,125,,,,,,125
7,82.5,Iosif Morchiladze,Иосиф Морчиладзе,1979-11-03,M,B,Raw,Amateur Open,Yes,79,,,,,,120,-125,-125,,120,,,,,,120
8,82.5,Sergey Shchekalev,Сергей Щекалев,1979-04-13,M,B,Raw,Amateur Open,Yes,81.4,,,,,,-110,110,115,,115,,,,,,115
9,82.5,Aleksandr Oykher,Александр Ойхер,1973-01-02,M,B,Raw,Amateur Open,Yes,82.4,,,,,,105,110,-115,,110,,,,,,110
DQ,82.5,Dmitriy Rusakov,Дмитрий Русаков,1978-10-05,M,B,Raw,Amateur Open,Yes,81.5,,,,,,-160,-160,-160,,,,,,,,
1,82.5,Aleksey Bykov,Алексей Быков,1998-02-13,M,B,Raw,Amateur Teen 14-15,Yes,81,,,,,,85,92,95,97.5,95,,,,,,95
1,82.5,Stanislav Nagibin,Станислав Нагибин,1996-09-17,M,B,Raw,Amateur Teen 16-17,Yes,80.9,,,,,,107.5,117.5,125,,125,,,,,,125
1,82.5,Aleksey Pyanov,Алексей Пьянов,1992-11-26,M,B,Raw,Amateur Teen 18-19,Yes,80.9,,,,,,140,145,150,,150,,,,,,150
2,82.5,Andrey Pakulev,Андрей Пакулев,1993-10-04,M,B,Raw,Amateur Teen 18-19,Yes,81.8,,,,,,120,127.5,132.5,,132.5,,,,,,132.5
3,82.5,Pavel Kazantsev,Павел Казанцев,1994-09-16,M,B,Raw,Amateur Teen 18-19,Yes,81.6,,,,,,105,110,-115,,110,,,,,,110
DD,90,Artem Logunov,Артем Логунов,1991-01-30,M,B,Raw,Amateur Juniors 20-23,Yes,89.5,,,,,,155,165,175,,175,,,,,,
1,90,Maksim Eryashev,Максим Еряшев,1991-03-23,M,B,Raw,Amateur Juniors 20-23,Yes,86.7,,,,,,140,145,-150,,145,,,,,,145
2,90,Nikolay Kruglov,Николай Круглов,1990-07-07,M,B,Raw,Amateur Juniors 20-23,Yes,89.7,,,,,,135,145,-152.5,,145,,,,,,145
3,90,Evgeniy Sobyanin,Евгений Собянин,1990-07-24,M,B,Raw,Amateur Juniors 20-23,Yes,89.9,,,,,,135,-140,-142.5,,135,,,,,,135
DQ,90,Nurlan Askarov,Нурлан Аскаров,1991-05-20,M,B,Raw,Amateur Juniors 20-23,Yes,89.8,,,,,,-130,,,,,,,,,,
1,90,Andrey Galayda,Андрей Галайда,1972-02-07,M,B,Raw,Amateur Masters 40-44,Yes,85,,,,,,185,192.5,197.5,-200,197.5,,,,,,197.5
2,90,Evgeniy Svoboda,Евгений Свобода,1972-03-23,M,B,Raw,Amateur Masters 40-44,Yes,89.1,,,,,,135,147.5,-157.5,,147.5,,,,,,147.5
DQ,90,Rafael Aptukov,Рафаэль Аптуков,1968-08-03,M,B,Raw,Amateur Masters 40-44,Yes,88.8,,,,,,-145,-150,-155,,,,,,,,
1,90,Ivan Kazantsev,Иван Казанцев,1967-09-29,M,B,Raw,Amateur Masters 45-49,Yes,86.6,,,,,,140,-150,-150,,140,,,,,,140
2,90,Aleksandr Kurilov,Александр Курилов,1967-06-19,M,B,Raw,Amateur Masters 45-49,Yes,83,,,,,,120,125,127.5,,127.5,,,,,,127.5
1,90,Yuriy Stepanov,Юрий Степанов,1947-11-02,M,B,Raw,Amateur Masters 60-64,Yes,89.1,,,,,,130,135,-137.5,,135,,,,,,135
1,90,Fedor Chesnokov,Федор Чесноков,1947-02-16,M,B,Raw,Amateur Masters 65-69,Yes,90,,,,,,140,150,,,150,,,,,,150
DQ,90,Vyacheslav Yakushov,Вячеслав Якушов,1941-09-01,M,B,Raw,Amateur Masters 70-74,Yes,83,,,,,,-90,,,,,,,,,,
1,90,Andrey Galayda,Андрей Галайда,1972-02-07,M,B,Raw,Amateur Open,Yes,85,,,,,,185,192.5,197.5,-200,197.5,,,,,,197.5
2,90,Anatoliy Alyaev,Анатолий Аляев,1984-07-17,M,B,Raw,Amateur Open,Yes,87.2,,,,,,170,180,185,,185,,,,,,185
3,90,Vladimir Galkin,Владимир Галкин,1975-10-19,M,B,Raw,Amateur Open,Yes,88,,,,,,175,182.5,-187.5,,182.5,,,,,,182.5
4,90,Vitaliy Dubrovin,Виталий Дубровин,1982-08-06,M,B,Raw,Amateur Open,Yes,88.8,,,,,,182.5,-190,-190,,182.5,,,,,,182.5
5,90,Konstantin Kovazhenko,Константин Коваженко,1978-04-17,M,B,Raw,Amateur Open,Yes,90,,,,,,170,180,-187.5,,180,,,,,,180
6,90,Artur Shurnov,Артур Шурнов,1988-07-19,M,B,Raw,Amateur Open,Yes,89.9,,,,,,170,175,-180,,175,,,,,,175
7,90,Denis Stepanov,Денис Степанов,1982-12-11,M,B,Raw,Amateur Open,Yes,85.4,,,,,,155,162.5,167.5,,167.5,,,,,,167.5
8,90,Sergey Yavorskiy,Сергей Яворский,1977-01-06,M,B,Raw,Amateur Open,Yes,88.4,,,,,,157.5,162.5,167.5,,167.5,,,,,,167.5
9,90,Aleksandr Metelyov,Александр Метелёв,1972-11-24,M,B,Raw,Amateur Open,Yes,88.5,,,,,,167.5,-175,-175,,167.5,,,,,,167.5
10,90,Leonid Yakovlev,Леонид Яковлев,1985-11-03,M,B,Raw,Amateur Open,Yes,83.5,,,,,,155,162.5,-165,,162.5,,,,,,162.5
11,90,Sergey Talashchenko,Сергей Талащенко,1980-10-28,M,B,Raw,Amateur Open,Yes,88.8,,,,,,150,-155,160,,160,,,,,,160
12,90,Aleksandr Kozhevin,Александр Кожевин,1979-05-18,M,B,Raw,Amateur Open,Yes,89.5,,,,,,-160,-160,160,,160,,,,,,160
13,90,Leonid Yapryntsev,Леонид Япрынцев,1984-06-02,M,B,Raw,Amateur Open,Yes,85.4,,,,,,147.5,155,-160,,155,,,,,,155
14,90,Ivan Rozhentsov,Иван Роженцов,1985-02-28,M,B,Raw,Amateur Open,Yes,88.8,,,,,,140,150,155,,155,,,,,,155
15,90,Sergey Sappo,Сергей Саппо,1981-07-10,M,B,Raw,Amateur Open,Yes,86.2,,,,,,137.5,145,-155,,145,,,,,,145
16,90,Ilya Kiryanov,Илья Кирьянов,1984-04-19,M,B,Raw,Amateur Open,Yes,89.4,,,,,,135,142.5,-150,,142.5,,,,,,142.5
17,90,Vladimir Maslov,Владимир Маслов,1985-11-06,M,B,Raw,Amateur Open,Yes,88.7,,,,,,127.5,-135,137.5,,137.5,,,,,,137.5
18,90,Aleksandr Redikultsev,Александр Редикульцев,1973-11-03,M,B,Raw,Amateur Open,Yes,86.5,,,,,,130,135,-137.5,,135,,,,,,135
DQ,90,Semen Lazarenko,Семен Лазаренко,1988-03-02,M,B,Raw,Amateur Open,Yes,87.9,,,,,,-137.5,-142.5,-142.5,,,,,,,,
1,90,Vladislav Rylov,Владислав Рылов,1995-03-01,M,B,Raw,Amateur Teen 16-17,Yes,86.8,,,,,,125,132.5,137.5,,137.5,,,,,,137.5
1,90,Adilet Bakytov,Адилет Бакытов,1992-10-30,M,B,Raw,Amateur Teen 18-19,Yes,89,,,,,,135,-145,145,,145,,,,,,145
2,90,Evgeniy Rybalov,Евгений Рыбалов,1993-09-20,M,B,Raw,Amateur Teen 18-19,Yes,89.2,,,,,,130,137.5,142.5,,142.5,,,,,,142.5
3,90,Kirill Abaturov,Кирилл Абатуров,1993-07-20,M,B,Raw,Amateur Teen 18-19,Yes,83.4,,,,,,132.5,137.5,-142.5,,137.5,,,,,,137.5
4,90,Dmitriy Kurok,Дмитрий Курок,1993-10-06,M,B,Raw,Amateur Teen 18-19,Yes,88.3,,,,,,120,130,-140,,130,,,,,,130
1,100,Aleksandr Yavorskikh,Александр Яворских,1989-08-03,M,B,Raw,Amateur Juniors 20-23,Yes,99,,,,,,170,-180,-180,,170,,,,,,170
2,100,Vladimir Dyldin,Владимир Дылдин,1990-12-07,M,B,Raw,Amateur Juniors 20-23,Yes,97,,,,,,160,-165,-165,,160,,,,,,160
3,100,Dmitriy Oboskapov,Дмитрий Обоскапов,1991-03-16,M,B,Raw,Amateur Juniors 20-23,Yes,93,,,,,,135,142.5,145,,145,,,,,,145
1,100,Vasiliy Synkov,Василий Сынков,1972-09-07,M,B,Raw,Amateur Masters 40-44,Yes,98,,,,,,170,177.5,182.5,,182.5,,,,,,182.5
2,100,Vyacheslav Zhevnyak,Вячеслав Жевняк,1967-10-13,M,B,Raw,Amateur Masters 40-44,Yes,99.9,,,,,,170,175,-177.5,,175,,,,,,175
3,100,Dmitriy Tabunkov,Дмитрий Табунков,1972-04-20,M,B,Raw,Amateur Masters 40-44,Yes,99.8,,,,,,162.5,170,-180,,170,,,,,,170
4,100,Dmitriy Serikov,Дмитрий Сериков,1969-06-16,M,B,Raw,Amateur Masters 40-44,Yes,91.8,,,,,,140,145,-150,,145,,,,,,145
DQ,100,Igor Khomylev,Игорь Хомылев,1970-08-08,M,B,Raw,Amateur Masters 40-44,Yes,99,,,,,,-155,-162.5,,,,,,,,,
1,100,Vladimir Nikonov,Владимир Никонов,1966-12-22,M,B,Raw,Amateur Masters 45-49,Yes,92.6,,,,,,165,170,-175,,170,,,,,,170
2,100,Yuriy Tretyakov,Юрий Третьяков,1963-05-03,M,B,Raw,Amateur Masters 45-49,Yes,95.3,,,,,,142.5,-147.5,150,,150,,,,,,150
3,100,Vladimir Pleshakov,Владимир Плешаков,1965-09-03,M,B,Raw,Amateur Masters 45-49,Yes,97,,,,,,142.5,-150,150,,150,,,,,,150
DQ,100,Aleksandr Bragin,Александр Брагин,1965-01-03,M,B,Raw,Amateur Masters 45-49,Yes,98.5,,,,,,-175,-175,-175,,,,,,,,
1,100,Boris Dobrin,Борис Добрин,1959-07-28,M,B,Raw,Amateur Masters 50-54,Yes,98.1,,,,,,155,160,-162.5,,160,,,,,,160
2,100,Viktor Kachusov,Виктор Качусов,1960-10-25,M,B,Raw,Amateur Masters 50-54,Yes,99.8,,,,,,150,155,-157.5,,155,,,,,,155
1,100,Mikhail Khudyakov,Михаил Худяков,1955-08-04,M,B,Raw,Amateur Masters 55-59,Yes,97.1,,,,,,140,145,-147.5,,145,,,,,,145
2,100,Aleksandr Chernyshev,Александр Чернышев,1957-06-03,M,B,Raw,Amateur Masters 55-59,Yes,100,,,,,,-140,-140,140,,140,,,,,,140
1,100,Vadim Smirnov,Вадим Смирнов,1982-10-13,M,B,Raw,Amateur Open,Yes,99.6,,,,,,190,197.5,201,,201,,,,,,201
2,100,Vladimir Shchukin,Владимир Щукин,1979-03-15,M,B,Raw,Amateur Open,Yes,92.8,,,,,,177.5,187.5,-191,,187.5,,,,,,187.5
3,100,Aleksandr Shmygin,Александр Шмыгин,1983-11-17,M,B,Raw,Amateur Open,Yes,100,,,,,,175,187.5,-192.5,,187.5,,,,,,187.5
4,100,Yuriy Gorbunov,Юрий Горбунов,1986-08-16,M,B,Raw,Amateur Open,Yes,99.1,,,,,,165,172.5,180,,180,,,,,,180
5,100,Andrey Tagankin,Андрей Таганкин,1984-10-03,M,B,Raw,Amateur Open,Yes,97.1,,,,,,170,175,-180,,175,,,,,,175
6,100,Aleksey Pryadein,Алексей Прядеин,1982-06-19,M,B,Raw,Amateur Open,Yes,92.5,,,,,,150,162.5,-170,,162.5,,,,,,162.5
7,100,Sergey Kostrov,Сергей Костров,1980-07-02,M,B,Raw,Amateur Open,Yes,97,,,,,,155,-162.5,162.5,,162.5,,,,,,162.5
8,100,Dmitriy Khachina,Дмитрий Хачина,1984-10-17,M,B,Raw,Amateur Open,Yes,100,,,,,,162.5,,,,162.5,,,,,,162.5
9,100,Dmitriy Kuzmin,Дмитрий Кузьмин,1984-10-05,M,B,Raw,Amateur Open,Yes,98.6,,,,,,135,142.5,150,,150,,,,,,150
10,100,Aleksandr Vorobev,Александр Воробьев,1977-03-02,M,B,Raw,Amateur Open,Yes,98.1,,,,,,137.5,142.5,-145,,142.5,,,,,,142.5
11,100,Sergey Nikitin,Сергей Никитин,1974-07-20,M,B,Raw,Amateur Open,Yes,96.4,,,,,,140,-155,-155,,140,,,,,,140
12,100,Mikhail Yasko,Михаил Яско,1981-01-04,M,B,Raw,Amateur Open,Yes,97.6,,,,,,130,137.5,-142.5,,137.5,,,,,,137.5
13,100,Evgeniy Shishkov,Евгений Шишков,1987-05-09,M,B,Raw,Amateur Open,Yes,98.8,,,,,,-135,135,,,135,,,,,,135
DQ,100,Sergey Kudryavtsev,Сергей Кудрявцев,1974-09-25,M,B,Raw,Amateur Open,Yes,98.6,,,,,,-162.5,-162.5,-162.5,,,,,,,,
1,100,Ilya Epikhin,Илья Епихин,1996-05-08,M,B,Raw,Amateur Teen 16-17,Yes,98.5,,,,,,80,-90,90,,90,,,,,,90
1,100,Artyom Avdyukov,Артём Авдюков,1994-05-12,M,B,Raw,Amateur Teen 18-19,Yes,98.1,,,,,,117.5,122.5,125,,125,,,,,,125
1,110,Vitaliy Tikhonov,Виталий Тихонов,1988-10-15,M,B,Raw,Amateur Juniors 20-23,Yes,107.4,,,,,,170,175,-180,,175,,,,,,175
2,110,Aleksandr Fedotov,Александр Федотов,1989-05-16,M,B,Raw,Amateur Juniors 20-23,Yes,106.6,,,,,,160,170,-180,,170,,,,,,170
3,110,Denis Skryabin,Денис Скрябин,1989-05-07,M,B,Raw,Amateur Juniors 20-23,Yes,107.7,,,,,,162.5,167.5,-170,,167.5,,,,,,167.5
4,110,Kirill Fedoseev,Кирилл Федосеев,1992-02-23,M,B,Raw,Amateur Juniors 20-23,Yes,108.8,,,,,,145,152.5,157.5,,157.5,,,,,,157.5
1,110,Andrey Chusovitin,Андрей Чусовитин,1969-03-10,M,B,Raw,Amateur Masters 40-44,Yes,105.2,,,,,,160,167.5,-170,,167.5,,,,,,167.5
2,110,Nikolay Noskov,Николай Носков,1970-05-18,M,B,Raw,Amateur Masters 40-44,Yes,103,,,,,,150,160,-170,,160,,,,,,160
3,110,Andrey Fomichev,Андрей Фомичев,1970-04-03,M,B,Raw,Amateur Masters 40-44,Yes,107,,,,,,150,160,-167.5,,160,,,,,,160
1,110,Evgeniy Kochnev,Евгений Кочнев,1965-09-19,M,B,Raw,Amateur Masters 45-49,Yes,107,,,,,,142.5,147.5,-152.5,,147.5,,,,,,147.5
1,110,Sergey Kuzminykh,Сергей Кузьминых,1962-04-25,M,B,Raw,Amateur Masters 50-54,Yes,106.2,,,,,,120,127.5,132.5,,132.5,,,,,,132.5
1,110,Aleksandr Poluektov,Александр Полуэктов,1957-02-03,M,B,Raw,Amateur Masters 55-59,Yes,101.8,,,,,,167.5,172.5,-177.5,,172.5,,,,,,172.5
2,110,Aleksandr Sheryakov,Александр Шеряков,1957-03-02,M,B,Raw,Amateur Masters 55-59,Yes,109,,,,,,160,165,167.5,,167.5,,,,,,167.5
1,110,Evgeniy Davletshin,Евгений Давлетшин,1975-05-08,M,B,Raw,Amateur Open,Yes,106.1,,,,,,195,200,-202.5,,200,,,,,,200
2,110,Dmitriy Otinov,Дмитрий Отинов,1977-08-25,M,B,Raw,Amateur Open,Yes,106.5,,,,,,190,195,197.5,,197.5,,,,,,197.5
3,110,Aleksey Manakov,Алексей Манаков,1983-12-01,M,B,Raw,Amateur Open,Yes,106.9,,,,,,180,190,-197.5,,190,,,,,,190
4,110,Ilya Pakhomov,Илья Пахомов,1988-08-21,M,B,Raw,Amateur Open,Yes,104.4,,,,,,185,-195,-195,,185,,,,,,185
5,110,Aleksandr Deryabin,Александр Дерябин,1978-02-11,M,B,Raw,Amateur Open,Yes,106.2,,,,,,-170,170,180,,180,,,,,,180
6,110,Viktor Lopatin,Виктор Лопатин,1981-08-10,M,B,Raw,Amateur Open,Yes,105.5,,,,,,142.5,147.5,-150,,147.5,,,,,,147.5
7,110,Stanislav Mingaleev,Станислав Мингалеев,1975-01-07,M,B,Raw,Amateur Open,Yes,104.3,,,,,,137.5,140,-145,,140,,,,,,140
1,110,Gleb Artamonov,Глеб Артамонов,1995-04-28,M,B,Raw,Amateur Teen 16-17,Yes,107.8,,,,,,120,130,-140,,130,,,,,,130
1,125,Anatoliy Serbin,Анатолий Сербин,1990-07-26,M,B,Raw,Amateur Juniors 20-23,Yes,112,,,,,,200,208,213,,213,,,,,,213
1,125,Vladimir Korniets,Владимир Корниец,1954-01-21,M,B,Raw,Amateur Masters 55-59,Yes,111.3,,,,,,140,-145,-145,,140,,,,,,140
1,125,Sergey Lukyanov,Сергей Лукьянов,1973-05-27,M,B,Raw,Amateur Open,Yes,118.2,,,,,,205,215,-220,,215,,,,,,215
2,125,Andrey Sharov,Андрей Шаров,1974-02-07,M,B,Raw,Amateur Open,Yes,117,,,,,,205,210,-215,,210,,,,,,210
3,125,Vitaliy Bakharev,Виталий Бахарев,1975-01-14,M,B,Raw,Amateur Open,Yes,119,,,,,,200,207.5,-212.5,,207.5,,,,,,207.5
4,125,Evgeniy Mizev,Евгений Мизев,1980-01-01,M,B,Raw,Amateur Open,Yes,121.5,,,,,,-200,205,-210,,205,,,,,,205
5,125,Roman Malimon,Роман Малимон,1974-07-02,M,B,Raw,Amateur Open,Yes,118.1,,,,,,175,185,-195,,185,,,,,,185
6,125,Maksim Kolomitsev,Максим Коломицев,1979-12-17,M,B,Raw,Amateur Open,Yes,124.9,,,,,,170,175,180,,180,,,,,,180
7,125,Oleg Kochurov,Олег Кочуров,1980-08-26,M,B,Raw,Amateur Open,Yes,118.3,,,,,,-160,160,175,,175,,,,,,175
8,125,Vitaliy Balashov,Виталий Балашов,1972-12-04,M,B,Raw,Amateur Open,Yes,114,,,,,,160,170,-180,,170,,,,,,170
9,125,Konstantin Kleptsin,Константин Клепцин,1982-01-26,M,B,Raw,Amateur Open,Yes,114.6,,,,,,165,-175,-175,,165,,,,,,165
DQ,125,Dmitriy Molchanov,Дмитрий Молчанов,1984-05-25,M,B,Raw,Amateur Open,Yes,119,,,,,,-160,-160,-175,,,,,,,,
1,140,Andrey Melkozerov,Андрей Мелкозеров,1971-11-19,M,B,Raw,Amateur Masters 40-44,Yes,135,,,,,,200,-215,-215,,200,,,,,,200
1,140,Sergey Tishchenko,Сергей Тищенко,1959-07-08,M,B,Raw,Amateur Masters 50-54,Yes,131,,,,,,130,150,157.5,,157.5,,,,,,157.5
1,140,Pavel Karamalak,Павел Карамалак,1973-06-30,M,B,Raw,Amateur Open,Yes,127,,,,,,190,-200,-200,,190,,,,,,190
1,140+,Oleg Melentev,Олег Мелентьев,1972-07-05,M,B,Raw,Amateur Open,Yes,140.4,,,,,,180,190,-200,,190,,,,,,190
DQ,90+,Svetlana Kabaeva,Светлана Кабаева,1965-05-25,F,B,Raw,Disabled Masters 45-49,No,113,,,,,,-90,-90,-90,,,,,,,,
1,52,Dmitriy Kochiev,Дмитрий Кочиев,1992-05-23,M,B,Raw,Disabled Juniors 20-23,No,48.6,,,,,,47.5,52.5,55,,55,,,,,,55
1,52,Sergey Bakanov,Сергей Баканов,1985-10-25,M,B,Raw,Disabled Open,No,49.1,,,,,,90,95,100,,100,,,,,,100
1,56,Aleksandr Trikin,Александр Трикин,1983-09-07,M,B,Raw,Disabled Open,No,55,,,,,,75,80,-87.5,,80,,,,,,80
2,56,Vladimir Sergeev,Владимир Сергеев,1985-10-15,M,B,Raw,Disabled Open,No,55.6,,,,,,60,62.5,-65,,62.5,,,,,,62.5
3,56,Eduard Aleksanov,Эдуард Алексанов,1973-06-15,M,B,Raw,Disabled Open,No,54.3,,,,,,50,-55,-55,,50,,,,,,50
DQ,56,Boris Anferov,Борис Анферов,1983-07-19,M,B,Raw,Disabled Open,No,55.7,,,,,,-90,-90,,,,,,,,,
1,56,Vitaliy Zhuravlev,Виталий Журавлев,1992-11-12,M,B,Raw,Disabled Teen 18-19,No,54.6,,,,,,80,85,-87.5,,85,,,,,,85
1,60,Vitaliy Shchipachev,Виталий Щипачев,1990-01-29,M,B,Raw,Disabled Juniors 20-23,No,59.5,,,,,,72.5,-77.5,-77.5,,72.5,,,,,,72.5
1,60,Anton Mamontov,Антон Мамонтов,1986-09-30,M,B,Raw,Disabled Open,No,60,,,,,,105,110,115,-120,115,,,,,,115
2,60,Igor Ershov,Игорь Ершов,1977-04-20,M,B,Raw,Disabled Open,No,59,,,,,,77.5,85,-87.5,,85,,,,,,85
3,60,Ilya Kolmogorov,Илья Колмогоров,1983-08-19,M,B,Raw,Disabled Open,No,59.5,,,,,,70,75,-77.5,,75,,,,,,75
4,60,Aleksandr Zdravomyslov,Александр Здравомыслов,1980-04-16,M,B,Raw,Disabled Open,No,56.8,,,,,,57.5,62.5,-65,,62.5,,,,,,62.5
1,60,Viktor Inamov,Виктор Инамов,1996-12-11,M,B,Raw,Disabled Teen 14-15,No,58.7,,,,,,55,62.5,-65,,62.5,,,,,,62.5
1,60,Aleksandr Sinitsyn,Александр Синицын,1995-11-14,M,B,Raw,Disabled Teen 16-17,No,59.7,,,,,,60,67.5,72.5,-75,72.5,,,,,,72.5
1,60,Sergey Otev,Сергей Отев,1992-12-20,M,B,Raw,Disabled Teen 18-19,No,60,,,,,,60,70,75,,75,,,,,,75
2,60,Vyacheslav Parkaev,Вячеслав Паркаев,1994-05-27,M,B,Raw,Disabled Teen 18-19,No,58,,,,,,60,65,-70,,65,,,,,,65
1,67.5,Nikita Simonov,Никита Симонов,1989-05-10,M,B,Raw,Disabled Juniors 20-23,No,62,,,,,,90,95,97.5,,97.5,,,,,,97.5
1,67.5,Din Nigamatullin,Дин Нигаматуллин,,M,B,Raw,Disabled Open,No,65.1,,,,,,100,110,-115,,110,,,,,,110
2,67.5,Denis Churkin,Денис Чуркин,1979-02-08,M,B,Raw,Disabled Open,No,65.6,,,,,,65,70,-75,,70,,,,,,70
1,67.5,Dmitriy Zinovev,Дмитрий Зиновьев,1996-11-26,M,B,Raw,Disabled Teen 14-15,No,63.3,,,,,,50,57.5,62.5,65,62.5,,,,,,62.5
1,67.5,Aleksey Shekhovtsov,Алексей Шеховцов,1995-02-03,M,B,Raw,Disabled Teen 16-17,No,62,,,,,,65,70,-75,,70,,,,,,70
1,75,Aleksey Uymin,Алексей Уймин,1990-02-15,M,B,Raw,Disabled Juniors 20-23,No,73.4,,,,,,80,85,-90,,85,,,,,,85
2,75,Dmitriy Ivanov #3,Дмитрий Иванов,1989-08-14,M,B,Raw,Disabled Juniors 20-23,No,67.7,,,,,,72.5,-77.5,-77.5,,72.5,,,,,,72.5
1,75,Pavel Chushkin,Павел Чушкин,1987-05-14,M,B,Raw,Disabled Open,No,72.3,,,,,,102.5,105,-107.5,,105,,,,,,105
2,75,Aleksey Knyazkin,Алексей Князькин,1987-05-18,M,B,Raw,Disabled Open,No,71.5,,,,,,90,95,-97.5,,95,,,,,,95
3,75,Sergey Zavarukhin,Сергей Заварухин,1973-11-03,M,B,Raw,Disabled Open,No,71.5,,,,,,82.5,85,90,,90,,,,,,90
1,75,Nikita Zhelev,Никита Желев,1994-08-30,M,B,Raw,Disabled Teen 18-19,No,70.5,,,,,,75,85,90,,90,,,,,,90
1,82.5,Pavel Zubov,Павел Зубов,1990-03-04,M,B,Raw,Disabled Juniors 20-23,No,78,,,,,,95,100,-102.5,,100,,,,,,100
1,82.5,Kirill Isaev,Кирилл Исаев,1987-06-01,M,B,Raw,Disabled Open,No,80,,,,,,87.5,95,-97.5,,95,,,,,,95
2,82.5,Andrey Gusev,Андрей Гусев,1987-05-09,M,B,Raw,Disabled Open,No,78.1,,,,,,75,-77.5,-77.5,,75,,,,,,75
1,82.5,Egor Zhuravlev,Егор Журавлев,1996-10-11,M,B,Raw,Disabled Teen 14-15,No,76.3,,,,,,50,55,-60,,55,,,,,,55
1,82.5,Petr Borodinov,Петр Бородинов,1994-09-03,M,B,Raw,Disabled Teen 18-19,No,76.9,,,,,,95,-97.5,-97.5,,95,,,,,,95
1,90,Evgeniy Bobin,Евгений Бобин,1965-01-30,M,B,Raw,Disabled Masters 45-49,No,87.8,,,,,,75,77.5,80,,80,,,,,,80
1,90,Vladimir Nagalyuk,Владимир Нагалюк,1951-09-21,M,B,Raw,Disabled Masters 60-64,No,87,,,,,,60,70,-75,,70,,,,,,70
1,90,Deonis Kabaev,Деонис Кабаев,1985-04-26,M,B,Raw,Disabled Open,No,82.7,,,,,,85,90,95,100,95,,,,,,95
2,90,Ivan Kukoba,Иван Кукоба,1986-04-04,M,B,Raw,Disabled Open,No,83,,,,,,80,-82.5,-82.5,,80,,,,,,80
3,90,Viktor Ananin,Виктор Ананьин,1988-08-27,M,B,Raw,Disabled Open,No,88,,,,,,80,-87.5,-87.5,,80,,,,,,80
4,90,Vladimir Nagalyuk,Владимир Нагалюк,1951-09-21,M,B,Raw,Disabled Open,No,87,,,,,,60,70,-75,,70,,,,,,70
5,90,Evgeniy Tambovtsev,Евгений Тамбовцев,1984-11-08,M,B,Raw,Disabled Open,No,82.7,,,,,,57.5,60,62.5,,62.5,,,,,,62.5
1,100,Evgeniy Pastukhov,Евгений Пастухов,1985-05-24,M,B,Raw,Disabled Open,No,98,,,,,,130,137.5,140,,140,,,,,,140
2,100,Andrey Ladeyshchikov,Андрей Ладейщиков,1984-10-27,M,B,Raw,Disabled Open,No,94,,,,,,127.5,135,-137.5,,135,,,,,,135
1,110,Valentin Teterkin,Валентин Тетеркин,1989-08-08,M,B,Raw,Disabled Juniors 20-23,No,100.7,,,,,,110,115,-120,,115,,,,,,115
1,110,Sergey Mikushin,Сергей Микушин,1984-01-20,M,B,Raw,Disabled Open,No,102.5,,,,,,105,110,,,110,,,,,,110
