Division,WeightClassKg,Place,Name,Team,BodyweightKg,Best3SquatKg,Best3BenchKg,Best3DeadliftKg,TotalKg,Equipment,Event,Sex
Boys,51.71,1,Adrain Linares,Victoria West,43.64,108.86,65.77,115.67,290.3,Single-ply,SBD,M
Boys,51.71,2,Alex Le,Palacios,44.91,88.45,61.23,102.06,251.74,Single-ply,SBD,M
Boys,51.71,3,Kaijuan Mull,Vanderbilt Industrial,46.27,83.91,45.36,97.52,226.8,Single-ply,SBD,M
Boys,51.71,4,Jamie Caltzonzin,Victoria West,50.44,79.38,43.09,90.72,213.19,Single-ply,SBD,M
Boys,,NS,Ethan Robinson,Victoria West,,,,,,Single-ply,SBD,M
Boys,55.79,1,Evan Smith,Port Lavaca Calhoun,55.7,120.2,72.57,176.9,369.68,Single-ply,SBD,M
Boys,55.79,2,Damien Garza,Van Vleck,55.16,124.74,79.38,138.35,342.46,Single-ply,SBD,M
Boys,55.79,3,Wha Htoo,Port Lavaca Calhoun,52.07,115.67,70.31,133.81,319.78,Single-ply,SBD,M
Boys,55.79,4,Elisha Garcia,Palacios,55.07,106.59,63.5,115.67,285.76,Single-ply,SBD,M
Boys,55.79,5,Ean Cheerne,Vanderbilt Industrial,55.52,86.18,63.5,124.74,274.42,Single-ply,SBD,M
Boys,55.79,6,Javier Ontiveros,Refugio,55.07,102.06,63.5,102.06,267.62,Single-ply,SBD,M
Boys,55.79,7,Andre Davis,Goliad,55.79,72.57,52.16,81.65,206.38,Single-ply,SBD,M
Boys,,NS,Freddy Samano,Victoria West,,,,,,Single-ply,SBD,M
Boys,,NS,Chase Alkek,Goliad,,,,,,Single-ply,SBD,M
Boys,,NS,Tyrin Brito,Ganado,,,,,,Single-ply,SBD,M
Boys,,NS,Gavin Gutierrez,Runge,,,,,,Single-ply,SBD,M
Boys,,NS,Joe Fraga,Runge,,,,,,Single-ply,SBD,M
Boys,55.79,DQ,Ryan Garcia #2,Cuero,54.16,124.74,,,,Single-ply,SBD,M
Boys,55.79,DQ,Moses Alaniz,Cuero,54.98,111.13,,,,Single-ply,SBD,M
Boys,59.87,1,Miguel Sanchez,Palacios,59.51,165.56,83.91,161.03,410.5,Single-ply,SBD,M
Boys,59.87,2,Kevion Terrell,Victoria St. Joseph,58.69,136.08,95.25,151.95,383.29,Single-ply,SBD,M
Boys,59.87,3,Gavin Muniz,Victoria West,57.42,127.01,86.18,147.42,360.61,Single-ply,SBD,M
Boys,59.87,4,Adrian Valdez,Goliad,58.97,115.67,74.84,129.27,319.78,Single-ply,SBD,M
Boys,59.87,5,Lucas DeBord,Cuero,58.97,115.67,68.04,113.4,297.1,Single-ply,SBD,M
Boys,59.87,6,Josh Gomez,Louise,56.52,92.99,56.7,97.52,247.21,Single-ply,SBD,M
Boys,,NS,Michael Felkins,Port Lavaca Calhoun,,,,,,Single-ply,SBD,M
Boys,67.13,1,Moises Amaro,Palacios,61.96,204.12,124.74,185.97,514.83,Single-ply,SBD,M
Boys,67.13,2,Jakob Cortez,Port Lavaca Calhoun,61.87,195.04,90.72,199.58,485.34,Single-ply,SBD,M
Boys,67.13,3,Landen Valdez,Victoria West,64.59,183.7,115.67,167.83,467.2,Single-ply,SBD,M
Boys,67.13,4,Cole Brogger,Vanderbilt Industrial,61.42,142.88,83.91,163.29,390.09,Single-ply,SBD,M
Boys,67.13,5,Seth Birmingham,Victoria West,59.96,120.2,70.31,122.47,312.98,Single-ply,SBD,M
Boys,67.13,6,Jesse Cornish,Vanderbilt Industrial,65.5,117.93,74.84,120.2,312.98,Single-ply,SBD,M
Boys,67.13,7,Austin Hill #3,Van Vleck,66.04,102.06,49.9,129.27,281.23,Single-ply,SBD,M
Boys,67.13,8,Stephen Kelly,Ganado,61.33,106.59,45.36,122.47,274.42,Single-ply,SBD,M
Boys,,NS,Justin Lewis,Louise,,,,,,Single-ply,SBD,M
Boys,67.13,DQ,Isaac Garza,Ganado,60.78,154.22,,,,Single-ply,SBD,M
Boys,67.13,DQ,Cole Alcorn,Cuero,66.68,142.88,,,,Single-ply,SBD,M
Boys,74.84,1,Noah Martinez #2,Victoria West,71.3,215.46,122.47,201.85,539.77,Single-ply,SBD,M
Boys,74.84,2,Daniel Muller,Port Lavaca Calhoun,73.48,172.37,113.4,197.31,483.08,Single-ply,SBD,M
Boys,74.84,3,Justin Ficklen,Cuero,72.21,165.56,111.13,181.44,458.13,Single-ply,SBD,M
Boys,74.84,4,Christian Pina,Runge,68.22,165.56,95.25,192.78,453.59,Single-ply,SBD,M
Boys,74.84,5,Noah Rios,Runge,72.39,142.88,117.93,190.51,451.32,Single-ply,SBD,M
Boys,74.84,6,Trenton Carter,Victoria West,73.66,179.17,102.06,158.76,439.98,Single-ply,SBD,M
Boys,74.84,7,Alex Bonorden,Victoria St. Joseph,70.67,161.03,83.91,170.1,415.04,Single-ply,SBD,M
Boys,74.84,8,Brandon Espinoza,Van Vleck,67.31,127.01,86.18,165.56,378.75,Single-ply,SBD,M
Boys,74.84,9,Ricardo Luna,Vanderbilt Industrial,71.12,136.08,88.45,131.54,356.07,Single-ply,SBD,M
Boys,74.84,10,Tony Arteaga,Palacios,67.59,102.06,90.72,102.06,294.84,Single-ply,SBD,M
Boys,74.84,11,Ball Chiwinkunpathom,Louise,74.48,83.91,54.43,95.25,233.6,Single-ply,SBD,M
Boys,,NS,Jackson Fluitt,Vanderbilt Industrial,,,,,,Single-ply,SBD,M
Boys,,NS,Dominic Diaz,Victoria West,,,,,,Single-ply,SBD,M
Boys,82.1,1,Tre Evans,Edna,76.93,204.12,133.81,229.06,566.99,Single-ply,SBD,M
Boys,82.1,2,Dayton Ball,Cuero,79.74,204.12,136.08,226.8,566.99,Single-ply,SBD,M
Boys,82.1,3,Seth O'Canas,Victoria West,77.66,204.12,131.54,183.7,519.36,Single-ply,SBD,M
Boys,82.1,4,Jace Vasquez,Victoria West,77.2,192.78,124.74,197.31,514.83,Single-ply,SBD,M
Boys,82.1,5,Daron Moncevais,Palacios,78.29,181.44,124.74,181.44,487.61,Single-ply,SBD,M
Boys,82.1,6,Payton Terrell,Victoria St. Joseph,78.2,170.1,120.2,181.44,471.74,Single-ply,SBD,M
Boys,82.1,7,Derek Luna,Louise,82.01,154.22,83.91,167.83,405.97,Single-ply,SBD,M
Boys,82.1,8,Johnathan Garcia,Vanderbilt Industrial,76.66,117.93,79.38,131.54,328.85,Single-ply,SBD,M
Boys,82.1,9,Aaron Gomez,Louise,81.28,117.93,70.31,136.08,324.32,Single-ply,SBD,M
Boys,,NS,Daniel Mendoza,Runge,,,,,,Single-ply,SBD,M
Boys,,NS,Chris Ortega,Victoria West,,,,,,Single-ply,SBD,M
Boys,82.1,DQ,Cody Baker,Cuero,79.2,154.22,,,,Single-ply,SBD,M
Boys,89.81,1,Sylias Montgomery,Port Lavaca Calhoun,88,244.94,127.01,249.48,621.42,Single-ply,SBD,M
Boys,89.81,2,Izac Canchola,Refugio,86.73,192.78,120.2,226.8,539.77,Single-ply,SBD,M
Boys,89.81,3,Joe Cardenas,Cuero,87.45,226.8,124.74,179.17,530.7,Single-ply,SBD,M
Boys,89.81,4,Isaiah Estrada,Victoria St. Joseph,85.46,190.51,102.06,188.24,480.81,Single-ply,SBD,M
Boys,89.81,5,Nic Delgado,Victoria West,89.63,183.7,115.67,174.63,474,Single-ply,SBD,M
Boys,89.81,6,Caleb Limon,Victoria St. Joseph,87.09,183.7,104.33,183.7,471.74,Single-ply,SBD,M
Boys,89.81,7,Aaron Mata,Ganado,84.46,181.44,95.25,190.51,467.2,Single-ply,SBD,M
Boys,89.81,8,Danny Williams,Louise,88.81,147.42,97.52,183.7,428.64,Single-ply,SBD,M
Boys,89.81,9,Wesley Bohl,Goliad,89.81,165.56,86.18,158.76,410.5,Single-ply,SBD,M
Boys,89.81,10,Chris Bethany,Vanderbilt Industrial,84.91,133.81,88.45,147.42,369.68,Single-ply,SBD,M
Boys,89.81,11,Leo Torres,Louise,84.28,129.27,83.91,142.88,356.07,Single-ply,SBD,M
Boys,89.81,12,Mattheau Loa,Victoria West,88.36,142.88,70.31,133.81,347,Single-ply,SBD,M
Boys,89.81,13,Hayden Land,Victoria St. Joseph,84.73,111.13,65.77,142.88,319.78,Single-ply,SBD,M
Boys,,NS,Dalton Ashcraft,Van Vleck,,,,,,Single-ply,SBD,M
Boys,,NS,Jaime Rios #1,Port Lavaca Calhoun,,,,,,Single-ply,SBD,M
Boys,99.79,1,Jackson Engel,Palacios,98.7,215.46,124.74,195.04,535.24,Single-ply,SBD,M
Boys,99.79,2,Joseph Bebe,Port Lavaca Calhoun,92.17,192.78,124.74,190.51,508.02,Single-ply,SBD,M
Boys,99.79,3,Blayne Moreland,Vanderbilt Industrial,99.06,183.7,122.47,174.63,480.81,Single-ply,SBD,M
Boys,99.79,4,Ray Buckner,Victoria West,97.89,163.29,97.52,192.78,453.59,Single-ply,SBD,M
Boys,99.79,5,Dd Gaona,Louise,99.7,154.22,104.33,149.69,408.23,Single-ply,SBD,M
Boys,99.79,6,Zack Guerra,Goliad,95.53,149.69,97.52,147.42,394.63,Single-ply,SBD,M
Boys,99.79,7,Jacob Fuentez,Victoria West,93.62,136.08,95.25,161.03,392.36,Single-ply,SBD,M
Boys,99.79,8,Josh Figueroa,Van Vleck,95.89,142.88,102.06,147.42,392.36,Single-ply,SBD,M
Boys,,NS,Lucas Matthews,Victoria St. Joseph,,,,,,Single-ply,SBD,M
Boys,,NS,Trevor Baladez,Victoria West,,,,,,Single-ply,SBD,M
Boys,,NS,Caleb Smith,Victoria West,,,,,,Single-ply,SBD,M
Boys,99.79,DQ,Marcelino Martinez,Van Vleck,93.26,108.86,,,,Single-ply,SBD,M
Boys,99.79,DQ,Benjamin DeNava,Refugio,99.34,181.44,,,,Single-ply,SBD,M
Boys,109.77,1,Angel Hernandez #8,Goliad,108.14,254.01,161.03,256.28,671.32,Single-ply,SBD,M
Boys,109.77,2,Tristan Bermea,Vanderbilt Industrial,106.5,222.26,151.95,217.72,591.94,Single-ply,SBD,M
Boys,109.77,3,Paul Rojas,Goliad,104.6,190.51,115.67,185.97,492.15,Single-ply,SBD,M
Boys,109.77,4,Zach Banda,Cuero,104.87,183.7,90.72,176.9,451.32,Single-ply,SBD,M
Boys,109.77,5,Mateo Martinez,Goliad,103.69,140.61,77.11,158.76,376.48,Single-ply,SBD,M
Boys,109.77,6,Christian Martinez,Van Vleck,100.52,113.4,79.38,113.4,306.17,Single-ply,SBD,M
Boys,,NS,Tre'Veon Duncan,Van Vleck,,,,,,Single-ply,SBD,M
Boys,,NS,Adam McDonald,Van Vleck,,,,,,Single-ply,SBD,M
Boys,109.77,DQ,Nate Beck,Victoria St. Joseph,103.6,156.49,,,,Single-ply,SBD,M
Boys,109.77,DQ,Damien Diaz,Victoria West,104.6,172.37,,,,Single-ply,SBD,M
Boys,109.77,DQ,Elijah Varnado,Cuero,102.97,151.95,,,,Single-ply,SBD,M
Boys,124.74,1,Juan LeBron,Port Lavaca Calhoun,121.93,272.16,129.27,265.35,666.78,Single-ply,SBD,M
Boys,124.74,2,Clayton Klekar,Goliad,118.02,231.33,131.54,219.99,582.87,Single-ply,SBD,M
Boys,124.74,3,Ruben Rios,Victoria West,122.83,256.28,124.74,183.7,564.72,Single-ply,SBD,M
Boys,124.74,4,Kadrian Gonzales,Victoria West,118.12,219.99,124.74,197.31,542.04,Single-ply,SBD,M
Boys,124.74,5,Trevor Benavides,Victoria West,124.19,208.65,142.88,190.51,542.04,Single-ply,SBD,M
Boys,124.74,6,Sergio Calvo,Victoria St. Joseph,121.47,199.58,122.47,210.92,532.97,Single-ply,SBD,M
Boys,124.74,7,Ethan Carr,Palacios,115.67,183.7,124.74,170.1,478.54,Single-ply,SBD,M
Boys,124.74,8,Dean Ramsey,Ganado,119.2,158.76,102.06,192.78,453.59,Single-ply,SBD,M
Boys,124.74,9,Heath Henke,Port Lavaca Calhoun,112.4,154.22,115.67,172.37,442.25,Single-ply,SBD,M
Boys,124.74,10,Chris Vasquez,Louise,113.76,172.37,88.45,156.49,417.3,Single-ply,SBD,M
Boys,124.74,11,Lance Genzer,Ganado,114.94,136.08,97.52,163.29,396.89,Single-ply,SBD,M
Boys,124.74,12,Marcus Montemayor,Van Vleck,120.66,115.67,102.06,172.37,390.09,Single-ply,SBD,M
Boys,124.74,13,Jaydin Jones,Goliad,112.76,145.15,106.59,136.08,387.82,Single-ply,SBD,M
Boys,124.74,14,Luis Briones,Ganado,112.58,149.69,95.25,113.4,358.34,Single-ply,SBD,M
Boys,124.74,15,Javy Rodriguez,Ganado,118.57,142.88,72.57,136.08,351.53,Single-ply,SBD,M
Boys,124.74,16,Ellian Perez,Palacios,113.04,147.42,79.38,122.47,349.27,Single-ply,SBD,M
Boys,124.74,17,Gabriel Medina,Victoria St. Joseph,111.22,129.27,68.04,145.15,342.46,Single-ply,SBD,M
Boys,,NS,Alex Campuzano,Ganado,,,,,,Single-ply,SBD,M
Boys,124.74,DQ,Jaedon Hinchliffe,Palacios,124.56,,,,,Single-ply,SBD,M
Boys,124.74+,1,Leo Madera,Port Lavaca Calhoun,142.79,283.5,167.83,254.01,705.34,Single-ply,SBD,M
Boys,124.74+,2,Noah Nelson,Victoria West,129,285.76,142.88,231.33,659.98,Single-ply,SBD,M
Boys,124.74+,3,Ray Martinez,Port Lavaca Calhoun,138.44,281.23,165.56,213.19,659.98,Single-ply,SBD,M
Boys,124.74+,4,Tyler Neese,Victoria West,124.92,226.8,124.74,204.12,555.65,Single-ply,SBD,M
Boys,124.74+,5,Xavier Perry,Goliad,144.51,233.6,111.13,195.04,539.77,Single-ply,SBD,M
Boys,124.74+,6,Jaedon Segura,Goliad,141.52,172.37,129.27,174.63,476.27,Single-ply,SBD,M
Boys,124.74+,7,Jonas DeLeon,Cuero,148.51,195.04,108.86,149.69,453.59,Single-ply,SBD,M
Boys,124.74+,8,Patrick Perkins,Van Vleck,166.56,108.86,113.4,158.76,381.02,Single-ply,SBD,M
Boys,,NS,Johnny Rangel,Van Vleck,,,,,,Single-ply,SBD,M
Boys,,NS,DaWayne Haynes,Palacios,,,,,,Single-ply,SBD,M
Boys,124.74+,DQ,Storm Cisneros,Cuero,137.62,219.99,,,,Single-ply,SBD,M
