Division,WeightClassKg,Place,Name,Team,BodyweightKg,Best3SquatKg,Best3BenchKg,Best3DeadliftKg,TotalKg,Equipment,Event,Sex,BirthDate
Boys,51.71,1,Zackary Villarreal,Waco Midway,51.62,97.52,56.7,106.59,260.82,Single-ply,SBD,M,
Boys,55.79,1,Tommy Hession,College Station,54.61,197.31,90.72,181.44,469.47,Single-ply,SBD,M,
Boys,59.87,1,David Davila,Snook,59.78,147.42,79.38,174.63,401.43,Single-ply,SBD,M,
Boys,67.13,1,Garrett Lero,Snook,66.5,174.63,113.4,185.97,474,Single-ply,SBD,M,
Boys,74.84,1,Ethan Hall,College Station,74.12,226.8,124.74,215.46,566.99,Single-ply,SBD,M,
Boys,74.84,2,James Johnson,Snook,74.53,142.88,83.91,161.03,387.82,Single-ply,SBD,M,
Boys,74.84,3,Luke Jakubik,Snook,73.48,142.88,81.65,156.49,381.02,Single-ply,SBD,M,
Boys,74.84,4,Tremell Hall,Bryan Rudder,70.85,138.35,61.23,149.69,349.27,Single-ply,SBD,M,
Boys,74.84,5,Jonathan Taylor,Hempstead,72.3,115.67,79.38,149.69,344.73,Single-ply,SBD,M,
Boys,74.84,6,Nick Villarreal,Bryan Rudder,70.13,113.4,61.23,147.42,322.05,Single-ply,SBD,M,
Boys,82.1,1,Seth Vela,Waco University,81.74,199.58,129.27,179.17,508.02,Single-ply,SBD,M,
Boys,82.1,2,Trace Emola,Bryan Rudder,79.29,151.95,83.91,165.56,401.43,Single-ply,SBD,M,
Boys,82.1,3,Lukas Hardy,Bryan Rudder,78.02,102.06,88.45,161.03,351.53,Single-ply,SBD,M,
Boys,89.81,1,Shane Bellows,College Station,89.81,197.31,136.08,208.65,542.04,Single-ply,SBD,M,
Boys,89.81,2,Jonathan Quevedo,Snook,85.73,183.7,117.93,183.7,485.34,Single-ply,SBD,M,
Boys,89.81,DQ,Tanner Stone,College Station,89.72,229.06,,197.31,,Single-ply,SBD,M,
Boys,99.79,1,Luke Miles,College Station,98.34,278.96,147.42,285.76,712.14,Single-ply,SBD,M,
Boys,99.79,2,Antonio Castanon,Hempstead,98.43,226.8,113.4,158.76,498.95,Single-ply,SBD,M,
Boys,99.79,3,Jeremy Lerma,College Station,92.9,206.38,113.4,170.1,489.88,Single-ply,SBD,M,
Boys,99.79,4,Mason Williams,Bryan Rudder,93.53,161.03,56.7,136.08,353.8,Single-ply,SBD,M,
Boys,99.79,DQ,Gabriel Lopez,Hempstead,93.26,,102.06,165.56,,Single-ply,SBD,M,
Boys,99.79,DQ,Davion Waters,Snook,99.52,147.42,79.38,185.97,,Single-ply,SBD,M,
Boys,109.77,1,Lyndon Williams,Bryan Rudder,105.51,219.99,142.88,238.14,601.01,Single-ply,SBD,M,
Boys,109.77,2,Derek Kunz,Waco Midway,105.87,235.87,136.08,204.12,576.06,Single-ply,SBD,M,
Boys,109.77,3,Connor McQueen,Bryan Rudder,103.24,188.24,92.99,170.1,451.32,Single-ply,SBD,M,
Boys,109.77,DQ,Cody Noriega,Snook,107.5,226.8,136.08,,,Single-ply,SBD,M,
Boys,124.74,1,Xavier Camero,Bryan Rudder,112.22,219.99,129.27,183.7,532.97,Single-ply,SBD,M,
Boys,124.74,2,Enrique Rangel,Waco University,116.66,183.7,106.59,161.03,451.32,Single-ply,SBD,M,
Boys,124.74,3,Colton Willever,Hempstead,119.93,120.2,79.38,147.42,347,Single-ply,SBD,M,
Boys,139.71,1,Jo'Vaughn Holmes,College Station,137.71,294.84,161.03,217.72,673.58,Single-ply,SBD,M,
Boys,139.71,2,Jason Batiste,Bryan Rudder,128.55,281.23,124.74,213.19,619.15,Single-ply,SBD,M,
Boys,139.71,DQ,Kooper McCaig-Forbis,Waco Midway,132.9,,124.74,181.44,,Single-ply,SBD,M,
Boys,,NS,ZaCobie Haverly,Waco Midway,,213.19,111.13,195.04,,Single-ply,SBD,M,
Boys,,NS,Christian Mills,Waco Midway,,215.46,117.93,185.97,,Single-ply,SBD,M,
Boys,,NS,Brayan Solis,Hempstead,,136.08,83.91,156.49,,Single-ply,SBD,M,
Boys,,NS,Korbin Johnson,College Station,,210.92,122.47,204.12,,Single-ply,SBD,M,
Boys,,NS,Hunter McGary,Bryan Rudder,,156.49,90.72,149.69,,Single-ply,SBD,M,
Boys,,NS,Jayden Williams,Bryan Rudder,,183.7,92.99,197.31,,Single-ply,SBD,M,
Boys,,NS,Cole Hopkins,Bryan Rudder,,142.88,90.72,174.63,,Single-ply,SBD,M,
Boys,,NS,Caleb Cook,Bryan Rudder,,172.37,102.06,172.37,,Single-ply,SBD,M,
Boys,,NS,Marcus Heard,Bryan Rudder,,174.63,106.59,174.63,,Single-ply,SBD,M,
Boys,,NS,Ej Ezar,Bryan Rudder,,219.99,129.27,192.78,,Single-ply,SBD,M,
Boys,,NS,Kolton Griswold,College Station,,183.7,102.06,183.7,,Single-ply,SBD,M,
Boys,,NS,Brendan Dupree,Waco University,,147.42,86.18,176.9,,Single-ply,SBD,M,
Boys,,NS,Paul Monrial,Waco University,,161.03,,,,Single-ply,SBD,M,
Boys,,NS,Gonzalo Fernandez #1,Waco University,,163.29,83.91,185.97,,Single-ply,SBD,M,
Boys,,NS,Miguel Medrano,Waco University,,133.81,81.65,133.81,,Single-ply,SBD,M,
Boys,,NS,Mike Moreno,Waco University,,131.54,92.99,149.69,,Single-ply,SBD,M,
Boys,,NS,Adam Rodriguez,Waco University,,106.59,81.65,147.42,,Single-ply,SBD,M,
