Division,WeightClassKg,Place,Name,Team,BodyweightKg,Best3SquatKg,Best3BenchKg,Best3DeadliftKg,TotalKg,Equipment,Event,Sex,BirthDate
Boys,59.87,1,Josh Robinson,Centerville,58.6,113.4,72.57,113.4,299.37,Single-ply,SBD,M,
Boys,67.13,1,Kaleb Walter,Navasota,67.04,142.88,88.45,156.49,387.82,Single-ply,SBD,M,
Boys,67.13,2,Juan Bernal,Teague,65.68,136.08,90.72,158.76,385.55,Single-ply,SBD,M,
Boys,67.13,3,Ivan Granados,Caldwell,60.69,142.88,79.38,156.49,378.75,Single-ply,SBD,M,
Boys,67.13,DQ,Tyler Stevens,Jewett Leon,63.41,113.4,,124.74,,Single-ply,SBD,M,
Boys,67.13,DQ,Carson Sifford,Teague,66.77,,72.57,167.83,,Single-ply,SBD,M,
Boys,74.84,1,Luis Guillen,Jewett Leon,73.84,183.7,102.06,201.85,487.61,Single-ply,SBD,M,
Boys,74.84,2,Brent Hubbell,Centerville,73.07,183.7,108.86,183.7,476.27,Single-ply,SBD,M,
Boys,74.84,3,Daniel Torres,Caldwell,74.21,179.17,120.2,172.37,471.74,Single-ply,SBD,M,
Boys,74.84,4,Brayden Youree,Franklin,74.66,181.44,102.06,136.08,419.57,Single-ply,SBD,M,
Boys,74.84,5,Christian Trinidad,Caldwell,72.57,165.56,95.25,145.15,405.97,Single-ply,SBD,M,
Boys,74.84,6,Jarrett Bodine,Teague,73.3,154.22,81.65,170.1,405.97,Single-ply,SBD,M,
Boys,74.84,7,Nate Pedigo,Jewett Leon,74.75,142.88,88.45,165.56,396.89,Single-ply,SBD,M,
Boys,74.84,8,James Webb,Centerville,70.22,142.88,97.52,154.22,394.63,Single-ply,SBD,M,
Boys,74.84,9,Sye Lytle,Centerville,69.31,142.88,92.99,154.22,390.09,Single-ply,SBD,M,
Boys,74.84,10,Dd Starnes,Centerville,71.03,142.88,74.84,147.42,365.14,Single-ply,SBD,M,
Boys,74.84,DQ,Cason Gore,Teague,71.58,,68.04,136.08,,Single-ply,SBD,M,
Boys,82.1,1,Patrick Brazzell,Madisonville,78.2,192.78,124.74,201.85,519.36,Single-ply,SBD,M,
Boys,82.1,2,Bobby Washington,Franklin,81.37,206.38,115.67,183.7,505.76,Single-ply,SBD,M,
Boys,82.1,3,Cameron Pate,Centerville,77.84,174.63,102.06,145.15,421.84,Single-ply,SBD,M,
Boys,82.1,4,Conner Swonke,Madisonville,80.38,147.42,90.72,167.83,405.97,Single-ply,SBD,M,
Boys,82.1,5,Taylor Evans #2,Jewett Leon,75.93,111.13,81.65,151.95,344.73,Single-ply,SBD,M,
Boys,82.1,6,Christopher Tejeda,Navasota,77.11,115.67,61.23,158.76,335.66,Single-ply,SBD,M,
Boys,89.81,1,Levodrick Phillips,Centerville,85.37,192.78,136.08,188.24,517.1,Single-ply,SBD,M,
Boys,89.81,2,Luke Stacks,Teague,85.91,183.7,124.74,192.78,501.22,Single-ply,SBD,M,
Boys,89.81,3,Jaylen Myles,Navasota,84.01,197.31,106.59,185.97,489.88,Single-ply,SBD,M,
Boys,89.81,4,Russell Stegall,Franklin,84.1,185.97,117.93,185.97,489.88,Single-ply,SBD,M,
Boys,89.81,5,Callan Shrode,Jewett Leon,89.54,176.9,111.13,170.1,458.13,Single-ply,SBD,M,
Boys,89.81,6,Theron Richardson,Teague,89.54,174.63,90.72,190.51,455.86,Single-ply,SBD,M,
Boys,89.81,7,Cayden Maxwell,Caldwell,87.18,170.1,108.86,167.83,446.79,Single-ply,SBD,M,
Boys,89.81,DQ,Luis Guevera,Madisonville,87.54,142.88,,154.22,,Single-ply,SBD,M,
Boys,99.79,1,Jose Molina,Normangee,98.34,206.38,115.67,183.7,505.76,Single-ply,SBD,M,
Boys,99.79,2,Tyler George,Madisonville,92.71,204.12,97.52,188.24,489.88,Single-ply,SBD,M,
Boys,99.79,3,Alexander Santos,Navasota,91.63,190.51,83.91,185.97,460.4,Single-ply,SBD,M,
Boys,99.79,DQ,Trey Weiler,Jewett Leon,99.56,183.7,,167.83,,Single-ply,SBD,M,
Boys,109.77,1,Keegan Wilson,Franklin,108.59,217.72,122.47,197.31,537.51,Single-ply,SBD,M,
Boys,109.77,2,Braylon Cornish,Normangee,100.52,208.65,106.59,192.78,508.02,Single-ply,SBD,M,
Boys,109.77,3,Hayden Lumous,Teague,103.51,163.29,113.4,176.9,453.59,Single-ply,SBD,M,
Boys,109.77,4,Eduardo Perez,Navasota,107.86,179.17,99.79,165.56,444.52,Single-ply,SBD,M,
Boys,109.77,5,Josh Anderson,Jewett Leon,103.19,127.01,102.06,183.7,412.77,Single-ply,SBD,M,
Boys,109.77,6,Tristain Olson,Navasota,101.33,129.27,83.91,161.03,374.21,Single-ply,SBD,M,
Boys,109.77,7,Carl Shugart,Teague,109.59,151.95,83.91,111.13,347,Single-ply,SBD,M,
Boys,124.74,1,Jer'Tavius Brown,Madisonville,114.21,226.8,145.15,195.04,566.99,Single-ply,SBD,M,
Boys,124.74,2,Bj Kelly,Centerville,109.86,206.38,136.08,183.7,526.17,Single-ply,SBD,M,
Boys,124.74,3,Ryan Broaduss,Caldwell,118.02,192.78,138.35,192.78,523.9,Single-ply,SBD,M,
Boys,124.74,4,David Guevera,Madisonville,112.22,201.85,115.67,201.85,519.36,Single-ply,SBD,M,
Boys,124.74,5,Lucas Peel,Caldwell,116.21,183.7,97.52,188.24,469.47,Single-ply,SBD,M,
Boys,124.74,6,Jose Lopez,Navasota,121.47,199.58,102.06,165.56,467.2,Single-ply,SBD,M,
Boys,124.74,7,Andrew Narro,Franklin,116.12,183.7,117.93,163.29,464.93,Single-ply,SBD,M,
Boys,139.71,1,Garrett Tittle,Caldwell,126.01,226.8,158.76,183.7,569.26,Single-ply,SBD,M,
Boys,139.71,2,Justin Herron,Madisonville,130.82,213.19,131.54,158.76,503.49,Single-ply,SBD,M,
Boys,139.71,3,Delvin Morris,Caldwell,139.62,176.9,106.59,183.7,467.2,Single-ply,SBD,M,
Boys,139.71+,1,Hillard Morning,Madisonville,192.78,172.37,106.59,170.1,449.06,Single-ply,SBD,M,
