Division,WeightClassKg,Place,Name,Team,BodyweightKg,Best3SquatKg,Best3BenchKg,Best3DeadliftKg,TotalKg,Equipment,Event,Sex
Boys,51.71,1,Jesse Ortiz,Sulphur Springs,51.17,142.88,74.84,156.49,374.21,Single-ply,SBD,M
Boys,51.71,2,Colton Doyal,Waxahachie,50.44,108.86,61.23,117.93,288.03,Single-ply,SBD,M
Boys,51.71,3,Cody Brown #5,Lindale,48.08,115.67,54.43,104.33,274.42,Single-ply,SBD,M
Boys,51.71,DQ,Freddy Reyes,Greenville,48.9,,,,,Single-ply,SBD,M
Boys,51.71,DQ,Ross Cowart,Huntsville,50.17,79.38,,,,Single-ply,SBD,M
Boys,51.71,DQ,Adrian Brackens,Forney,51.26,122.47,,,,Single-ply,SBD,M
Boys,55.79,1,Joseph Rico,Forney,54.79,138.35,83.91,149.69,371.95,Single-ply,SBD,M
Boys,55.79,2,Camron King,Marshall,55.52,142.88,61.23,147.42,351.53,Single-ply,SBD,M
Boys,55.79,3,Jakovan Williams,Nacogdoches,53.89,117.93,65.77,154.22,337.93,Single-ply,SBD,M
Boys,55.79,4,Marcus Pierotek,Longview Pine Tree,54.98,120.2,79.38,129.27,328.85,Single-ply,SBD,M
Boys,55.79,5,Auryan Parks,Hallsville,55.52,127.01,56.7,140.61,324.32,Single-ply,SBD,M
Boys,59.87,6,Anton Sanders,Lindale,56.02,115.67,70.31,133.81,319.78,Single-ply,SBD,M
Boys,55.79,7,Zack Baker,Hallsville,54.7,120.2,72.57,120.2,312.98,Single-ply,SBD,M
Boys,55.79,8,Ryan Martinez,Huntsville,55.52,102.06,79.38,102.06,283.5,Single-ply,SBD,M
Boys,59.87,DQ,Dakota Patton,Sulphur Springs,55.88,,,,,Single-ply,SBD,M
Boys,59.87,DQ,David Blackwell,Nacogdoches,55.97,,,,,Single-ply,SBD,M
Boys,59.87,1,Ta'Montre Mitchell,Greenville,59.78,183.7,99.79,154.22,437.72,Single-ply,SBD,M
Boys,59.87,2,Ja'Vontay Williams,Nacogdoches,59.06,145.15,81.65,190.51,417.3,Single-ply,SBD,M
Boys,59.87,3,Preston Stripling,Midlothian,58.33,145.15,90.72,149.69,385.55,Single-ply,SBD,M
Boys,59.87,4,Christian Fisk,Longview Pine Tree,59.06,156.49,81.65,145.15,383.29,Single-ply,SBD,M
Boys,59.87,5,Scott Galarza,Sulphur Springs,58.6,113.4,77.11,145.15,335.66,Single-ply,SBD,M
Boys,59.87,6,Torres Gilberto,Forney,59.87,113.4,63.5,151.95,328.85,Single-ply,SBD,M
Boys,59.87,DQ,Edgar Carrera,Ennis,57.97,136.08,,,,Single-ply,SBD,M
Boys,59.87,DQ,Issac Montemayor,Ennis,57.97,,,,,Single-ply,SBD,M
Boys,59.87,DQ,Luis Gamez,Sulphur Springs,59.06,163.29,108.86,,,Single-ply,SBD,M
Boys,67.13,1,Josh Goolsby,Huntsville,65.59,170.1,111.13,222.26,503.49,Single-ply,SBD,M
Boys,67.13,2,Tommie Martinez,Midlothian,65.95,188.24,120.2,179.17,487.61,Single-ply,SBD,M
Boys,67.13,3,Kevin Jackson,Marshall,64.86,185.97,97.52,181.44,464.93,Single-ply,SBD,M
Boys,67.13,4,Bryce Wilkerson,Tyler Lee,62.87,190.51,97.52,174.63,462.66,Single-ply,SBD,M
Boys,67.13,5,Rueben Gonzalez,Ennis,66.13,170.1,99.79,190.51,460.4,Single-ply,SBD,M
Boys,67.13,6,Corvell Marshall,Longview Pine Tree,66.32,156.49,102.06,183.7,442.25,Single-ply,SBD,M
Boys,67.13,7,Nathan Evans,Lindale,65.23,156.49,86.18,170.1,412.77,Single-ply,SBD,M
Boys,67.13,DQ,Javonte Parker,Marshall,63.87,176.9,97.52,,,Single-ply,SBD,M
Boys,74.84,1,Jacovin Coats,Marshall,73.03,238.14,111.13,238.14,587.4,Single-ply,SBD,M
Boys,74.84,2,Jalen Johnson,Longview,74.48,226.8,127.01,226.8,580.6,Single-ply,SBD,M
Boys,74.84,3,James Seekford,Lindale,73.84,219.99,120.2,213.19,553.38,Single-ply,SBD,M
Boys,74.84,4,Deonte Wall,Longview,70.4,208.65,111.13,215.46,535.24,Single-ply,SBD,M
Boys,74.84,5,Kandeh Fofanah,Red Oak,74.12,181.44,106.59,215.46,503.49,Single-ply,SBD,M
Boys,74.84,6,Diondre Allen,Tyler Lee,69.76,190.51,99.79,197.31,487.61,Single-ply,SBD,M
Boys,74.84,7,Jacorian Walker,Texarkana Texas,70.08,195.04,97.52,192.78,485.34,Single-ply,SBD,M
Boys,74.84,8,Payton Stewart,Waxahachie,70.94,167.83,122.47,195.04,485.34,Single-ply,SBD,M
Boys,74.84,9,Jason Washburn,Ennis,71.21,185.97,99.79,197.31,483.08,Single-ply,SBD,M
Boys,74.84,10,AJ Rose,Hallsville,74.48,156.49,136.08,172.37,464.93,Single-ply,SBD,M
Boys,74.84,DQ,Nolan Allen,Marshall,74.39,215.46,,,,Single-ply,SBD,M
Boys,82.1,1,Adam Galaz,Lindale,79.92,240.4,138.35,226.8,605.55,Single-ply,SBD,M
Boys,89.81,2,Bryce Barrett,Waxahachie,82.19,226.8,136.08,217.72,580.6,Single-ply,SBD,M
Boys,82.1,3,Dedric Smith,Sulphur Springs,80.74,226.8,124.74,226.8,578.33,Single-ply,SBD,M
Boys,82.1,4,Travian Jones,Longview,81.19,235.87,113.4,215.46,564.72,Single-ply,SBD,M
Boys,82.1,5,Tay Roper,Forney,78.11,213.19,102.06,244.94,560.19,Single-ply,SBD,M
Boys,82.1,6,Clay Layman,Longview,78.83,204.12,111.13,224.53,539.77,Single-ply,SBD,M
Boys,82.1,7,Brandon Rodriguez #3,Terrell,80.65,199.58,131.54,208.65,539.77,Single-ply,SBD,M
Boys,82.1,8,Landon Emmert,Ennis,76.93,215.46,117.93,201.85,535.24,Single-ply,SBD,M
Boys,82.1,9,Derek McCuller,Hallsville,79.74,197.31,124.74,188.24,510.29,Single-ply,SBD,M
Boys,89.81,1,Craig Renfro,Waxahachie,86.55,276.69,149.69,260.82,687.19,Single-ply,SBD,M
Boys,89.81,2,Omar French,Longview,89.27,226.8,102.06,272.16,601.01,Single-ply,SBD,M
Boys,89.81,3,Lapone Finley,North Forney,86,235.87,111.13,233.6,580.6,Single-ply,SBD,M
Boys,89.81,4,Dakota Lynn,Longview Pine Tree,84.55,231.33,120.2,217.72,569.26,Single-ply,SBD,M
Boys,89.81,5,Najee Mustafaa,Midlothian,89.09,210.92,129.27,215.46,555.65,Single-ply,SBD,M
Boys,89.81,6,Harold Stoker,Texarkana Texas,87.54,204.12,129.27,213.19,546.58,Single-ply,SBD,M
Boys,89.81,7,Shawn Smith,Nacogdoches,89.81,195.04,122.47,226.8,544.31,Single-ply,SBD,M
Boys,89.81,8,Chris Ferguson,Longview Pine Tree,88.81,204.12,124.74,204.12,532.97,Single-ply,SBD,M
Boys,89.81,9,Fabi Molina,Lindale,87.09,192.78,115.67,206.38,514.83,Single-ply,SBD,M
Boys,89.81,DQ,Cody Brantley,Mount Pleasant,85,,,,,Single-ply,SBD,M
Boys,89.81,DQ,Chase Wingo,Midlothian,86.82,213.19,133.81,,,Single-ply,SBD,M
Boys,99.79,1,Terry Jackson,North Forney,98.61,260.82,140.61,240.4,641.83,Single-ply,SBD,M
Boys,99.79,2,Delenis Garrett,Lindale,96.62,247.21,149.69,208.65,605.55,Single-ply,SBD,M
Boys,99.79,3,Corey Lowe,Texarkana Texas,92.9,217.72,127.01,249.48,594.21,Single-ply,SBD,M
Boys,99.79,4,Caleb Shaw,Midlothian,93.89,231.33,129.27,213.19,573.79,Single-ply,SBD,M
Boys,99.79,5,Braylon Champion,Greenville,95.35,215.46,124.74,233.6,573.79,Single-ply,SBD,M
Boys,99.79,6,John Neville,Huntsville,90.54,213.19,120.2,235.87,569.26,Single-ply,SBD,M
Boys,99.79,7,Cipriano Gonzales,Greenville,92.17,215.46,140.61,197.31,553.38,Single-ply,SBD,M
Boys,99.79,8,Antonio Harris,Terrell,96.34,201.85,129.27,208.65,539.77,Single-ply,SBD,M
Boys,99.79,9,Zach Verhalen,Nacogdoches,96.89,192.78,127.01,219.99,539.77,Single-ply,SBD,M
Boys,99.79,10,Colton Henderson,Terrell,95.16,224.53,,,224.53,Single-ply,S,M
Boys,99.79,DQ,Jeremy Powell,Longview,94.89,235.87,117.93,,,Single-ply,SB,M
Boys,109.77,1,Eddie Calico,Longview Pine Tree,105.78,331.12,208.65,285.76,825.54,Single-ply,SBD,M
Boys,109.77,2,Parker Blount,Huntsville,107.05,278.96,163.29,238.14,680.39,Single-ply,SBD,M
Boys,109.77,3,Stetson Farrell,Lindale,106.87,260.82,170.1,217.72,648.64,Single-ply,SBD,M
Boys,109.77,4,Victor Mejia,Waxahachie,106.5,226.8,151.95,238.14,616.89,Single-ply,SBD,M
Boys,109.77,5,De'Andre Miller,Tyler,109.23,231.33,147.42,231.33,610.08,Single-ply,SBD,M
Boys,109.77,6,Brandon Saens,Red Oak,104.78,226.8,138.35,224.53,589.67,Single-ply,SBD,M
Boys,109.77,7,Adrian Zavala,Waxahachie,108.68,201.85,138.35,238.14,578.33,Single-ply,SBD,M
Boys,109.77,DQ,Mark Malone,Longview,109.59,231.33,133.81,,,Single-ply,SBD,M
Boys,124.74,1,Justin Lewis,Texarkana Texas,116.03,294.84,172.37,244.94,712.14,Single-ply,SBD,M
Boys,124.74,2,James Lockhart,Ennis,113.13,258.55,154.22,260.82,673.58,Single-ply,SBD,M
Boys,124.74,3,Thomas Marek,Red Oak,114.76,272.16,163.29,238.14,673.58,Single-ply,SBD,M
Boys,124.74,4,William Mitchell,Longview Pine Tree,112.4,272.16,145.15,217.72,635.03,Single-ply,SBD,M
Boys,124.74,5,Terrance Walker,North Forney,123.74,226.8,147.42,226.8,601.01,Single-ply,SBD,M
Boys,124.74,6,Toni Clark,Longview,121.47,247.21,115.67,224.53,587.4,Single-ply,SBD,M
Boys,124.74,7,Heath Howard,Sulphur Springs,115.67,206.38,158.76,213.19,578.33,Single-ply,SBD,M
Boys,124.74,8,Christian Milliorn,Waxahachie,111.13,204.12,147.42,222.26,573.79,Single-ply,SBD,M
Boys,124.74,DQ,Katrail Flanagan,Marshall,114.58,,,,,Single-ply,SBD,M
Boys,124.74+,1,Montrel Newson,Ennis,161.48,317.51,156.49,238.14,712.14,Single-ply,SBD,M
Boys,124.74+,2,Steven Patton,Red Oak,141.16,278.96,165.56,242.67,687.19,Single-ply,SBD,M
Boys,124.74+,3,Daniel Ruiz,Corsicana,154.36,238.14,170.1,242.67,650.91,Single-ply,SBD,M
Boys,124.74+,4,Jacob Bragg,Nacogdoches,141.43,249.48,147.42,226.8,623.69,Single-ply,SBD,M
Boys,124.74+,5,Dacota Brooks,Marshall,137.98,238.14,140.61,199.58,578.33,Single-ply,SBD,M
Boys,124.74+,6,Trevor Adams,North Forney,130.27,235.87,127.01,201.85,564.72,Single-ply,SBD,M
Boys,124.74+,7,Brice Tekell,Ennis,126.92,226.8,131.54,195.04,553.38,Single-ply,SBD,M
Boys,124.74+,8,Jess Jenhins,Sulphur Springs,128.82,204.12,136.08,213.19,553.38,Single-ply,SBD,M
Boys,124.74+,9,Eric Roberts,Terrell,126.92,229.06,122.47,181.44,532.97,Single-ply,SBD,M
