Division,WeightClassKg,Place,Name,Team,BodyweightKg,Best3SquatKg,Best3BenchKg,Best3DeadliftKg,TotalKg,Equipment,Event,Sex
Boys,51.71,1,Rigo Pena,Pharr Valley View,51.62,138.35,99.79,158.76,396.89,Single-ply,SBD,M
Boys,51.71,2,Orlando Trigueros,Donna,50.8,133.81,77.11,131.54,342.46,Single-ply,SBD,M
Boys,51.71,3,Juan Torres,San Benito,51.26,122.47,72.57,145.15,340.19,Single-ply,SBD,M
Boys,55.79,4,Ray Fernandez,Donna,51.89,124.74,63.5,140.61,328.85,Single-ply,SBD,M
Boys,59.87,1,Roy Rodriguez,Weslaco,55.84,136.08,70.31,142.88,349.27,Single-ply,SBD,M
Boys,59.87,1,Lucky Carrasco,Pharr Valley View,58.97,174.63,97.52,188.24,460.4,Single-ply,SBD,M
Boys,59.87,2,Lionel Anliso,Weslaco,59.42,149.69,95.25,188.24,433.18,Single-ply,SBD,M
Boys,67.13,3,Gilbert Flores,Pharr Valley View,60.1,161.03,92.99,174.63,428.64,Single-ply,SBD,M
Boys,59.87,4,Julian Morales,Weslaco,58.79,149.69,81.65,158.76,390.09,Single-ply,SBD,M
Boys,67.13,DQ,Alonzo Toscano,Edcouch-Elsa,60.1,113.4,,,,Single-ply,SBD,M
Boys,74.84,1,Joe Gonzalez,Pharr Valley View,67.31,204.12,115.67,213.19,532.97,Single-ply,SBD,M
Boys,67.13,2,Steven Flores,Pharr Valley View,67.13,174.63,104.33,204.12,483.08,Single-ply,SBD,M
Boys,67.13,3,Justin Gonzalez,Weslaco,66.68,188.24,99.79,172.37,460.4,Single-ply,SBD,M
Boys,74.84,4,Brandon Martinez,Edcouch-Elsa,67.36,149.69,95.25,156.49,401.43,Single-ply,SBD,M
Boys,74.84,1,Aric Hernandez,Weslaco,74.12,183.7,113.4,226.8,523.9,Single-ply,SBD,M
Boys,74.84,2,Danny Zavala,Edcouch-Elsa,74.75,183.7,113.4,219.99,517.1,Single-ply,SBD,M
Boys,74.84,3,Rene Torres,San Benito,69.67,183.7,86.18,183.7,453.59,Single-ply,SBD,M
Boys,82.1,1,Colton Hamilton,Pharr Valley View,80.01,183.7,97.52,226.8,508.02,Single-ply,SBD,M
Boys,82.1,2,Miguel Galvan,Pharr Valley View,81.37,176.9,113.4,181.44,471.74,Single-ply,SBD,M
Boys,82.1,3,Matt Galvan,San Benito,80.47,174.63,102.06,190.51,467.2,Single-ply,SBD,M
Boys,82.1,4,Ernesto Tafolla,Weslaco,80.83,167.83,104.33,188.24,460.4,Single-ply,SBD,M
Boys,82.1,5,AJ Alvarez,Donna,76.2,104.33,72.57,140.61,317.51,Single-ply,SBD,M
Boys,82.1,DQ,Simon Hernandez,Edcouch-Elsa,77.84,192.78,,,,Single-ply,SBD,M
Boys,89.81,1,Erik Ramirez,Donna,84.91,285.76,142.88,240.4,669.05,Single-ply,SBD,M
Boys,89.81,2,Ryan Flores,Weslaco,89.49,215.46,138.35,235.87,589.67,Single-ply,SBD,M
Boys,89.81,3,Aaron Barron,San Benito,88.63,226.8,117.93,215.46,560.19,Single-ply,SBD,M
Boys,99.79,4,Jamie Solis,Edcouch-Elsa,90.04,192.78,129.27,199.58,521.63,Single-ply,SBD,M
Boys,89.81,5,Luis Hernandez,Edcouch-Elsa,86.18,179.17,124.74,201.85,505.76,Single-ply,SBD,M
Boys,89.81,6,Ebert Gaona,Donna,85.46,142.88,83.91,158.76,385.55,Single-ply,SBD,M
Boys,99.79,1,Mauricio Verdin,Weslaco,97.2,226.8,120.2,195.04,542.04,Single-ply,SBD,M
Boys,99.79,2,Anthony Rodriguez,Edcouch-Elsa,98.88,224.53,113.4,204.12,542.04,Single-ply,SBD,M
Boys,99.79,DQ,Danny Villarreal,Edcouch-Elsa,99.61,192.78,133.81,,,Single-ply,SBD,M
Boys,109.77,DQ,Ivan Arrevalo,Pharr Valley View,100.02,249.48,145.15,,,Single-ply,SBD,M
Boys,109.77,1,Larry Cardenas,Weslaco,102.69,258.55,147.42,210.92,616.89,Single-ply,SBD,M
Boys,109.77,2,Sergio Guevara,Donna,106.32,240.4,142.88,226.8,610.08,Single-ply,SBD,M
Boys,109.77,3,Troy Garza,Edcouch-Elsa,108.77,188.24,136.08,192.78,517.1,Single-ply,SBD,M
Boys,124.74,1,Eliseo Pena,Weslaco,111.58,272.16,156.49,222.26,650.91,Single-ply,SBD,M
Boys,124.74,2,Jorge Alvarez,Edcouch-Elsa,117.12,226.8,133.81,197.31,557.92,Single-ply,SBD,M
Boys,124.74,3,Julio Rivas,San Benito,118.75,208.65,138.35,210.92,557.92,Single-ply,SBD,M
Boys,124.74,4,Juan Rodriguez,Edcouch-Elsa,122.29,210.92,129.27,217.72,557.92,Single-ply,SBD,M
Boys,124.74,DQ,Ángel Sánchez #4,Donna,114.21,,,,,Single-ply,SBD,M
Boys,124.74+,1,Jorge Mendez,Pharr Valley View,133.9,324.32,136.08,226.8,687.19,Single-ply,SBD,M
Boys,124.74+,2,Luis Castillo,Weslaco,126.23,285.76,163.29,217.72,666.78,Single-ply,SBD,M
Boys,124.74+,3,Mando Salazar,Donna,127.01,249.48,170.1,233.6,653.17,Single-ply,SBD,M
